%!PS-Adobe-3.0 EPSF-3.0
%%Title: streamviz-rail.fig
%%Creator: fig2dev Version 3.2 Patchlevel 5e
%%CreationDate: Tue Jun 14 11:06:07 2016
%%BoundingBox: 0 0 413 122
%Magnification: 1.0000
%%EndComments
%%BeginProlog
/$F2psDict 200 dict def
$F2psDict begin
$F2psDict /mtrx matrix put
/col-1 {0 setgray} bind def
/col0 {0.000 0.000 0.000 srgb} bind def
/col1 {0.000 0.000 1.000 srgb} bind def
/col2 {0.000 1.000 0.000 srgb} bind def
/col3 {0.000 1.000 1.000 srgb} bind def
/col4 {1.000 0.000 0.000 srgb} bind def
/col5 {1.000 0.000 1.000 srgb} bind def
/col6 {1.000 1.000 0.000 srgb} bind def
/col7 {1.000 1.000 1.000 srgb} bind def
/col8 {0.000 0.000 0.560 srgb} bind def
/col9 {0.000 0.000 0.690 srgb} bind def
/col10 {0.000 0.000 0.820 srgb} bind def
/col11 {0.530 0.810 1.000 srgb} bind def
/col12 {0.000 0.560 0.000 srgb} bind def
/col13 {0.000 0.690 0.000 srgb} bind def
/col14 {0.000 0.820 0.000 srgb} bind def
/col15 {0.000 0.560 0.560 srgb} bind def
/col16 {0.000 0.690 0.690 srgb} bind def
/col17 {0.000 0.820 0.820 srgb} bind def
/col18 {0.560 0.000 0.000 srgb} bind def
/col19 {0.690 0.000 0.000 srgb} bind def
/col20 {0.820 0.000 0.000 srgb} bind def
/col21 {0.560 0.000 0.560 srgb} bind def
/col22 {0.690 0.000 0.690 srgb} bind def
/col23 {0.820 0.000 0.820 srgb} bind def
/col24 {0.500 0.190 0.000 srgb} bind def
/col25 {0.630 0.250 0.000 srgb} bind def
/col26 {0.750 0.380 0.000 srgb} bind def
/col27 {1.000 0.500 0.500 srgb} bind def
/col28 {1.000 0.630 0.630 srgb} bind def
/col29 {1.000 0.750 0.750 srgb} bind def
/col30 {1.000 0.880 0.880 srgb} bind def
/col31 {1.000 0.840 0.000 srgb} bind def
/col32 {0.533 0.533 0.533 srgb} bind def

end

/cp {closepath} bind def
/ef {eofill} bind def
/gr {grestore} bind def
/gs {gsave} bind def
/sa {save} bind def
/rs {restore} bind def
/l {lineto} bind def
/m {moveto} bind def
/rm {rmoveto} bind def
/n {newpath} bind def
/s {stroke} bind def
/sh {show} bind def
/slc {setlinecap} bind def
/slj {setlinejoin} bind def
/slw {setlinewidth} bind def
/srgb {setrgbcolor} bind def
/rot {rotate} bind def
/sc {scale} bind def
/sd {setdash} bind def
/ff {findfont} bind def
/sf {setfont} bind def
/scf {scalefont} bind def
/sw {stringwidth} bind def
/tr {translate} bind def
/tnt {dup dup currentrgbcolor
  4 -2 roll dup 1 exch sub 3 -1 roll mul add
  4 -2 roll dup 1 exch sub 3 -1 roll mul add
  4 -2 roll dup 1 exch sub 3 -1 roll mul add srgb}
  bind def
/shd {dup dup currentrgbcolor 4 -2 roll mul 4 -2 roll mul
  4 -2 roll mul srgb} bind def
 /DrawEllipse {
	/endangle exch def
	/startangle exch def
	/yrad exch def
	/xrad exch def
	/y exch def
	/x exch def
	/savematrix mtrx currentmatrix def
	x y tr xrad yrad sc 0 0 1 startangle endangle arc
	closepath
	savematrix setmatrix
	} def

/$F2psBegin {$F2psDict begin /$F2psEnteredState save def} def
/$F2psEnd {$F2psEnteredState restore end} def

/pageheader {
save
newpath 0 122 moveto 0 0 lineto 413 0 lineto 413 122 lineto closepath clip newpath
-225.8 315.6 translate
1 -1 scale
$F2psBegin
10 setmiterlimit
0 slj 0 slc
 0.06299 0.06299 sc
} bind def
/pagefooter {
$F2psEnd
restore
} bind def
%%EndProlog
pageheader
%
% Fig objects follow
%
% 
% here starts figure with depth 50
% Ellipse
7.500 slw
n 4050 4500 45 45 0 360 DrawEllipse gs 0.00 setgray ef gr gs col0 s gr

% Ellipse
n 4050 4950 45 45 0 360 DrawEllipse gs 0.00 setgray ef gr gs col0 s gr

% Ellipse
n 4275 4500 45 45 0 360 DrawEllipse gs 0.00 setgray ef gr gs col0 s gr

% Ellipse
n 4275 4050 45 45 0 360 DrawEllipse gs 0.00 setgray ef gr gs col0 s gr

% Ellipse
n 4500 4050 45 45 0 360 DrawEllipse gs 0.00 setgray ef gr gs col0 s gr

% Ellipse
n 4500 4950 45 45 0 360 DrawEllipse gs 0.00 setgray ef gr gs col0 s gr

% Ellipse
n 5175 3150 45 45 0 360 DrawEllipse gs 0.00 setgray ef gr gs col0 s gr

% Ellipse
n 5175 3600 45 45 0 360 DrawEllipse gs 0.00 setgray ef gr gs col0 s gr

% Ellipse
n 5625 4950 45 45 0 360 DrawEllipse gs 0.00 setgray ef gr gs col0 s gr

% Ellipse
n 5625 3150 45 45 0 360 DrawEllipse gs 0.00 setgray ef gr gs col0 s gr

% Ellipse
n 5850 3600 45 45 0 360 DrawEllipse gs 0.00 setgray ef gr gs col0 s gr

% Ellipse
n 5850 4950 45 45 0 360 DrawEllipse gs 0.00 setgray ef gr gs col0 s gr

% Ellipse
n 5400 4050 45 45 0 360 DrawEllipse gs 0.00 setgray ef gr gs col0 s gr

% Ellipse
n 5400 4950 45 45 0 360 DrawEllipse gs 0.00 setgray ef gr gs col0 s gr

% Polyline
0 slj
0 slc
 [60] 0 sd
n 3825 3150 m
 6525 3150 l gs 0.00 setgray ef gr gs col0 s gr  [] 0 sd
% Polyline
 [60] 0 sd
n 3825 3600 m
 6525 3600 l gs 0.00 setgray ef gr gs col0 s gr  [] 0 sd
% Polyline
 [60] 0 sd
n 3825 4050 m
 6525 4050 l gs 0.00 setgray ef gr gs col0 s gr  [] 0 sd
% Polyline
 [60] 0 sd
n 3825 4500 m
 6525 4500 l gs 0.00 setgray ef gr gs col0 s gr  [] 0 sd
% Polyline
n 4275 4050 m
 4275 4500 l gs 0.00 setgray ef gr gs col0 s gr 
% Polyline
n 4050 4500 m
 4050 4950 l gs 0.00 setgray ef gr gs col0 s gr 
% Polyline
n 5175 3150 m
 5175 3600 l gs 0.00 setgray ef gr gs col0 s gr 
% Polyline
n 4500 4050 m
 4500 4950 l gs 0.00 setgray ef gr gs col0 s gr 
% Polyline
n 5400 4050 m
 5400 4950 l gs 0.00 setgray ef gr gs col0 s gr 
% Polyline
n 5625 3150 m
 5625 4950 l gs 0.00 setgray ef gr gs col0 s gr 
% Polyline
n 5850 3600 m
 5850 4950 l gs 0.00 setgray ef gr gs col0 s gr 
% Polyline
n 4275 4275 m
 4725 4275 l gs 0.00 setgray ef gr gs col0 s gr 
% Polyline
n 4050 4725 m
 4365 4725 l gs 0.00 setgray ef gr gs col0 s gr 
% Polyline
n 4500 4635 m
 4950 4635 l gs 0.00 setgray ef gr gs col0 s gr 
% Polyline
n 5175 3375 m
 6300 3375 l gs 0.00 setgray ef gr gs col0 s gr 
% Polyline
n 5850 4275 m
 6300 4275 l gs 0.00 setgray ef gr gs col0 s gr 
% Polyline
n 5400 4725 m
 6075 4725 l gs 0.00 setgray ef gr gs col0 s gr 
% Polyline
n 5625 3825 m
 6300 3825 l gs 0.00 setgray ef gr gs col0 s gr 
% Polyline
 [60] 0 sd
n 3825 4950 m
 6525 4950 l gs 0.00 setgray ef gr gs col0 s gr  [] 0 sd
% Ellipse
n 7650 4500 45 45 0 360 DrawEllipse gs 0.00 setgray ef gr gs col0 s gr

% Ellipse
n 7650 4950 45 45 0 360 DrawEllipse gs 0.00 setgray ef gr gs col0 s gr

% Ellipse
n 7875 4500 45 45 0 360 DrawEllipse gs 0.00 setgray ef gr gs col0 s gr

% Ellipse
n 7875 4050 45 45 0 360 DrawEllipse gs 0.00 setgray ef gr gs col0 s gr

% Ellipse
n 8100 4050 45 45 0 360 DrawEllipse gs 0.00 setgray ef gr gs col0 s gr

% Ellipse
n 8100 4950 45 45 0 360 DrawEllipse gs 0.00 setgray ef gr gs col0 s gr

% Ellipse
n 8775 3150 45 45 0 360 DrawEllipse gs 0.00 setgray ef gr gs col0 s gr

% Ellipse
n 8775 3600 45 45 0 360 DrawEllipse gs 0.00 setgray ef gr gs col0 s gr

% Ellipse
n 9225 3150 45 45 0 360 DrawEllipse gs 0.00 setgray ef gr gs col0 s gr

% Ellipse
n 9450 3600 45 45 0 360 DrawEllipse gs 0.00 setgray ef gr gs col0 s gr

% Ellipse
n 9000 4500 45 45 0 360 DrawEllipse gs 0.00 setgray ef gr gs col0 s gr

% Ellipse
n 9225 4050 45 45 0 360 DrawEllipse gs 0.00 setgray ef gr gs col0 s gr

% Ellipse
n 9450 4050 45 45 0 360 DrawEllipse gs 0.00 setgray ef gr gs col0 s gr

% Ellipse
n 9000 4950 45 45 0 360 DrawEllipse gs 0.00 setgray ef gr gs col0 s gr

% Polyline
 [60] 0 sd
n 7425 3150 m
 10125 3150 l gs 0.00 setgray ef gr gs col0 s gr  [] 0 sd
% Polyline
 [60] 0 sd
n 7425 3600 m
 10125 3600 l gs 0.00 setgray ef gr gs col0 s gr  [] 0 sd
% Polyline
 [60] 0 sd
n 7425 4500 m
 10125 4500 l gs 0.00 setgray ef gr gs col0 s gr  [] 0 sd
% Polyline
n 7875 4050 m
 7875 4500 l gs 0.00 setgray ef gr gs col0 s gr 
% Polyline
n 7650 4500 m
 7650 4950 l gs 0.00 setgray ef gr gs col0 s gr 
% Polyline
n 8775 3150 m
 8775 3600 l gs 0.00 setgray ef gr gs col0 s gr 
% Polyline
n 8100 4050 m
 8100 4950 l gs 0.00 setgray ef gr gs col0 s gr 
% Polyline
n 7875 4275 m
 8325 4275 l gs 0.00 setgray ef gr gs col0 s gr 
% Polyline
n 7650 4725 m
 7965 4725 l gs 0.00 setgray ef gr gs col0 s gr 
% Polyline
n 8100 4635 m
 8550 4635 l gs 0.00 setgray ef gr gs col0 s gr 
% Polyline
n 8775 3375 m
 9900 3375 l gs 0.00 setgray ef gr gs col0 s gr 
% Polyline
n 9225 3825 m
 9900 3825 l gs 0.00 setgray ef gr gs col0 s gr 
% Polyline
n 9450 3915 m
 9900 3915 l gs 0.00 setgray ef gr gs col0 s gr 
% Polyline
n 9000 4725 m
 9675 4725 l gs 0.00 setgray ef gr gs col0 s gr 
% Polyline
n 9000 4500 m
 9000 4950 l gs 0.00 setgray ef gr gs col0 s gr 
% Polyline
n 9450 3600 m
 9450 4050 l gs 0.00 setgray ef gr gs col0 s gr 
% Polyline
n 9225 3150 m
 9225 4050 l gs 0.00 setgray ef gr gs col0 s gr 
% Polyline
 [60] 0 sd
n 8775 4950 m
 10125 4950 l gs col0 s gr  [] 0 sd
% Polyline
 [60] 0 sd
n 7425 4950 m
 8550 4950 l gs col0 s gr  [] 0 sd
% Polyline
 [60] 0 sd
n 8775 4050 m
 10125 4050 l gs col0 s gr  [] 0 sd
% Polyline
 [60] 0 sd
n 7425 4050 m
 8550 4050 l gs col0 s gr  [] 0 sd
% Polyline
 [60] 0 sd
n 8550 4050 m
 8775 4950 l gs col0 s gr  [] 0 sd
% Polyline
 [60] 0 sd
n 8550 4950 m
 8775 4050 l gs col0 s gr  [] 0 sd
% Polyline
gs  clippath
6974 4080 m 7125 4080 l 7125 4020 l 6974 4020 l 6974 4020 l 7094 4050 l 6974 4080 l cp
eoclip
n 6570 4050 m
 7110 4050 l gs col0 s gr gr

% arrowhead
n 6974 4080 m 7094 4050 l 6974 4020 l 6974 4080 l  cp gs 0.00 setgray ef gr  col0 s
/Times-Roman ff 222.25 scf sf
3600 4995 m
gs 1 -1 sc (e) col0 sh gr
/Times-Roman ff 222.25 scf sf
3600 4545 m
gs 1 -1 sc (d) col0 sh gr
/Times-Roman ff 222.25 scf sf
3600 4095 m
gs 1 -1 sc (c) col0 sh gr
/Times-Roman ff 222.25 scf sf
3600 3645 m
gs 1 -1 sc (b) col0 sh gr
/Times-Roman ff 222.25 scf sf
3600 3195 m
gs 1 -1 sc (a) col0 sh gr
/Times-Roman ff 222.25 scf sf
7200 4545 m
gs 1 -1 sc (d) col0 sh gr
/Times-Roman ff 222.25 scf sf
7200 3645 m
gs 1 -1 sc (b) col0 sh gr
/Times-Roman ff 222.25 scf sf
7200 3195 m
gs 1 -1 sc (a) col0 sh gr
/Times-Roman ff 222.25 scf sf
7200 4095 m
gs 1 -1 sc (c) col0 sh gr
/Times-Roman ff 222.25 scf sf
7200 4995 m
gs 1 -1 sc (e) col0 sh gr
% here ends figure;
pagefooter
showpage
%%Trailer
%EOF
