%!PS-Adobe-3.0 EPSF-3.0
%%Title: flot_ex_duration.fig
%%Creator: fig2dev Version 3.2 Patchlevel 5e
%%CreationDate: Wed Jan 27 09:11:50 2016
%%BoundingBox: 0 0 438 114
%Magnification: 1.0000
%%EndComments
%%BeginProlog
/$F2psDict 200 dict def
$F2psDict begin
$F2psDict /mtrx matrix put
/col-1 {0 setgray} bind def
/col0 {0.000 0.000 0.000 srgb} bind def
/col1 {0.000 0.000 1.000 srgb} bind def
/col2 {0.000 1.000 0.000 srgb} bind def
/col3 {0.000 1.000 1.000 srgb} bind def
/col4 {1.000 0.000 0.000 srgb} bind def
/col5 {1.000 0.000 1.000 srgb} bind def
/col6 {1.000 1.000 0.000 srgb} bind def
/col7 {1.000 1.000 1.000 srgb} bind def
/col8 {0.000 0.000 0.560 srgb} bind def
/col9 {0.000 0.000 0.690 srgb} bind def
/col10 {0.000 0.000 0.820 srgb} bind def
/col11 {0.530 0.810 1.000 srgb} bind def
/col12 {0.000 0.560 0.000 srgb} bind def
/col13 {0.000 0.690 0.000 srgb} bind def
/col14 {0.000 0.820 0.000 srgb} bind def
/col15 {0.000 0.560 0.560 srgb} bind def
/col16 {0.000 0.690 0.690 srgb} bind def
/col17 {0.000 0.820 0.820 srgb} bind def
/col18 {0.560 0.000 0.000 srgb} bind def
/col19 {0.690 0.000 0.000 srgb} bind def
/col20 {0.820 0.000 0.000 srgb} bind def
/col21 {0.560 0.000 0.560 srgb} bind def
/col22 {0.690 0.000 0.690 srgb} bind def
/col23 {0.820 0.000 0.820 srgb} bind def
/col24 {0.500 0.190 0.000 srgb} bind def
/col25 {0.630 0.250 0.000 srgb} bind def
/col26 {0.750 0.380 0.000 srgb} bind def
/col27 {1.000 0.500 0.500 srgb} bind def
/col28 {1.000 0.630 0.630 srgb} bind def
/col29 {1.000 0.750 0.750 srgb} bind def
/col30 {1.000 0.880 0.880 srgb} bind def
/col31 {1.000 0.840 0.000 srgb} bind def

end

/cp {closepath} bind def
/ef {eofill} bind def
/gr {grestore} bind def
/gs {gsave} bind def
/sa {save} bind def
/rs {restore} bind def
/l {lineto} bind def
/m {moveto} bind def
/rm {rmoveto} bind def
/n {newpath} bind def
/s {stroke} bind def
/sh {show} bind def
/slc {setlinecap} bind def
/slj {setlinejoin} bind def
/slw {setlinewidth} bind def
/srgb {setrgbcolor} bind def
/rot {rotate} bind def
/sc {scale} bind def
/sd {setdash} bind def
/ff {findfont} bind def
/sf {setfont} bind def
/scf {scalefont} bind def
/sw {stringwidth} bind def
/tr {translate} bind def
/tnt {dup dup currentrgbcolor
  4 -2 roll dup 1 exch sub 3 -1 roll mul add
  4 -2 roll dup 1 exch sub 3 -1 roll mul add
  4 -2 roll dup 1 exch sub 3 -1 roll mul add srgb}
  bind def
/shd {dup dup currentrgbcolor 4 -2 roll mul 4 -2 roll mul
  4 -2 roll mul srgb} bind def
 /DrawEllipse {
	/endangle exch def
	/startangle exch def
	/yrad exch def
	/xrad exch def
	/y exch def
	/x exch def
	/savematrix mtrx currentmatrix def
	x y tr xrad yrad sc 0 0 1 startangle endangle arc
	closepath
	savematrix setmatrix
	} def

/$F2psBegin {$F2psDict begin /$F2psEnteredState save def} def
/$F2psEnd {$F2psEnteredState restore end} def

/pageheader {
save
newpath 0 114 moveto 0 0 lineto 438 0 lineto 438 114 lineto closepath clip newpath
-289.7 232.6 translate
1 -1 scale
$F2psBegin
10 setmiterlimit
0 slj 0 slc
 0.06000 0.06000 sc
} bind def
/pagefooter {
$F2psEnd
restore
} bind def
%%EndProlog
pageheader
%
% Fig objects follow
%
% 
% here starts figure with depth 55
% Polyline
0 slj
0 slc
15.000 slw
n 8843 2400 m 8858 2400 l gs col11 s gr
% Polyline
30.000 slw
n 6150 2250 m
 6900 2250 l gs col1 s gr 
% Polyline
n 5700 2550 m
 6300 2550 l gs col1 s gr 
% Polyline
n 5400 2850 m
 5700 2850 l gs col1 s gr 
% Polyline
n 6600 2550 m
 6750 2550 l gs col1 s gr 
% Polyline
n 6399 2398 m
 7050 2400 l gs col1 s gr 
% Polyline
n 6750 2850 m
 6900 2850 l gs col1 s gr 
% Polyline
n 6600 3150 m
 7200 3150 l gs col1 s gr 
% Polyline
n 6998 3002 m
 7350 3000 l gs col1 s gr 
% Polyline
n 7899 2695 m 7950 2700 l
 8100 2700 l gs col1 s gr 
% Polyline
n 7411 2398 m
 7650 2400 l gs col1 s gr 
% Polyline
n 8550 2550 m
 8850 2550 l gs col1 s gr 
% Polyline
n 9000 2550 m
 9150 2550 l gs col1 s gr 
% Polyline
n 9750 2250 m
 10800 2250 l gs col1 s gr 
% Polyline
n 9750 2850 m
 10500 2850 l gs col1 s gr 
% Polyline
n 9559 2700 m
 10500 2700 l gs col1 s gr 
% Polyline
n 8609 2700 m
 8850 2700 l gs col1 s gr 
% Polyline
n 10748 2704 m
 10950 2700 l gs col1 s gr 
% Polyline
n 11100 2250 m
 11700 2250 l gs col1 s gr 
% Polyline
n 11400 2850 m
 11700 2850 l gs col1 s gr 
% Polyline
n 11250 3150 m
 11700 3150 l gs col1 s gr 
% Polyline
n 11653 3006 m
 11850 3000 l gs col1 s gr 
% here ends figure;
% 
% here starts figure with depth 50
% Ellipse
7.500 slw
n 8700 2700 42 42 0 360 DrawEllipse gs col7 0.00 shd ef gr gs col0 s gr

% Ellipse
n 8700 2100 42 42 0 360 DrawEllipse gs col7 0.00 shd ef gr gs col0 s gr

% Polyline
2 slj
0 slc
15.000 slw
n 8700 2100 m 8700 2101 l 8702 2104 l 8706 2113 l 8713 2129 l 8722 2150 l
 8733 2175 l 8745 2203 l 8757 2231 l 8767 2258 l 8776 2283 l
 8784 2306 l 8790 2327 l 8795 2347 l 8798 2365 l 8799 2383 l
 8800 2400 l 8799 2417 l 8798 2435 l 8795 2453 l 8790 2473 l
 8784 2494 l 8776 2517 l 8767 2542 l 8757 2569 l 8745 2597 l
 8733 2625 l 8722 2650 l 8713 2671 l 8706 2687 l 8702 2696 l
 8700 2699 l
 8700 2700 l gs col0 s gr 
% Ellipse
7.500 slw
n 8700 3000 42 42 0 360 DrawEllipse gs col7 0.00 shd ef gr gs col0 s gr

% Ellipse
n 8700 2400 42 42 0 360 DrawEllipse gs col7 0.00 shd ef gr gs col0 s gr

% Polyline
15.000 slw
n 8700 2400 m 8700 2401 l 8698 2404 l 8694 2413 l 8687 2429 l 8678 2450 l
 8667 2475 l 8655 2503 l 8643 2531 l 8633 2558 l 8624 2583 l
 8616 2606 l 8610 2627 l 8605 2647 l 8602 2665 l 8601 2683 l
 8600 2700 l 8601 2717 l 8602 2735 l 8605 2753 l 8610 2773 l
 8616 2794 l 8624 2817 l 8633 2842 l 8643 2869 l 8655 2897 l
 8667 2925 l 8678 2950 l 8687 2971 l 8694 2987 l 8698 2996 l
 8700 2999 l
 8700 3000 l gs col0 s gr 
% Ellipse
7.500 slw
n 6600 2400 42 42 0 360 DrawEllipse gs col7 0.00 shd ef gr gs col0 s gr

% Ellipse
n 6600 2700 42 42 0 360 DrawEllipse gs col7 0.00 shd ef gr gs col0 s gr

% Polyline
0 slj
15.000 slw
n 6600 2400 m
 6600 2700 l gs col0 s gr 
% Ellipse
7.500 slw
n 6300 2700 42 42 0 360 DrawEllipse gs col7 0.00 shd ef gr gs col0 s gr

% Ellipse
n 6300 2100 42 42 0 360 DrawEllipse gs col7 0.00 shd ef gr gs col0 s gr

% Polyline
2 slj
15.000 slw
n 6300 2100 m 6300 2101 l 6302 2104 l 6306 2113 l 6313 2129 l 6322 2150 l
 6333 2175 l 6345 2203 l 6357 2231 l 6367 2258 l 6376 2283 l
 6384 2306 l 6390 2327 l 6395 2347 l 6398 2365 l 6399 2383 l
 6400 2400 l 6399 2417 l 6398 2435 l 6395 2453 l 6390 2473 l
 6384 2494 l 6376 2517 l 6367 2542 l 6357 2569 l 6345 2597 l
 6333 2625 l 6322 2650 l 6313 2671 l 6306 2687 l 6302 2696 l
 6300 2699 l
 6300 2700 l gs col0 s gr 
% Ellipse
7.500 slw
n 7800 3000 42 42 0 360 DrawEllipse gs col7 0.00 shd ef gr gs col0 s gr

% Ellipse
n 7800 2400 42 42 0 360 DrawEllipse gs col7 0.00 shd ef gr gs col0 s gr

% Polyline
15.000 slw
n 7800 2400 m 7800 2401 l 7802 2404 l 7806 2413 l 7813 2429 l 7822 2450 l
 7833 2475 l 7845 2503 l 7857 2531 l 7867 2558 l 7876 2583 l
 7884 2606 l 7890 2627 l 7895 2647 l 7898 2665 l 7899 2683 l
 7900 2700 l 7899 2717 l 7898 2735 l 7895 2753 l 7890 2773 l
 7884 2794 l 7876 2817 l 7867 2842 l 7857 2869 l 7845 2897 l
 7833 2925 l 7822 2950 l 7813 2971 l 7806 2987 l 7802 2996 l
 7800 2999 l
 7800 3000 l gs col0 s gr 
% Ellipse
7.500 slw
n 9000 2400 42 42 0 360 DrawEllipse gs col7 0.00 shd ef gr gs col0 s gr

% Ellipse
n 9000 2700 42 42 0 360 DrawEllipse gs col7 0.00 shd ef gr gs col0 s gr

% Polyline
0 slj
15.000 slw
n 9000 2400 m
 9000 2700 l gs col0 s gr 
% Ellipse
7.500 slw
n 9750 2100 42 42 0 360 DrawEllipse gs col7 0.00 shd ef gr gs col0 s gr

% Ellipse
n 9750 2400 42 42 0 360 DrawEllipse gs col7 0.00 shd ef gr gs col0 s gr

% Polyline
15.000 slw
n 9750 2100 m
 9750 2400 l gs col0 s gr 
% Ellipse
7.500 slw
n 10650 3000 42 42 0 360 DrawEllipse gs col7 0.00 shd ef gr gs col0 s gr

% Ellipse
n 10650 2400 42 42 0 360 DrawEllipse gs col7 0.00 shd ef gr gs col0 s gr

% Polyline
2 slj
15.000 slw
n 10650 2400 m 10650 2401 l 10652 2404 l 10656 2413 l 10663 2429 l 10672 2450 l
 10683 2475 l 10695 2503 l 10707 2531 l 10717 2558 l 10726 2583 l
 10734 2606 l 10740 2627 l 10745 2647 l 10748 2665 l 10749 2683 l
 10750 2700 l 10749 2717 l 10748 2735 l 10745 2753 l 10740 2773 l
 10734 2794 l 10726 2817 l 10717 2842 l 10707 2869 l 10695 2897 l
 10683 2925 l 10672 2950 l 10663 2971 l 10656 2987 l 10652 2996 l
 10650 2999 l
 10650 3000 l gs col0 s gr 
% Ellipse
7.500 slw
n 9750 2700 42 42 0 360 DrawEllipse gs col7 0.00 shd ef gr gs col0 s gr

% Ellipse
n 9750 3000 42 42 0 360 DrawEllipse gs col7 0.00 shd ef gr gs col0 s gr

% Polyline
0 slj
15.000 slw
n 9750 2700 m
 9750 3000 l gs col0 s gr 
% Ellipse
7.500 slw
n 8400 2100 42 42 0 360 DrawEllipse gs col7 0.00 shd ef gr gs col0 s gr

% Ellipse
n 8400 3000 42 42 0 360 DrawEllipse gs col7 0.00 shd ef gr gs col0 s gr

% Polyline
2 slj
15.000 slw
n 8400 2100 m 8401 2102 l 8403 2105 l 8407 2111 l 8413 2121 l 8421 2134 l
 8431 2150 l 8442 2168 l 8453 2189 l 8466 2213 l 8478 2237 l
 8490 2263 l 8501 2291 l 8512 2321 l 8522 2352 l 8531 2386 l
 8539 2423 l 8545 2463 l 8549 2505 l 8550 2550 l 8549 2595 l
 8545 2637 l 8539 2677 l 8531 2714 l 8522 2748 l 8512 2779 l
 8501 2809 l 8490 2837 l 8478 2863 l 8466 2888 l 8453 2911 l
 8442 2932 l 8431 2950 l 8421 2966 l 8413 2979 l 8407 2989 l
 8403 2995 l 8401 2998 l
 8400 3000 l gs col0 s gr 
% Ellipse
7.500 slw
n 11400 2700 42 42 0 360 DrawEllipse gs col7 0.00 shd ef gr gs col0 s gr

% Ellipse
n 11400 3000 42 42 0 360 DrawEllipse gs col7 0.00 shd ef gr gs col0 s gr

% Polyline
0 slj
15.000 slw
n 11400 2700 m
 11400 3000 l gs col0 s gr 
% Ellipse
7.500 slw
n 6600 3000 42 42 0 360 DrawEllipse gs col7 0.00 shd ef gr gs col0 s gr

% Ellipse
n 6600 3300 42 42 0 360 DrawEllipse gs col7 0.00 shd ef gr gs col0 s gr

% Polyline
15.000 slw
n 6600 3000 m
 6600 3300 l gs col0 s gr 
% Ellipse
7.500 slw
n 6900 3300 42 42 0 360 DrawEllipse gs col7 0.00 shd ef gr gs col0 s gr

% Ellipse
n 6900 2700 42 42 0 360 DrawEllipse gs col7 0.00 shd ef gr gs col0 s gr

% Polyline
2 slj
15.000 slw
n 6900 2700 m 6900 2701 l 6902 2704 l 6906 2713 l 6913 2729 l 6922 2750 l
 6933 2775 l 6945 2803 l 6957 2831 l 6967 2858 l 6976 2883 l
 6984 2906 l 6990 2927 l 6995 2947 l 6998 2965 l 6999 2983 l
 7000 3000 l 6999 3017 l 6998 3035 l 6995 3053 l 6990 3073 l
 6984 3094 l 6976 3117 l 6967 3142 l 6957 3169 l 6945 3197 l
 6933 3225 l 6922 3250 l 6913 3271 l 6906 3287 l 6902 3296 l
 6900 3299 l
 6900 3300 l gs col0 s gr 
% Ellipse
7.500 slw
n 11550 3300 42 42 0 360 DrawEllipse gs col7 0.00 shd ef gr gs col0 s gr

% Ellipse
n 11550 2700 42 42 0 360 DrawEllipse gs col7 0.00 shd ef gr gs col0 s gr

% Polyline
15.000 slw
n 11550 2700 m 11550 2701 l 11552 2704 l 11556 2713 l 11563 2729 l 11572 2750 l
 11583 2775 l 11595 2803 l 11607 2831 l 11617 2858 l 11626 2883 l
 11634 2906 l 11640 2927 l 11645 2947 l 11648 2965 l 11649 2983 l
 11650 3000 l 11649 3017 l 11648 3035 l 11645 3053 l 11640 3073 l
 11634 3094 l 11626 3117 l 11617 3142 l 11607 3169 l 11595 3197 l
 11583 3225 l 11572 3250 l 11563 3271 l 11556 3287 l 11552 3296 l
 11550 3299 l
 11550 3300 l gs col0 s gr 
% Ellipse
7.500 slw
n 11250 3000 42 42 0 360 DrawEllipse gs col7 0.00 shd ef gr gs col0 s gr

% Ellipse
n 11250 3300 42 42 0 360 DrawEllipse gs col7 0.00 shd ef gr gs col0 s gr

% Polyline
0 slj
15.000 slw
n 11250 3000 m
 11250 3300 l gs col0 s gr 
% Ellipse
7.500 slw
n 7500 2700 42 42 0 360 DrawEllipse gs col7 0.00 shd ef gr gs col0 s gr

% Ellipse
n 7500 2100 42 42 0 360 DrawEllipse gs col7 0.00 shd ef gr gs col0 s gr

% Polyline
2 slj
15.000 slw
n 7500 2100 m 7500 2101 l 7498 2104 l 7494 2113 l 7487 2129 l 7478 2150 l
 7467 2175 l 7455 2203 l 7443 2231 l 7433 2258 l 7424 2283 l
 7416 2306 l 7410 2327 l 7405 2347 l 7402 2365 l 7401 2383 l
 7400 2400 l 7401 2417 l 7402 2435 l 7405 2453 l 7410 2473 l
 7416 2494 l 7424 2517 l 7433 2542 l 7443 2569 l 7455 2597 l
 7467 2625 l 7478 2650 l 7487 2671 l 7494 2687 l 7498 2696 l
 7500 2699 l
 7500 2700 l gs col0 s gr 
% Ellipse
7.500 slw
n 6150 2100 42 42 0 360 DrawEllipse gs col7 0.00 shd ef gr gs col0 s gr

% Ellipse
n 6150 2400 42 42 0 360 DrawEllipse gs col7 0.00 shd ef gr gs col0 s gr

% Polyline
0 slj
15.000 slw
n 6150 2100 m
 6150 2400 l gs col0 s gr 
% Ellipse
7.500 slw
n 6750 2700 42 42 0 360 DrawEllipse gs col7 0.00 shd ef gr gs col0 s gr

% Ellipse
n 6750 3000 42 42 0 360 DrawEllipse gs col7 0.00 shd ef gr gs col0 s gr

% Polyline
15.000 slw
n 6750 2700 m
 6750 3000 l gs col0 s gr 
% Ellipse
7.500 slw
n 5400 2700 42 42 0 360 DrawEllipse gs col7 0.00 shd ef gr gs col0 s gr

% Ellipse
n 5400 3000 42 42 0 360 DrawEllipse gs col7 0.00 shd ef gr gs col0 s gr

% Ellipse
n 5700 2400 42 42 0 360 DrawEllipse gs col7 0.00 shd ef gr gs col0 s gr

% Ellipse
n 5700 2700 42 42 0 360 DrawEllipse gs col7 0.00 shd ef gr gs col0 s gr

% Ellipse
n 9450 3000 42 42 0 360 DrawEllipse gs col7 0.00 shd ef gr gs col0 s gr

% Ellipse
n 9450 2400 42 42 0 360 DrawEllipse gs col7 0.00 shd ef gr gs col0 s gr

% Ellipse
n 11100 2100 42 42 0 360 DrawEllipse gs col7 0.00 shd ef gr gs col0 s gr

% Ellipse
n 11100 2400 42 42 0 360 DrawEllipse gs col7 0.00 shd ef gr gs col0 s gr

% Polyline
 [15 45] 45 sd
n 5100 2100 m
 12000 2100 l gs col0 s gr  [] 0 sd
% Polyline
 [15 45] 45 sd
n 5100 3300 m
 12000 3300 l gs col0 s gr  [] 0 sd
% Polyline
n 5100 3600 m
 5100 3675 l gs col0 s gr 
% Polyline
n 6600 3600 m
 6600 3675 l gs col0 s gr 
% Polyline
n 8100 3600 m
 8100 3675 l gs col0 s gr 
% Polyline
n 9600 3600 m
 9600 3675 l gs col0 s gr 
% Polyline
n 11100 3600 m
 11100 3675 l gs col0 s gr 
% Polyline
gs  clippath
11863 3630 m 12015 3630 l 12015 3570 l 11863 3570 l 11863 3570 l 11983 3600 l 11863 3630 l cp
eoclip
n 5100 3600 m
 12000 3600 l gs col0 s gr gr

% arrowhead
n 11863 3630 m 11983 3600 l 11863 3570 l  col0 s
% Polyline
15.000 slw
n 5400 2700 m
 5400 3000 l gs col0 s gr 
% Polyline
n 5700 2400 m
 5700 2700 l gs col0 s gr 
% Polyline
n 11100 2100 m
 11100 2400 l gs col0 s gr 
% Polyline
7.500 slw
 [15 45] 45 sd
n 5100 2700 m 7952 2695 l
 12000 2700 l gs col0 s gr  [] 0 sd
% Polyline
 [15 45] 45 sd
n 5100 2400 m
 12000 2400 l gs col0 s gr  [] 0 sd
% Polyline
 [15 45] 45 sd
n 5100 3000 m
 12000 3000 l gs col0 s gr  [] 0 sd
% Polyline
2 slj
15.000 slw
n 9450 2400 m 9450 2401 l 9452 2404 l 9456 2413 l 9463 2429 l 9472 2450 l
 9483 2475 l 9495 2503 l 9507 2531 l 9517 2558 l 9526 2583 l
 9534 2606 l 9540 2627 l 9545 2647 l 9548 2665 l 9549 2683 l
 9550 2700 l 9549 2717 l 9548 2735 l 9545 2753 l 9540 2773 l
 9534 2794 l 9526 2817 l 9517 2842 l 9507 2869 l 9495 2897 l
 9483 2925 l 9472 2950 l 9463 2971 l 9456 2987 l 9452 2996 l
 9450 2999 l
 9450 3000 l gs col0 s gr 
/Times-Roman ff 266.67 scf sf
4905 2130 m
gs 1 -1 sc (a) dup sw pop 2 div neg 0 rm  col0 sh gr
/Times-Roman ff 266.67 scf sf
4920 2460 m
gs 1 -1 sc (b) dup sw pop 2 div neg 0 rm  col0 sh gr
/Times-Roman ff 266.67 scf sf
4920 2745 m
gs 1 -1 sc (c) dup sw pop 2 div neg 0 rm  col0 sh gr
/Times-Roman ff 266.67 scf sf
4920 3045 m
gs 1 -1 sc (d) dup sw pop 2 div neg 0 rm  col0 sh gr
/Times-Roman ff 200.00 scf sf
5115 3855 m
gs 1 -1 sc (0) dup sw pop 2 div neg 0 rm  col0 sh gr
/Times-Roman ff 200.00 scf sf
6615 3855 m
gs 1 -1 sc (5) dup sw pop 2 div neg 0 rm  col0 sh gr
/Times-Roman ff 266.67 scf sf
11850 3825 m
gs 1 -1 sc (time) dup sw pop 2 div neg 0 rm  col0 sh gr
/Times-Roman ff 200.00 scf sf
9600 3856 m
gs 1 -1 sc (15) dup sw pop 2 div neg 0 rm  col0 sh gr
/Times-Roman ff 200.00 scf sf
11100 3856 m
gs 1 -1 sc (20) dup sw pop 2 div neg 0 rm  col0 sh gr
/Times-Roman ff 200.00 scf sf
8100 3861 m
gs 1 -1 sc (10) dup sw pop 2 div neg 0 rm  col0 sh gr
/Times-Roman ff 266.67 scf sf
4923 3353 m
gs 1 -1 sc (e) dup sw pop 2 div neg 0 rm  col0 sh gr
% here ends figure;
pagefooter
showpage
%%Trailer
%EOF
