%!PS-Adobe-3.0 EPSF-3.0
%%Title: out.fig
%%Creator: fig2dev Version 3.2 Patchlevel 5d
%%CreationDate: Mon Sep 26 21:18:35 2016
%%For: tiphaine@MacBook-Pro-de-Tiphaine.local (Tiphaine Viard)
%%BoundingBox: 0 0 330 124
%Magnification: 1.0000
%%EndComments
%%BeginProlog
/$F2psDict 200 dict def
$F2psDict begin
$F2psDict /mtrx matrix put
/col-1 {0 setgray} bind def
/col0 {0.000 0.000 0.000 srgb} bind def
/col1 {0.000 0.000 1.000 srgb} bind def
/col2 {0.000 1.000 0.000 srgb} bind def
/col3 {0.000 1.000 1.000 srgb} bind def
/col4 {1.000 0.000 0.000 srgb} bind def
/col5 {1.000 0.000 1.000 srgb} bind def
/col6 {1.000 1.000 0.000 srgb} bind def
/col7 {1.000 1.000 1.000 srgb} bind def
/col8 {0.000 0.000 0.560 srgb} bind def
/col9 {0.000 0.000 0.690 srgb} bind def
/col10 {0.000 0.000 0.820 srgb} bind def
/col11 {0.530 0.810 1.000 srgb} bind def
/col12 {0.000 0.560 0.000 srgb} bind def
/col13 {0.000 0.690 0.000 srgb} bind def
/col14 {0.000 0.820 0.000 srgb} bind def
/col15 {0.000 0.560 0.560 srgb} bind def
/col16 {0.000 0.690 0.690 srgb} bind def
/col17 {0.000 0.820 0.820 srgb} bind def
/col18 {0.560 0.000 0.000 srgb} bind def
/col19 {0.690 0.000 0.000 srgb} bind def
/col20 {0.820 0.000 0.000 srgb} bind def
/col21 {0.560 0.000 0.560 srgb} bind def
/col22 {0.690 0.000 0.690 srgb} bind def
/col23 {0.820 0.000 0.820 srgb} bind def
/col24 {0.500 0.190 0.000 srgb} bind def
/col25 {0.630 0.250 0.000 srgb} bind def
/col26 {0.750 0.380 0.000 srgb} bind def
/col27 {1.000 0.500 0.500 srgb} bind def
/col28 {1.000 0.630 0.630 srgb} bind def
/col29 {1.000 0.750 0.750 srgb} bind def
/col30 {1.000 0.880 0.880 srgb} bind def
/col31 {1.000 0.840 0.000 srgb} bind def
/col32 {0.733 0.733 0.733 srgb} bind def

end

/cp {closepath} bind def
/ef {eofill} bind def
/gr {grestore} bind def
/gs {gsave} bind def
/sa {save} bind def
/rs {restore} bind def
/l {lineto} bind def
/m {moveto} bind def
/rm {rmoveto} bind def
/n {newpath} bind def
/s {stroke} bind def
/sh {show} bind def
/slc {setlinecap} bind def
/slj {setlinejoin} bind def
/slw {setlinewidth} bind def
/srgb {setrgbcolor} bind def
/rot {rotate} bind def
/sc {scale} bind def
/sd {setdash} bind def
/ff {findfont} bind def
/sf {setfont} bind def
/scf {scalefont} bind def
/sw {stringwidth} bind def
/tr {translate} bind def
/tnt {dup dup currentrgbcolor
  4 -2 roll dup 1 exch sub 3 -1 roll mul add
  4 -2 roll dup 1 exch sub 3 -1 roll mul add
  4 -2 roll dup 1 exch sub 3 -1 roll mul add srgb}
  bind def
/shd {dup dup currentrgbcolor 4 -2 roll mul 4 -2 roll mul
  4 -2 roll mul srgb} bind def
 /DrawEllipse {
	/endangle exch def
	/startangle exch def
	/yrad exch def
	/xrad exch def
	/y exch def
	/x exch def
	/savematrix mtrx currentmatrix def
	x y tr xrad yrad sc 0 0 1 startangle endangle arc
	closepath
	savematrix setmatrix
	} def

/$F2psBegin {$F2psDict begin /$F2psEnteredState save def} def
/$F2psEnd {$F2psEnteredState restore end} def

/pageheader {
save
newpath 0 124 moveto 0 0 lineto 330 0 lineto 330 124 lineto closepath clip newpath
-179.1 324.3 translate
1 -1 scale
$F2psBegin
10 setmiterlimit
0 slj 0 slc
 0.06000 0.06000 sc
} bind def
/pagefooter {
$F2psEnd
restore
} bind def
%%EndProlog
pageheader
%
% Fig objects follow
%
% 
% here starts figure with depth 51
% Polyline
0 slj
0 slc
0.000 slw
n 3950 3350 m 6450 3350 l 6450 3550 l 3950 3550 l
 cp gs col16 1.00 shd ef gr 
% Polyline
n 4950 4550 m 6950 4550 l 6950 4750 l 4950 4750 l
 cp gs col16 1.00 shd ef gr 
/Times-Roman ff 270.00 scf sf
8450 5350 m
gs 1 -1 sc (temps) dup sw pop neg 0 rm  col0 sh gr
/Times-Roman ff 300.00 scf sf
5400 5200 m
gs 1 -1 sc (4) col0 sh gr
/Times-Roman ff 300.00 scf sf
5900 5200 m
gs 1 -1 sc (5) col0 sh gr
/Times-Roman ff 300.00 scf sf
6400 5200 m
gs 1 -1 sc (6) col0 sh gr
/Times-Roman ff 300.00 scf sf
6900 5200 m
gs 1 -1 sc (7) col0 sh gr
/Times-Roman ff 300.00 scf sf
7400 5200 m
gs 1 -1 sc (8) col0 sh gr
/Times-Roman ff 300.00 scf sf
7900 5200 m
gs 1 -1 sc (9) col0 sh gr
% Polyline
15.000 slw
 [15 90] 90 sd
n 3450 3450 m
 8450 3450 l gs col0 s gr  [] 0 sd
% Polyline
 [15 90] 90 sd
n 3450 4050 m
 8450 4050 l gs col16 s gr  [] 0 sd
% Polyline
 [15 90] 90 sd
n 3450 4650 m
 8450 4650 l gs col0 s gr  [] 0 sd
% Polyline
30.000 slw
n 3950 3450 m
 3950 4050 l gs col32 s gr 
% Polyline
n 3950 3750 m
 6450 3750 l gs col32 s gr 
% Polyline
n 4950 4050 m
 4950 4650 l gs col32 s gr 
% Polyline
n 4950 4350 m
 6950 4350 l gs col32 s gr 
% Polyline
n 5950 3450 m
 5950 4650 l gs col0 s gr 
% Polyline
n 5950 3990 m
 7450 3990 l gs col0 s gr 
% Polyline
7.500 slw
gs  clippath
8314 4980 m 8465 4980 l 8465 4920 l 8314 4920 l 8314 4920 l 8434 4950 l 8314 4980 l cp
eoclip
n 3450 4950 m
 8450 4950 l gs col0 s gr gr

% arrowhead
n 8314 4980 m 8434 4950 l 8314 4920 l 8314 4980 l  cp gs 0.00 setgray ef gr  col0 s
% Polyline
n 3450 4950 m
 3450 4980 l gs col0 s gr 
% Polyline
n 3950 4950 m
 3950 4980 l gs col0 s gr 
% Polyline
n 4450 4950 m
 4450 4980 l gs col0 s gr 
% Polyline
n 4950 4950 m
 4950 4980 l gs col0 s gr 
% Polyline
n 5450 4950 m
 5450 4980 l gs col0 s gr 
% Polyline
n 5950 4950 m
 5950 4980 l gs col0 s gr 
% Polyline
n 6450 4950 m
 6450 4980 l gs col0 s gr 
% Polyline
n 6950 4950 m
 6950 4980 l gs col0 s gr 
% Polyline
n 7450 4950 m
 7450 4980 l gs col0 s gr 
% Polyline
n 7950 4950 m
 7950 4980 l gs col0 s gr 
/Times-Roman ff 450.00 scf sf
3000 3575 m
gs 1 -1 sc (a) col0 sh gr
/Times-Roman ff 450.00 scf sf
3000 4175 m
gs 1 -1 sc (b) col16 sh gr
/Times-Roman ff 450.00 scf sf
3000 4775 m
gs 1 -1 sc (c) col0 sh gr
/Times-Roman ff 300.00 scf sf
3400 5200 m
gs 1 -1 sc (0) col0 sh gr
/Times-Roman ff 300.00 scf sf
3900 5200 m
gs 1 -1 sc (1) col0 sh gr
/Times-Roman ff 300.00 scf sf
4400 5200 m
gs 1 -1 sc (2) col0 sh gr
/Times-Roman ff 300.00 scf sf
4900 5200 m
gs 1 -1 sc (3) col0 sh gr
% Ellipse
30.000 slw
n 4950 4650 45 45 0 360 DrawEllipse gs col32 1.00 shd ef gr gs col32 s gr

% Ellipse
n 5950 3450 45 45 0 360 DrawEllipse gs 0.00 setgray ef gr gs col0 s gr

% Ellipse
n 5950 4650 45 45 0 360 DrawEllipse gs 0.00 setgray ef gr gs col0 s gr

% Ellipse
n 4950 4050 45 45 0 360 DrawEllipse gs col32 1.00 shd ef gr gs col32 s gr

% Ellipse
n 3950 4050 45 45 0 360 DrawEllipse gs col32 1.00 shd ef gr gs col32 s gr

% Ellipse
n 3950 3450 45 45 0 360 DrawEllipse gs col32 1.00 shd ef gr gs col32 s gr

% here ends figure;
pagefooter
showpage
%%Trailer
%EOF
