%!PS-Adobe-3.0 EPSF-3.0
%%Title: clique.fig
%%Creator: fig2dev Version 3.2 Patchlevel 5e
%%CreationDate: Sun Jul 17 16:51:15 2016
%%BoundingBox: 0 0 333 119
%Magnification: 1.0000
%%EndComments
%%BeginProlog
/$F2psDict 200 dict def
$F2psDict begin
$F2psDict /mtrx matrix put
/col-1 {0 setgray} bind def
/col0 {0.000 0.000 0.000 srgb} bind def
/col1 {0.000 0.000 1.000 srgb} bind def
/col2 {0.000 1.000 0.000 srgb} bind def
/col3 {0.000 1.000 1.000 srgb} bind def
/col4 {1.000 0.000 0.000 srgb} bind def
/col5 {1.000 0.000 1.000 srgb} bind def
/col6 {1.000 1.000 0.000 srgb} bind def
/col7 {1.000 1.000 1.000 srgb} bind def
/col8 {0.000 0.000 0.560 srgb} bind def
/col9 {0.000 0.000 0.690 srgb} bind def
/col10 {0.000 0.000 0.820 srgb} bind def
/col11 {0.530 0.810 1.000 srgb} bind def
/col12 {0.000 0.560 0.000 srgb} bind def
/col13 {0.000 0.690 0.000 srgb} bind def
/col14 {0.000 0.820 0.000 srgb} bind def
/col15 {0.000 0.560 0.560 srgb} bind def
/col16 {0.000 0.690 0.690 srgb} bind def
/col17 {0.000 0.820 0.820 srgb} bind def
/col18 {0.560 0.000 0.000 srgb} bind def
/col19 {0.690 0.000 0.000 srgb} bind def
/col20 {0.820 0.000 0.000 srgb} bind def
/col21 {0.560 0.000 0.560 srgb} bind def
/col22 {0.690 0.000 0.690 srgb} bind def
/col23 {0.820 0.000 0.820 srgb} bind def
/col24 {0.500 0.190 0.000 srgb} bind def
/col25 {0.630 0.250 0.000 srgb} bind def
/col26 {0.750 0.380 0.000 srgb} bind def
/col27 {1.000 0.500 0.500 srgb} bind def
/col28 {1.000 0.630 0.630 srgb} bind def
/col29 {1.000 0.750 0.750 srgb} bind def
/col30 {1.000 0.880 0.880 srgb} bind def
/col31 {1.000 0.840 0.000 srgb} bind def
/col32 {0.333 0.333 0.333 srgb} bind def
/col33 {0.667 0.667 0.667 srgb} bind def

end

/cp {closepath} bind def
/ef {eofill} bind def
/gr {grestore} bind def
/gs {gsave} bind def
/sa {save} bind def
/rs {restore} bind def
/l {lineto} bind def
/m {moveto} bind def
/rm {rmoveto} bind def
/n {newpath} bind def
/s {stroke} bind def
/sh {show} bind def
/slc {setlinecap} bind def
/slj {setlinejoin} bind def
/slw {setlinewidth} bind def
/srgb {setrgbcolor} bind def
/rot {rotate} bind def
/sc {scale} bind def
/sd {setdash} bind def
/ff {findfont} bind def
/sf {setfont} bind def
/scf {scalefont} bind def
/sw {stringwidth} bind def
/tr {translate} bind def
/tnt {dup dup currentrgbcolor
  4 -2 roll dup 1 exch sub 3 -1 roll mul add
  4 -2 roll dup 1 exch sub 3 -1 roll mul add
  4 -2 roll dup 1 exch sub 3 -1 roll mul add srgb}
  bind def
/shd {dup dup currentrgbcolor 4 -2 roll mul 4 -2 roll mul
  4 -2 roll mul srgb} bind def
 /DrawEllipse {
	/endangle exch def
	/startangle exch def
	/yrad exch def
	/xrad exch def
	/y exch def
	/x exch def
	/savematrix mtrx currentmatrix def
	x y tr xrad yrad sc 0 0 1 startangle endangle arc
	closepath
	savematrix setmatrix
	} def

/$F2psBegin {$F2psDict begin /$F2psEnteredState save def} def
/$F2psEnd {$F2psEnteredState restore end} def

/pageheader {
save
newpath 0 119 moveto 0 0 lineto 333 0 lineto 333 119 lineto closepath clip newpath
-268.3 199.4 translate
1 -1 scale
$F2psBegin
10 setmiterlimit
0 slj 0 slc
 0.06299 0.06299 sc
} bind def
/pagefooter {
$F2psEnd
restore
} bind def
%%EndProlog
pageheader
%
% Fig objects follow
%
% 
% here starts figure with depth 70
% Polyline
0 slj
0 slc
7.500 slw
n 5850 1350 m 6750 1350 l 6750 2250 l 5850 2250 l
 cp gs col4 0.50 tnt ef gr gs col4 s gr 
% here ends figure;
% 
% here starts figure with depth 52
% Polyline
0 slj
0 slc
7.500 slw
n 7425 1800 m 8100 1800 l 8100 2700 l 7425 2700 l
 cp gs col11 0.50 tnt ef gr gs col11 s gr 
% here ends figure;
% 
% here starts figure with depth 50
% Ellipse
7.500 slw
n 4950 1350 45 45 0 360 DrawEllipse gs col7 0.00 shd ef gr gs col0 s gr

% Ellipse
15.000 slw
n 4950 1800 45 45 0 360 DrawEllipse gs col7 0.00 shd ef gr gs col0 s gr

% Ellipse
7.500 slw
n 5850 2250 45 45 0 360 DrawEllipse gs col7 0.00 shd ef gr gs col0 s gr

% Ellipse
n 5850 1350 45 45 0 360 DrawEllipse gs col7 0.00 shd ef gr gs col0 s gr

% Ellipse
n 5400 1800 45 45 0 360 DrawEllipse gs col7 0.00 shd ef gr gs col0 s gr

% Ellipse
15.000 slw
n 5400 2250 45 45 0 360 DrawEllipse gs col7 0.00 shd ef gr gs col0 s gr

% Ellipse
7.500 slw
n 6300 2250 45 45 0 360 DrawEllipse gs col7 0.00 shd ef gr gs col0 s gr

% Ellipse
15.000 slw
n 6300 2700 45 45 0 360 DrawEllipse gs col7 0.00 shd ef gr gs col0 s gr

% Ellipse
7.500 slw
n 7425 1800 45 45 0 360 DrawEllipse gs col7 0.00 shd ef gr gs col0 s gr

% Ellipse
n 7425 2700 45 45 0 360 DrawEllipse gs col7 0.00 shd ef gr gs col0 s gr

% here ends figure;
% 
% here starts figure with depth 48
% Polyline
0 slj
0 slc
7.500 slw
n 5850 1350 m
 5850 2250 l gs col0 s gr 
% Polyline
n 4950 1350 m
 4950 1800 l gs col0 s gr 
% Polyline
n 5400 1800 m
 5400 2250 l gs col0 s gr 
% Polyline
n 6300 2250 m
 6300 2700 l gs col0 s gr 
% Polyline
n 6300 2475 m
 8100 2475 l gs col0 s gr 
% Polyline
n 5850 1755 m
 7200 1755 l gs col0 s gr 
% Polyline
n 4950 1575 m
 6750 1575 l gs col0 s gr 
% Polyline
n 7425 1800 m
 7425 2745 l gs col0 s gr 
% Polyline
n 7425 2205 m
 8325 2205 l gs col0 s gr 
% Polyline
n 5400 2025 m
 8100 2025 l gs col11 0.50 tnt ef gr gs col0 s gr 
% Polyline
gs  clippath
8864 2955 m 9015 2955 l 9015 2895 l 8864 2895 l 8864 2895 l 8984 2925 l 8864 2955 l cp
eoclip
n 4500 2925 m
 9000 2925 l gs col11 0.50 tnt ef gr gs col0 s gr gr

% arrowhead
n 8864 2955 m 8984 2925 l 8864 2895 l 8864 2955 l  cp gs 0.00 setgray ef gr  col0 s
% Polyline
 [60] 0 sd
n 4500 1350 m
 9000 1350 l gs col11 0.50 tnt ef gr gs col0 s gr  [] 0 sd
% Polyline
 [60] 0 sd
n 4500 1800 m
 9000 1800 l gs col11 0.50 tnt ef gr gs col0 s gr  [] 0 sd
% Polyline
 [60] 0 sd
n 4500 2250 m
 9000 2250 l gs col11 0.50 tnt ef gr gs col0 s gr  [] 0 sd
% Polyline
 [60] 0 sd
n 4500 2700 m
 9000 2700 l gs col11 0.50 tnt ef gr gs col0 s gr  [] 0 sd
% Polyline
n 4950 2925 m
 4950 2880 l gs col11 0.50 tnt ef gr gs col0 s gr 
% Polyline
n 5400 2925 m
 5400 2880 l gs col11 0.50 tnt ef gr gs col0 s gr 
% Polyline
n 5850 2925 m
 5850 2880 l gs col11 0.50 tnt ef gr gs col0 s gr 
% Polyline
n 6300 2925 m
 6300 2880 l gs col11 0.50 tnt ef gr gs col0 s gr 
% Polyline
n 6750 2925 m
 6750 2880 l gs col11 0.50 tnt ef gr gs col0 s gr 
% Polyline
n 7200 2925 m
 7200 2880 l gs col11 0.50 tnt ef gr gs col0 s gr 
% Polyline
n 7650 2925 m
 7650 2880 l gs col11 0.50 tnt ef gr gs col0 s gr 
% Polyline
n 8100 2925 m
 8100 2880 l gs col11 0.50 tnt ef gr gs col0 s gr 
% Polyline
n 8550 2925 m
 8550 2880 l gs col11 0.50 tnt ef gr gs col0 s gr 
/Times-Roman ff 206.38 scf sf
9135 3150 m
gs 1 -1 sc (time) col0 sh gr
/Times-Roman ff 206.38 scf sf
4275 2745 m
gs 1 -1 sc (d) col0 sh gr
/Times-Roman ff 206.38 scf sf
4275 2295 m
gs 1 -1 sc (c) col0 sh gr
/Times-Roman ff 206.38 scf sf
4275 1845 m
gs 1 -1 sc (b) col0 sh gr
/Times-Roman ff 206.38 scf sf
4275 1395 m
gs 1 -1 sc (a) col0 sh gr
/Times-Roman ff 158.75 scf sf
4905 3150 m
gs 1 -1 sc (2) col0 sh gr
/Times-Roman ff 158.75 scf sf
6255 3150 m
gs 1 -1 sc (8) col0 sh gr
/Times-Roman ff 158.75 scf sf
7560 3150 m
gs 1 -1 sc (14) col0 sh gr
% here ends figure;
pagefooter
showpage
%%Trailer
%EOF
