%!PS-Adobe-2.0
%%Title: ips-dist.eps
%%Creator: gnuplot 5.0 patchlevel 4
%%CreationDate: Fri Sep 23 10:36:28 2016
%%DocumentFonts: (atend)
%%BoundingBox: 50 50 554 770
%%Orientation: Landscape
%%Pages: (atend)
%%EndComments
%%BeginProlog
/gnudict 256 dict def
gnudict begin
%
% The following true/false flags may be edited by hand if desired.
% The unit line width and grayscale image gamma correction may also be changed.
%
/Color true def
/Blacktext false def
/Solid false def
/Dashlength 1 def
/Landscape true def
/Level1 false def
/Level3 false def
/Rounded false def
/ClipToBoundingBox false def
/SuppressPDFMark false def
/TransparentPatterns false def
/gnulinewidth 5.000 def
/userlinewidth gnulinewidth def
/Gamma 1.0 def
/BackgroundColor {-1.000 -1.000 -1.000} def
%
/vshift -46 def
/dl1 {
  10.0 Dashlength userlinewidth gnulinewidth div mul mul mul
  Rounded { currentlinewidth 0.75 mul sub dup 0 le { pop 0.01 } if } if
} def
/dl2 {
  10.0 Dashlength userlinewidth gnulinewidth div mul mul mul
  Rounded { currentlinewidth 0.75 mul add } if
} def
/hpt_ 31.5 def
/vpt_ 31.5 def
/hpt hpt_ def
/vpt vpt_ def
/doclip {
  ClipToBoundingBox {
    newpath 50 50 moveto 554 50 lineto 554 770 lineto 50 770 lineto closepath
    clip
  } if
} def
%
% Gnuplot Prolog Version 5.1 (Oct 2015)
%
%/SuppressPDFMark true def
%
/M {moveto} bind def
/L {lineto} bind def
/R {rmoveto} bind def
/V {rlineto} bind def
/N {newpath moveto} bind def
/Z {closepath} bind def
/C {setrgbcolor} bind def
/f {rlineto fill} bind def
/g {setgray} bind def
/Gshow {show} def   % May be redefined later in the file to support UTF-8
/vpt2 vpt 2 mul def
/hpt2 hpt 2 mul def
/Lshow {currentpoint stroke M 0 vshift R 
	Blacktext {gsave 0 setgray textshow grestore} {textshow} ifelse} def
/Rshow {currentpoint stroke M dup stringwidth pop neg vshift R
	Blacktext {gsave 0 setgray textshow grestore} {textshow} ifelse} def
/Cshow {currentpoint stroke M dup stringwidth pop -2 div vshift R 
	Blacktext {gsave 0 setgray textshow grestore} {textshow} ifelse} def
/UP {dup vpt_ mul /vpt exch def hpt_ mul /hpt exch def
  /hpt2 hpt 2 mul def /vpt2 vpt 2 mul def} def
/DL {Color {setrgbcolor Solid {pop []} if 0 setdash}
 {pop pop pop 0 setgray Solid {pop []} if 0 setdash} ifelse} def
/BL {stroke userlinewidth 2 mul setlinewidth
	Rounded {1 setlinejoin 1 setlinecap} if} def
/AL {stroke userlinewidth 2 div setlinewidth
	Rounded {1 setlinejoin 1 setlinecap} if} def
/UL {dup gnulinewidth mul /userlinewidth exch def
	dup 1 lt {pop 1} if 10 mul /udl exch def} def
/PL {stroke userlinewidth setlinewidth
	Rounded {1 setlinejoin 1 setlinecap} if} def
3.8 setmiterlimit
% Classic Line colors (version 5.0)
/LCw {1 1 1} def
/LCb {0 0 0} def
/LCa {0 0 0} def
/LC0 {1 0 0} def
/LC1 {0 1 0} def
/LC2 {0 0 1} def
/LC3 {1 0 1} def
/LC4 {0 1 1} def
/LC5 {1 1 0} def
/LC6 {0 0 0} def
/LC7 {1 0.3 0} def
/LC8 {0.5 0.5 0.5} def
% Default dash patterns (version 5.0)
/LTB {BL [] LCb DL} def
/LTw {PL [] 1 setgray} def
/LTb {PL [] LCb DL} def
/LTa {AL [1 udl mul 2 udl mul] 0 setdash LCa setrgbcolor} def
/LT0 {PL [] LC0 DL} def
/LT1 {PL [2 dl1 3 dl2] LC1 DL} def
/LT2 {PL [1 dl1 1.5 dl2] LC2 DL} def
/LT3 {PL [6 dl1 2 dl2 1 dl1 2 dl2] LC3 DL} def
/LT4 {PL [1 dl1 2 dl2 6 dl1 2 dl2 1 dl1 2 dl2] LC4 DL} def
/LT5 {PL [4 dl1 2 dl2] LC5 DL} def
/LT6 {PL [1.5 dl1 1.5 dl2 1.5 dl1 1.5 dl2 1.5 dl1 6 dl2] LC6 DL} def
/LT7 {PL [3 dl1 3 dl2 1 dl1 3 dl2] LC7 DL} def
/LT8 {PL [2 dl1 2 dl2 2 dl1 6 dl2] LC8 DL} def
/SL {[] 0 setdash} def
/Pnt {stroke [] 0 setdash gsave 1 setlinecap M 0 0 V stroke grestore} def
/Dia {stroke [] 0 setdash 2 copy vpt add M
  hpt neg vpt neg V hpt vpt neg V
  hpt vpt V hpt neg vpt V closepath stroke
  Pnt} def
/Pls {stroke [] 0 setdash vpt sub M 0 vpt2 V
  currentpoint stroke M
  hpt neg vpt neg R hpt2 0 V stroke
 } def
/Box {stroke [] 0 setdash 2 copy exch hpt sub exch vpt add M
  0 vpt2 neg V hpt2 0 V 0 vpt2 V
  hpt2 neg 0 V closepath stroke
  Pnt} def
/Crs {stroke [] 0 setdash exch hpt sub exch vpt add M
  hpt2 vpt2 neg V currentpoint stroke M
  hpt2 neg 0 R hpt2 vpt2 V stroke} def
/TriU {stroke [] 0 setdash 2 copy vpt 1.12 mul add M
  hpt neg vpt -1.62 mul V
  hpt 2 mul 0 V
  hpt neg vpt 1.62 mul V closepath stroke
  Pnt} def
/Star {2 copy Pls Crs} def
/BoxF {stroke [] 0 setdash exch hpt sub exch vpt add M
  0 vpt2 neg V hpt2 0 V 0 vpt2 V
  hpt2 neg 0 V closepath fill} def
/TriUF {stroke [] 0 setdash vpt 1.12 mul add M
  hpt neg vpt -1.62 mul V
  hpt 2 mul 0 V
  hpt neg vpt 1.62 mul V closepath fill} def
/TriD {stroke [] 0 setdash 2 copy vpt 1.12 mul sub M
  hpt neg vpt 1.62 mul V
  hpt 2 mul 0 V
  hpt neg vpt -1.62 mul V closepath stroke
  Pnt} def
/TriDF {stroke [] 0 setdash vpt 1.12 mul sub M
  hpt neg vpt 1.62 mul V
  hpt 2 mul 0 V
  hpt neg vpt -1.62 mul V closepath fill} def
/DiaF {stroke [] 0 setdash vpt add M
  hpt neg vpt neg V hpt vpt neg V
  hpt vpt V hpt neg vpt V closepath fill} def
/Pent {stroke [] 0 setdash 2 copy gsave
  translate 0 hpt M 4 {72 rotate 0 hpt L} repeat
  closepath stroke grestore Pnt} def
/PentF {stroke [] 0 setdash gsave
  translate 0 hpt M 4 {72 rotate 0 hpt L} repeat
  closepath fill grestore} def
/Circle {stroke [] 0 setdash 2 copy
  hpt 0 360 arc stroke Pnt} def
/CircleF {stroke [] 0 setdash hpt 0 360 arc fill} def
/C0 {BL [] 0 setdash 2 copy moveto vpt 90 450 arc} bind def
/C1 {BL [] 0 setdash 2 copy moveto
	2 copy vpt 0 90 arc closepath fill
	vpt 0 360 arc closepath} bind def
/C2 {BL [] 0 setdash 2 copy moveto
	2 copy vpt 90 180 arc closepath fill
	vpt 0 360 arc closepath} bind def
/C3 {BL [] 0 setdash 2 copy moveto
	2 copy vpt 0 180 arc closepath fill
	vpt 0 360 arc closepath} bind def
/C4 {BL [] 0 setdash 2 copy moveto
	2 copy vpt 180 270 arc closepath fill
	vpt 0 360 arc closepath} bind def
/C5 {BL [] 0 setdash 2 copy moveto
	2 copy vpt 0 90 arc
	2 copy moveto
	2 copy vpt 180 270 arc closepath fill
	vpt 0 360 arc} bind def
/C6 {BL [] 0 setdash 2 copy moveto
	2 copy vpt 90 270 arc closepath fill
	vpt 0 360 arc closepath} bind def
/C7 {BL [] 0 setdash 2 copy moveto
	2 copy vpt 0 270 arc closepath fill
	vpt 0 360 arc closepath} bind def
/C8 {BL [] 0 setdash 2 copy moveto
	2 copy vpt 270 360 arc closepath fill
	vpt 0 360 arc closepath} bind def
/C9 {BL [] 0 setdash 2 copy moveto
	2 copy vpt 270 450 arc closepath fill
	vpt 0 360 arc closepath} bind def
/C10 {BL [] 0 setdash 2 copy 2 copy moveto vpt 270 360 arc closepath fill
	2 copy moveto
	2 copy vpt 90 180 arc closepath fill
	vpt 0 360 arc closepath} bind def
/C11 {BL [] 0 setdash 2 copy moveto
	2 copy vpt 0 180 arc closepath fill
	2 copy moveto
	2 copy vpt 270 360 arc closepath fill
	vpt 0 360 arc closepath} bind def
/C12 {BL [] 0 setdash 2 copy moveto
	2 copy vpt 180 360 arc closepath fill
	vpt 0 360 arc closepath} bind def
/C13 {BL [] 0 setdash 2 copy moveto
	2 copy vpt 0 90 arc closepath fill
	2 copy moveto
	2 copy vpt 180 360 arc closepath fill
	vpt 0 360 arc closepath} bind def
/C14 {BL [] 0 setdash 2 copy moveto
	2 copy vpt 90 360 arc closepath fill
	vpt 0 360 arc} bind def
/C15 {BL [] 0 setdash 2 copy vpt 0 360 arc closepath fill
	vpt 0 360 arc closepath} bind def
/Rec {newpath 4 2 roll moveto 1 index 0 rlineto 0 exch rlineto
	neg 0 rlineto closepath} bind def
/Square {dup Rec} bind def
/Bsquare {vpt sub exch vpt sub exch vpt2 Square} bind def
/S0 {BL [] 0 setdash 2 copy moveto 0 vpt rlineto BL Bsquare} bind def
/S1 {BL [] 0 setdash 2 copy vpt Square fill Bsquare} bind def
/S2 {BL [] 0 setdash 2 copy exch vpt sub exch vpt Square fill Bsquare} bind def
/S3 {BL [] 0 setdash 2 copy exch vpt sub exch vpt2 vpt Rec fill Bsquare} bind def
/S4 {BL [] 0 setdash 2 copy exch vpt sub exch vpt sub vpt Square fill Bsquare} bind def
/S5 {BL [] 0 setdash 2 copy 2 copy vpt Square fill
	exch vpt sub exch vpt sub vpt Square fill Bsquare} bind def
/S6 {BL [] 0 setdash 2 copy exch vpt sub exch vpt sub vpt vpt2 Rec fill Bsquare} bind def
/S7 {BL [] 0 setdash 2 copy exch vpt sub exch vpt sub vpt vpt2 Rec fill
	2 copy vpt Square fill Bsquare} bind def
/S8 {BL [] 0 setdash 2 copy vpt sub vpt Square fill Bsquare} bind def
/S9 {BL [] 0 setdash 2 copy vpt sub vpt vpt2 Rec fill Bsquare} bind def
/S10 {BL [] 0 setdash 2 copy vpt sub vpt Square fill 2 copy exch vpt sub exch vpt Square fill
	Bsquare} bind def
/S11 {BL [] 0 setdash 2 copy vpt sub vpt Square fill 2 copy exch vpt sub exch vpt2 vpt Rec fill
	Bsquare} bind def
/S12 {BL [] 0 setdash 2 copy exch vpt sub exch vpt sub vpt2 vpt Rec fill Bsquare} bind def
/S13 {BL [] 0 setdash 2 copy exch vpt sub exch vpt sub vpt2 vpt Rec fill
	2 copy vpt Square fill Bsquare} bind def
/S14 {BL [] 0 setdash 2 copy exch vpt sub exch vpt sub vpt2 vpt Rec fill
	2 copy exch vpt sub exch vpt Square fill Bsquare} bind def
/S15 {BL [] 0 setdash 2 copy Bsquare fill Bsquare} bind def
/D0 {gsave translate 45 rotate 0 0 S0 stroke grestore} bind def
/D1 {gsave translate 45 rotate 0 0 S1 stroke grestore} bind def
/D2 {gsave translate 45 rotate 0 0 S2 stroke grestore} bind def
/D3 {gsave translate 45 rotate 0 0 S3 stroke grestore} bind def
/D4 {gsave translate 45 rotate 0 0 S4 stroke grestore} bind def
/D5 {gsave translate 45 rotate 0 0 S5 stroke grestore} bind def
/D6 {gsave translate 45 rotate 0 0 S6 stroke grestore} bind def
/D7 {gsave translate 45 rotate 0 0 S7 stroke grestore} bind def
/D8 {gsave translate 45 rotate 0 0 S8 stroke grestore} bind def
/D9 {gsave translate 45 rotate 0 0 S9 stroke grestore} bind def
/D10 {gsave translate 45 rotate 0 0 S10 stroke grestore} bind def
/D11 {gsave translate 45 rotate 0 0 S11 stroke grestore} bind def
/D12 {gsave translate 45 rotate 0 0 S12 stroke grestore} bind def
/D13 {gsave translate 45 rotate 0 0 S13 stroke grestore} bind def
/D14 {gsave translate 45 rotate 0 0 S14 stroke grestore} bind def
/D15 {gsave translate 45 rotate 0 0 S15 stroke grestore} bind def
/DiaE {stroke [] 0 setdash vpt add M
  hpt neg vpt neg V hpt vpt neg V
  hpt vpt V hpt neg vpt V closepath stroke} def
/BoxE {stroke [] 0 setdash exch hpt sub exch vpt add M
  0 vpt2 neg V hpt2 0 V 0 vpt2 V
  hpt2 neg 0 V closepath stroke} def
/TriUE {stroke [] 0 setdash vpt 1.12 mul add M
  hpt neg vpt -1.62 mul V
  hpt 2 mul 0 V
  hpt neg vpt 1.62 mul V closepath stroke} def
/TriDE {stroke [] 0 setdash vpt 1.12 mul sub M
  hpt neg vpt 1.62 mul V
  hpt 2 mul 0 V
  hpt neg vpt -1.62 mul V closepath stroke} def
/PentE {stroke [] 0 setdash gsave
  translate 0 hpt M 4 {72 rotate 0 hpt L} repeat
  closepath stroke grestore} def
/CircE {stroke [] 0 setdash 
  hpt 0 360 arc stroke} def
/Opaque {gsave closepath 1 setgray fill grestore 0 setgray closepath} def
/DiaW {stroke [] 0 setdash vpt add M
  hpt neg vpt neg V hpt vpt neg V
  hpt vpt V hpt neg vpt V Opaque stroke} def
/BoxW {stroke [] 0 setdash exch hpt sub exch vpt add M
  0 vpt2 neg V hpt2 0 V 0 vpt2 V
  hpt2 neg 0 V Opaque stroke} def
/TriUW {stroke [] 0 setdash vpt 1.12 mul add M
  hpt neg vpt -1.62 mul V
  hpt 2 mul 0 V
  hpt neg vpt 1.62 mul V Opaque stroke} def
/TriDW {stroke [] 0 setdash vpt 1.12 mul sub M
  hpt neg vpt 1.62 mul V
  hpt 2 mul 0 V
  hpt neg vpt -1.62 mul V Opaque stroke} def
/PentW {stroke [] 0 setdash gsave
  translate 0 hpt M 4 {72 rotate 0 hpt L} repeat
  Opaque stroke grestore} def
/CircW {stroke [] 0 setdash 
  hpt 0 360 arc Opaque stroke} def
/BoxFill {gsave Rec 1 setgray fill grestore} def
/Density {
  /Fillden exch def
  currentrgbcolor
  /ColB exch def /ColG exch def /ColR exch def
  /ColR ColR Fillden mul Fillden sub 1 add def
  /ColG ColG Fillden mul Fillden sub 1 add def
  /ColB ColB Fillden mul Fillden sub 1 add def
  ColR ColG ColB setrgbcolor} def
/BoxColFill {gsave Rec PolyFill} def
/PolyFill {gsave Density fill grestore grestore} def
/h {rlineto rlineto rlineto gsave closepath fill grestore} bind def
%
% PostScript Level 1 Pattern Fill routine for rectangles
% Usage: x y w h s a XX PatternFill
%	x,y = lower left corner of box to be filled
%	w,h = width and height of box
%	  a = angle in degrees between lines and x-axis
%	 XX = 0/1 for no/yes cross-hatch
%
/PatternFill {gsave /PFa [ 9 2 roll ] def
  PFa 0 get PFa 2 get 2 div add PFa 1 get PFa 3 get 2 div add translate
  PFa 2 get -2 div PFa 3 get -2 div PFa 2 get PFa 3 get Rec
  TransparentPatterns {} {gsave 1 setgray fill grestore} ifelse
  clip
  currentlinewidth 0.5 mul setlinewidth
  /PFs PFa 2 get dup mul PFa 3 get dup mul add sqrt def
  0 0 M PFa 5 get rotate PFs -2 div dup translate
  0 1 PFs PFa 4 get div 1 add floor cvi
	{PFa 4 get mul 0 M 0 PFs V} for
  0 PFa 6 get ne {
	0 1 PFs PFa 4 get div 1 add floor cvi
	{PFa 4 get mul 0 2 1 roll M PFs 0 V} for
 } if
  stroke grestore} def
%
/languagelevel where
 {pop languagelevel} {1} ifelse
dup 2 lt
	{/InterpretLevel1 true def
	 /InterpretLevel3 false def}
	{/InterpretLevel1 Level1 def
	 2 gt
	    {/InterpretLevel3 Level3 def}
	    {/InterpretLevel3 false def}
	 ifelse }
 ifelse
%
% PostScript level 2 pattern fill definitions
%
/Level2PatternFill {
/Tile8x8 {/PaintType 2 /PatternType 1 /TilingType 1 /BBox [0 0 8 8] /XStep 8 /YStep 8}
	bind def
/KeepColor {currentrgbcolor [/Pattern /DeviceRGB] setcolorspace} bind def
<< Tile8x8
 /PaintProc {0.5 setlinewidth pop 0 0 M 8 8 L 0 8 M 8 0 L stroke} 
>> matrix makepattern
/Pat1 exch def
<< Tile8x8
 /PaintProc {0.5 setlinewidth pop 0 0 M 8 8 L 0 8 M 8 0 L stroke
	0 4 M 4 8 L 8 4 L 4 0 L 0 4 L stroke}
>> matrix makepattern
/Pat2 exch def
<< Tile8x8
 /PaintProc {0.5 setlinewidth pop 0 0 M 0 8 L
	8 8 L 8 0 L 0 0 L fill}
>> matrix makepattern
/Pat3 exch def
<< Tile8x8
 /PaintProc {0.5 setlinewidth pop -4 8 M 8 -4 L
	0 12 M 12 0 L stroke}
>> matrix makepattern
/Pat4 exch def
<< Tile8x8
 /PaintProc {0.5 setlinewidth pop -4 0 M 8 12 L
	0 -4 M 12 8 L stroke}
>> matrix makepattern
/Pat5 exch def
<< Tile8x8
 /PaintProc {0.5 setlinewidth pop -2 8 M 4 -4 L
	0 12 M 8 -4 L 4 12 M 10 0 L stroke}
>> matrix makepattern
/Pat6 exch def
<< Tile8x8
 /PaintProc {0.5 setlinewidth pop -2 0 M 4 12 L
	0 -4 M 8 12 L 4 -4 M 10 8 L stroke}
>> matrix makepattern
/Pat7 exch def
<< Tile8x8
 /PaintProc {0.5 setlinewidth pop 8 -2 M -4 4 L
	12 0 M -4 8 L 12 4 M 0 10 L stroke}
>> matrix makepattern
/Pat8 exch def
<< Tile8x8
 /PaintProc {0.5 setlinewidth pop 0 -2 M 12 4 L
	-4 0 M 12 8 L -4 4 M 8 10 L stroke}
>> matrix makepattern
/Pat9 exch def
/Pattern1 {PatternBgnd KeepColor Pat1 setpattern} bind def
/Pattern2 {PatternBgnd KeepColor Pat2 setpattern} bind def
/Pattern3 {PatternBgnd KeepColor Pat3 setpattern} bind def
/Pattern4 {PatternBgnd KeepColor Landscape {Pat5} {Pat4} ifelse setpattern} bind def
/Pattern5 {PatternBgnd KeepColor Landscape {Pat4} {Pat5} ifelse setpattern} bind def
/Pattern6 {PatternBgnd KeepColor Landscape {Pat9} {Pat6} ifelse setpattern} bind def
/Pattern7 {PatternBgnd KeepColor Landscape {Pat8} {Pat7} ifelse setpattern} bind def
} def
%
%
%End of PostScript Level 2 code
%
/PatternBgnd {
  TransparentPatterns {} {gsave 1 setgray fill grestore} ifelse
} def
%
% Substitute for Level 2 pattern fill codes with
% grayscale if Level 2 support is not selected.
%
/Level1PatternFill {
/Pattern1 {0.250 Density} bind def
/Pattern2 {0.500 Density} bind def
/Pattern3 {0.750 Density} bind def
/Pattern4 {0.125 Density} bind def
/Pattern5 {0.375 Density} bind def
/Pattern6 {0.625 Density} bind def
/Pattern7 {0.875 Density} bind def
} def
%
% Now test for support of Level 2 code
%
Level1 {Level1PatternFill} {Level2PatternFill} ifelse
%
/Symbol-Oblique /Symbol findfont [1 0 .167 1 0 0] makefont
dup length dict begin {1 index /FID eq {pop pop} {def} ifelse} forall
currentdict end definefont pop
%
/MFshow {
   { dup 5 get 3 ge
     { 5 get 3 eq {gsave} {grestore} ifelse }
     {dup dup 0 get findfont exch 1 get scalefont setfont
     [ currentpoint ] exch dup 2 get 0 exch R dup 5 get 2 ne {dup dup 6
     get exch 4 get {textshow} {stringwidth pop 0 R} ifelse }if dup 5 get 0 eq
     {dup 3 get {2 get neg 0 exch R pop} {pop aload pop M} ifelse} {dup 5
     get 1 eq {dup 2 get exch dup 3 get exch 6 get stringwidth pop -2 div
     dup 0 R} {dup 6 get stringwidth pop -2 div 0 R 6 get
     textshow 2 index {aload pop M neg 3 -1 roll neg R pop pop} {pop pop pop
     pop aload pop M} ifelse }ifelse }ifelse }
     ifelse }
   forall} def
/Gswidth {dup type /stringtype eq {stringwidth} {pop (n) stringwidth} ifelse} def
/MFwidth {0 exch { dup 5 get 3 ge { 5 get 3 eq { 0 } { pop } ifelse }
 {dup 3 get{dup dup 0 get findfont exch 1 get scalefont setfont
     6 get Gswidth pop add} {pop} ifelse} ifelse} forall} def
/MLshow { currentpoint stroke M
  0 exch R
  Blacktext {gsave 0 setgray MFshow grestore} {MFshow} ifelse } bind def
/MRshow { currentpoint stroke M
  exch dup MFwidth neg 3 -1 roll R
  Blacktext {gsave 0 setgray MFshow grestore} {MFshow} ifelse } bind def
/MCshow { currentpoint stroke M
  exch dup MFwidth -2 div 3 -1 roll R
  Blacktext {gsave 0 setgray MFshow grestore} {MFshow} ifelse } bind def
/XYsave    { [( ) 1 2 true false 3 ()] } bind def
/XYrestore { [( ) 1 2 true false 4 ()] } bind def
Level1 SuppressPDFMark or 
{} {
/SDict 10 dict def
systemdict /pdfmark known not {
  userdict /pdfmark systemdict /cleartomark get put
} if
SDict begin [
  /Title (ips-dist.eps)
  /Subject (gnuplot plot)
  /Creator (gnuplot 5.0 patchlevel 4)
  /Author (tiphaine)
%  /Producer (gnuplot)
%  /Keywords ()
  /CreationDate (Fri Sep 23 10:36:28 2016)
  /DOCINFO pdfmark
end
} ifelse
%
% Support for boxed text - Ethan A Merritt May 2005
%
/InitTextBox { userdict /TBy2 3 -1 roll put userdict /TBx2 3 -1 roll put
           userdict /TBy1 3 -1 roll put userdict /TBx1 3 -1 roll put
	   /Boxing true def } def
/ExtendTextBox { Boxing
    { gsave dup false charpath pathbbox
      dup TBy2 gt {userdict /TBy2 3 -1 roll put} {pop} ifelse
      dup TBx2 gt {userdict /TBx2 3 -1 roll put} {pop} ifelse
      dup TBy1 lt {userdict /TBy1 3 -1 roll put} {pop} ifelse
      dup TBx1 lt {userdict /TBx1 3 -1 roll put} {pop} ifelse
      grestore } if } def
/PopTextBox { newpath TBx1 TBxmargin sub TBy1 TBymargin sub M
               TBx1 TBxmargin sub TBy2 TBymargin add L
	       TBx2 TBxmargin add TBy2 TBymargin add L
	       TBx2 TBxmargin add TBy1 TBymargin sub L closepath } def
/DrawTextBox { PopTextBox stroke /Boxing false def} def
/FillTextBox { gsave PopTextBox 1 1 1 setrgbcolor fill grestore /Boxing false def} def
0 0 0 0 InitTextBox
/TBxmargin 20 def
/TBymargin 20 def
/Boxing false def
/textshow { ExtendTextBox Gshow } def
%
% redundant definitions for compatibility with prologue.ps older than 5.0.2
/LTB {BL [] LCb DL} def
/LTb {PL [] LCb DL} def
end
%%EndProlog
%%Page: 1 1
gnudict begin
gsave
doclip
50 50 translate
0.100 0.100 scale
90 rotate
0 -5040 translate
0 setgray
newpath
(Helvetica) findfont 140 scalefont setfont
BackgroundColor 0 lt 3 1 roll 0 lt exch 0 lt or or not {gsave BackgroundColor C clippath fill grestore} if
1.000 UL
LTb
LCb setrgbcolor
938 448 M
63 0 V
5946 0 R
-63 0 V
stroke
854 448 M
[ [(Helvetica) 220.0 0.0 true true 0 ( 0.0001)]
] -73.3 MRshow
1.000 UL
LTb
LCb setrgbcolor
938 781 M
31 0 V
5978 0 R
-31 0 V
938 976 M
31 0 V
5978 0 R
-31 0 V
938 1114 M
31 0 V
5978 0 R
-31 0 V
938 1221 M
31 0 V
5978 0 R
-31 0 V
938 1308 M
31 0 V
5978 0 R
-31 0 V
938 1382 M
31 0 V
5978 0 R
-31 0 V
938 1447 M
31 0 V
5978 0 R
-31 0 V
938 1503 M
31 0 V
5978 0 R
-31 0 V
938 1554 M
63 0 V
5946 0 R
-63 0 V
stroke
854 1554 M
[ [(Helvetica) 220.0 0.0 true true 0 ( 0.001)]
] -73.3 MRshow
1.000 UL
LTb
LCb setrgbcolor
938 1887 M
31 0 V
5978 0 R
-31 0 V
938 2081 M
31 0 V
5978 0 R
-31 0 V
938 2219 M
31 0 V
5978 0 R
-31 0 V
938 2327 M
31 0 V
5978 0 R
-31 0 V
938 2414 M
31 0 V
5978 0 R
-31 0 V
938 2488 M
31 0 V
5978 0 R
-31 0 V
938 2552 M
31 0 V
5978 0 R
-31 0 V
938 2609 M
31 0 V
5978 0 R
-31 0 V
938 2660 M
63 0 V
5946 0 R
-63 0 V
stroke
854 2660 M
[ [(Helvetica) 220.0 0.0 true true 0 ( 0.01)]
] -73.3 MRshow
1.000 UL
LTb
LCb setrgbcolor
938 2992 M
31 0 V
5978 0 R
-31 0 V
938 3187 M
31 0 V
5978 0 R
-31 0 V
938 3325 M
31 0 V
5978 0 R
-31 0 V
938 3432 M
31 0 V
5978 0 R
-31 0 V
938 3520 M
31 0 V
5978 0 R
-31 0 V
938 3594 M
31 0 V
5978 0 R
-31 0 V
938 3658 M
31 0 V
5978 0 R
-31 0 V
938 3715 M
31 0 V
5978 0 R
-31 0 V
938 3765 M
63 0 V
5946 0 R
-63 0 V
stroke
854 3765 M
[ [(Helvetica) 220.0 0.0 true true 0 ( 0.1)]
] -73.3 MRshow
1.000 UL
LTb
LCb setrgbcolor
938 4098 M
31 0 V
5978 0 R
-31 0 V
938 4293 M
31 0 V
5978 0 R
-31 0 V
938 4431 M
31 0 V
5978 0 R
-31 0 V
938 4538 M
31 0 V
5978 0 R
-31 0 V
938 4626 M
31 0 V
5978 0 R
-31 0 V
938 4700 M
31 0 V
5978 0 R
-31 0 V
938 4764 M
31 0 V
5978 0 R
-31 0 V
938 4820 M
31 0 V
5978 0 R
-31 0 V
938 4871 M
63 0 V
5946 0 R
-63 0 V
stroke
854 4871 M
[ [(Helvetica) 220.0 0.0 true true 0 ( 1)]
] -73.3 MRshow
1.000 UL
LTb
LCb setrgbcolor
938 448 M
0 63 V
0 4360 R
0 -63 V
stroke
938 308 M
[ [(Helvetica) 220.0 0.0 true true 0 ( 0)]
] -73.3 MCshow
1.000 UL
LTb
LCb setrgbcolor
1940 448 M
0 63 V
0 4360 R
0 -63 V
stroke
1940 308 M
[ [(Helvetica) 220.0 0.0 true true 0 ( 5000)]
] -73.3 MCshow
1.000 UL
LTb
LCb setrgbcolor
2941 448 M
0 63 V
0 4360 R
0 -63 V
stroke
2941 308 M
[ [(Helvetica) 220.0 0.0 true true 0 ( 10000)]
] -73.3 MCshow
1.000 UL
LTb
LCb setrgbcolor
3943 448 M
0 63 V
0 4360 R
0 -63 V
stroke
3943 308 M
[ [(Helvetica) 220.0 0.0 true true 0 ( 15000)]
] -73.3 MCshow
1.000 UL
LTb
LCb setrgbcolor
4944 448 M
0 63 V
0 4360 R
0 -63 V
stroke
4944 308 M
[ [(Helvetica) 220.0 0.0 true true 0 ( 20000)]
] -73.3 MCshow
1.000 UL
LTb
LCb setrgbcolor
5946 448 M
0 63 V
0 4360 R
0 -63 V
stroke
5946 308 M
[ [(Helvetica) 220.0 0.0 true true 0 ( 25000)]
] -73.3 MCshow
1.000 UL
LTb
LCb setrgbcolor
6947 448 M
0 63 V
0 4360 R
0 -63 V
stroke
6947 308 M
[ [(Helvetica) 220.0 0.0 true true 0 ( 30000)]
] -73.3 MCshow
1.000 UL
LTb
LCb setrgbcolor
1.000 UL
LTB
LCb setrgbcolor
938 4871 N
938 448 L
6009 0 V
0 4423 V
-6009 0 V
Z stroke
1.000 UP
1.000 UL
LTb
LCb setrgbcolor
4944 448 M
0 4423 V
stroke
LTb
LCb setrgbcolor
LCb setrgbcolor
112 2659 M
currentpoint gsave translate -270 rotate 0 0 moveto
[ [(Helvetica) 240.0 0.0 true true 0 (Nombre d'IPs par seconde)]
] -80.0 MCshow
grestore
LTb
LCb setrgbcolor
3942 98 M
[ [(Helvetica) 240.0 0.0 true true 0 (CCDF)]
] -80.0 MCshow
LTb
% Begin plot #1
1.000 UP
1.000 UL
LTb
0.90 0.12 0.06 C 1192 4871 Pls
1407 4871 Pls
1416 4871 Pls
1420 4871 Pls
1422 4870 Pls
1423 4870 Pls
1425 4870 Pls
1426 4870 Pls
1427 4870 Pls
1427 4870 Pls
1427 4869 Pls
1428 4869 Pls
1428 4869 Pls
1428 4868 Pls
1429 4868 Pls
1429 4868 Pls
1430 4868 Pls
1430 4868 Pls
1430 4868 Pls
1430 4867 Pls
1431 4867 Pls
1431 4867 Pls
1431 4866 Pls
1431 4866 Pls
1431 4866 Pls
1432 4866 Pls
1432 4865 Pls
1432 4865 Pls
1433 4865 Pls
1433 4865 Pls
1434 4865 Pls
1434 4865 Pls
1434 4865 Pls
1434 4864 Pls
1434 4864 Pls
1435 4864 Pls
1435 4864 Pls
1435 4863 Pls
1435 4863 Pls
1436 4863 Pls
1436 4863 Pls
1436 4863 Pls
1436 4862 Pls
1437 4862 Pls
1437 4861 Pls
1437 4861 Pls
1437 4861 Pls
1438 4861 Pls
1438 4861 Pls
1438 4860 Pls
1438 4860 Pls
1438 4859 Pls
1439 4859 Pls
1439 4858 Pls
1439 4858 Pls
1439 4857 Pls
1440 4857 Pls
1440 4857 Pls
1440 4856 Pls
1440 4855 Pls
1440 4855 Pls
1441 4854 Pls
1441 4854 Pls
1441 4853 Pls
1441 4853 Pls
1441 4852 Pls
1442 4852 Pls
1442 4851 Pls
1442 4851 Pls
1442 4850 Pls
1442 4850 Pls
1443 4849 Pls
1443 4848 Pls
1443 4848 Pls
1443 4847 Pls
1443 4847 Pls
1444 4847 Pls
1444 4846 Pls
1444 4845 Pls
1444 4845 Pls
1444 4844 Pls
1445 4843 Pls
1445 4842 Pls
1445 4842 Pls
1445 4840 Pls
1445 4839 Pls
1446 4838 Pls
1446 4837 Pls
1446 4836 Pls
1446 4836 Pls
1446 4836 Pls
1447 4834 Pls
1447 4834 Pls
1447 4832 Pls
1447 4831 Pls
1447 4830 Pls
1448 4828 Pls
1448 4828 Pls
1448 4827 Pls
1448 4827 Pls
1448 4826 Pls
1449 4825 Pls
1449 4824 Pls
1449 4823 Pls
1449 4822 Pls
1449 4822 Pls
1450 4821 Pls
1450 4820 Pls
1450 4819 Pls
1450 4817 Pls
1450 4816 Pls
1451 4815 Pls
1451 4814 Pls
1451 4813 Pls
1451 4811 Pls
1451 4810 Pls
1452 4809 Pls
1452 4808 Pls
1452 4807 Pls
1452 4806 Pls
1452 4805 Pls
1453 4804 Pls
1453 4802 Pls
1453 4801 Pls
1453 4799 Pls
1453 4798 Pls
1454 4797 Pls
1454 4797 Pls
1454 4795 Pls
1454 4794 Pls
1454 4792 Pls
1455 4791 Pls
1455 4791 Pls
1455 4789 Pls
1455 4787 Pls
1455 4786 Pls
1456 4784 Pls
1456 4782 Pls
1456 4780 Pls
1456 4778 Pls
1456 4776 Pls
1457 4775 Pls
1457 4773 Pls
1457 4772 Pls
1457 4770 Pls
1457 4769 Pls
1458 4767 Pls
1458 4765 Pls
1458 4764 Pls
1458 4763 Pls
1458 4761 Pls
1459 4759 Pls
1459 4758 Pls
1459 4756 Pls
1459 4754 Pls
1459 4752 Pls
1460 4751 Pls
1460 4749 Pls
1460 4748 Pls
1460 4745 Pls
1460 4744 Pls
1461 4742 Pls
1461 4740 Pls
1461 4739 Pls
1461 4737 Pls
1461 4735 Pls
1462 4734 Pls
1462 4731 Pls
1462 4729 Pls
1462 4726 Pls
1462 4725 Pls
1463 4724 Pls
1463 4722 Pls
1463 4720 Pls
1463 4718 Pls
1463 4715 Pls
1464 4713 Pls
1464 4710 Pls
1464 4707 Pls
1464 4704 Pls
1464 4703 Pls
1465 4700 Pls
1465 4696 Pls
1465 4694 Pls
1465 4692 Pls
1465 4690 Pls
1466 4686 Pls
1466 4684 Pls
1466 4682 Pls
1466 4680 Pls
1466 4677 Pls
1467 4676 Pls
1467 4673 Pls
1467 4671 Pls
1467 4669 Pls
1467 4666 Pls
1468 4664 Pls
1468 4660 Pls
1468 4657 Pls
1468 4654 Pls
1468 4651 Pls
1469 4649 Pls
1469 4647 Pls
1469 4643 Pls
1469 4640 Pls
1469 4637 Pls
1470 4635 Pls
1470 4633 Pls
1470 4630 Pls
1470 4627 Pls
1470 4625 Pls
1471 4622 Pls
1471 4618 Pls
1471 4616 Pls
1471 4611 Pls
1471 4609 Pls
1472 4605 Pls
1472 4601 Pls
1472 4598 Pls
1472 4596 Pls
1472 4593 Pls
1473 4591 Pls
1473 4588 Pls
1473 4585 Pls
1473 4581 Pls
1473 4579 Pls
1474 4576 Pls
1474 4572 Pls
1474 4569 Pls
1474 4565 Pls
1474 4563 Pls
1475 4561 Pls
1475 4557 Pls
1475 4554 Pls
1475 4551 Pls
1475 4546 Pls
1476 4541 Pls
1476 4538 Pls
1476 4535 Pls
1476 4530 Pls
1476 4528 Pls
1477 4525 Pls
1477 4521 Pls
1477 4518 Pls
1477 4516 Pls
1477 4513 Pls
1478 4511 Pls
1478 4509 Pls
1478 4504 Pls
1478 4502 Pls
1478 4498 Pls
1479 4495 Pls
1479 4492 Pls
1479 4489 Pls
1479 4488 Pls
1479 4485 Pls
1480 4481 Pls
1480 4477 Pls
1480 4475 Pls
1480 4471 Pls
1480 4468 Pls
1481 4466 Pls
1481 4461 Pls
1481 4458 Pls
1481 4454 Pls
1481 4450 Pls
1482 4446 Pls
1482 4443 Pls
1482 4438 Pls
1482 4435 Pls
1482 4432 Pls
1483 4431 Pls
1483 4428 Pls
1483 4423 Pls
1483 4420 Pls
1483 4414 Pls
1484 4412 Pls
1484 4409 Pls
1484 4404 Pls
1484 4400 Pls
1484 4395 Pls
1485 4390 Pls
1485 4385 Pls
1485 4382 Pls
1485 4379 Pls
1485 4376 Pls
1486 4374 Pls
1486 4371 Pls
1486 4367 Pls
1486 4364 Pls
1486 4362 Pls
1487 4359 Pls
1487 4354 Pls
1487 4349 Pls
1487 4347 Pls
1487 4345 Pls
1488 4342 Pls
1488 4337 Pls
1488 4334 Pls
1488 4330 Pls
1488 4326 Pls
1489 4324 Pls
1489 4320 Pls
1489 4318 Pls
1489 4315 Pls
1489 4312 Pls
1490 4307 Pls
1490 4303 Pls
1490 4300 Pls
1490 4296 Pls
1490 4291 Pls
1491 4287 Pls
1491 4285 Pls
1491 4279 Pls
1491 4276 Pls
1491 4272 Pls
1492 4270 Pls
1492 4264 Pls
1492 4260 Pls
1492 4255 Pls
1492 4252 Pls
1493 4250 Pls
1493 4247 Pls
1493 4244 Pls
1493 4238 Pls
1493 4235 Pls
1494 4232 Pls
1494 4228 Pls
1494 4225 Pls
1494 4221 Pls
1494 4216 Pls
1495 4215 Pls
1495 4212 Pls
1495 4210 Pls
1495 4205 Pls
1495 4202 Pls
1496 4197 Pls
1496 4193 Pls
1496 4188 Pls
1496 4183 Pls
1496 4181 Pls
1497 4180 Pls
1497 4177 Pls
1497 4172 Pls
1497 4165 Pls
1497 4161 Pls
1498 4158 Pls
1498 4153 Pls
1498 4148 Pls
1498 4141 Pls
1498 4138 Pls
1499 4137 Pls
1499 4133 Pls
1499 4129 Pls
1499 4121 Pls
1499 4117 Pls
1500 4115 Pls
1500 4113 Pls
1500 4109 Pls
1500 4106 Pls
1500 4103 Pls
1501 4099 Pls
1501 4095 Pls
1501 4091 Pls
1501 4087 Pls
1501 4083 Pls
1502 4076 Pls
1502 4074 Pls
1502 4067 Pls
1502 4061 Pls
1502 4058 Pls
1503 4056 Pls
1503 4052 Pls
1503 4046 Pls
1503 4043 Pls
1503 4040 Pls
1504 4036 Pls
1504 4029 Pls
1504 4026 Pls
1504 4022 Pls
1504 4018 Pls
1505 4015 Pls
1505 4008 Pls
1505 4007 Pls
1505 4005 Pls
1505 4001 Pls
1506 3996 Pls
1506 3993 Pls
1506 3986 Pls
1506 3982 Pls
1506 3979 Pls
1507 3977 Pls
1507 3971 Pls
1507 3967 Pls
1507 3962 Pls
1507 3960 Pls
1508 3955 Pls
1508 3950 Pls
1508 3946 Pls
1508 3938 Pls
1508 3935 Pls
1509 3933 Pls
1509 3931 Pls
1509 3928 Pls
1509 3924 Pls
1509 3921 Pls
1510 3915 Pls
1510 3914 Pls
1510 3910 Pls
1510 3906 Pls
1510 3901 Pls
1511 3892 Pls
1511 3886 Pls
1511 3883 Pls
1511 3880 Pls
1511 3877 Pls
1512 3872 Pls
1512 3869 Pls
1512 3864 Pls
1512 3863 Pls
1512 3859 Pls
1513 3858 Pls
1513 3855 Pls
1513 3847 Pls
1513 3843 Pls
1514 3837 Pls
1514 3831 Pls
1514 3827 Pls
1514 3816 Pls
1514 3811 Pls
1515 3804 Pls
1515 3797 Pls
1515 3792 Pls
1515 3790 Pls
1515 3787 Pls
1516 3785 Pls
1516 3780 Pls
1516 3777 Pls
1516 3774 Pls
1516 3769 Pls
1517 3768 Pls
1517 3764 Pls
1517 3756 Pls
1517 3754 Pls
1517 3750 Pls
1518 3749 Pls
1518 3743 Pls
1518 3741 Pls
1518 3739 Pls
1518 3738 Pls
1519 3732 Pls
1519 3731 Pls
1519 3725 Pls
1519 3721 Pls
1520 3713 Pls
1520 3709 Pls
1520 3704 Pls
1520 3701 Pls
1520 3698 Pls
1521 3697 Pls
1521 3695 Pls
1521 3687 Pls
1521 3681 Pls
1522 3678 Pls
1522 3674 Pls
1522 3673 Pls
1522 3670 Pls
1522 3668 Pls
1523 3665 Pls
1523 3660 Pls
1523 3656 Pls
1523 3648 Pls
1523 3643 Pls
1524 3639 Pls
1524 3636 Pls
1524 3632 Pls
1524 3624 Pls
1524 3613 Pls
1525 3611 Pls
1525 3609 Pls
1525 3607 Pls
1525 3602 Pls
1525 3596 Pls
1526 3592 Pls
1526 3590 Pls
1526 3584 Pls
1527 3578 Pls
1527 3577 Pls
1527 3573 Pls
1528 3569 Pls
1528 3564 Pls
1528 3558 Pls
1529 3554 Pls
1529 3552 Pls
1529 3544 Pls
1529 3540 Pls
1530 3529 Pls
1530 3527 Pls
1530 3524 Pls
1531 3522 Pls
1531 3520 Pls
1531 3515 Pls
1531 3513 Pls
1531 3511 Pls
1532 3506 Pls
1532 3497 Pls
1532 3495 Pls
1533 3490 Pls
1533 3488 Pls
1533 3485 Pls
1533 3483 Pls
1534 3478 Pls
1534 3473 Pls
1534 3471 Pls
1534 3468 Pls
1535 3466 Pls
1535 3463 Pls
1535 3458 Pls
1535 3453 Pls
1536 3451 Pls
1536 3446 Pls
1536 3440 Pls
1536 3438 Pls
1537 3430 Pls
1537 3427 Pls
1537 3422 Pls
1538 3419 Pls
1538 3413 Pls
1538 3411 Pls
1538 3405 Pls
1539 3402 Pls
1540 3399 Pls
1540 3394 Pls
1540 3391 Pls
1541 3388 Pls
1541 3385 Pls
1542 3379 Pls
1543 3376 Pls
1543 3373 Pls
1543 3367 Pls
1544 3364 Pls
1544 3357 Pls
1545 3351 Pls
1546 3348 Pls
1547 3345 Pls
1547 3342 Pls
1548 3338 Pls
1548 3332 Pls
1549 3329 Pls
1549 3325 Pls
1550 3322 Pls
1550 3319 Pls
1551 3315 Pls
1551 3308 Pls
1552 3301 Pls
1553 3298 Pls
1554 3291 Pls
1554 3287 Pls
1555 3283 Pls
1558 3280 Pls
1560 3276 Pls
1564 3272 Pls
1566 3269 Pls
1566 3265 Pls
1568 3261 Pls
1568 3257 Pls
1569 3250 Pls
1569 3246 Pls
1571 3242 Pls
1574 3238 Pls
1574 3234 Pls
1574 3230 Pls
1576 3221 Pls
1577 3217 Pls
1578 3213 Pls
1579 3209 Pls
1581 3205 Pls
1581 3200 Pls
1581 3196 Pls
1582 3192 Pls
1582 3187 Pls
1582 3183 Pls
1584 3178 Pls
1585 3174 Pls
1585 3169 Pls
1587 3164 Pls
1588 3160 Pls
1589 3155 Pls
1589 3150 Pls
1593 3145 Pls
1595 3140 Pls
1596 3135 Pls
1596 3131 Pls
1598 3125 Pls
1598 3120 Pls
1599 3115 Pls
1601 3110 Pls
1602 3105 Pls
1603 3100 Pls
1603 3094 Pls
1604 3089 Pls
1604 3078 Pls
1605 3072 Pls
1606 3061 Pls
1606 3055 Pls
1608 3049 Pls
1608 3043 Pls
1609 3037 Pls
1613 3031 Pls
1617 3025 Pls
1619 3018 Pls
1619 3012 Pls
1620 3006 Pls
1621 2999 Pls
1622 2992 Pls
1627 2986 Pls
1636 2979 Pls
1645 2972 Pls
1684 2965 Pls
1708 2958 Pls
1718 2951 Pls
1722 2943 Pls
1788 2936 Pls
1807 2928 Pls
1851 2921 Pls
1853 2913 Pls
1862 2905 Pls
1870 2897 Pls
1876 2889 Pls
1890 2880 Pls
1897 2872 Pls
1907 2863 Pls
1907 2854 Pls
1920 2845 Pls
1923 2836 Pls
1927 2827 Pls
1927 2817 Pls
1941 2808 Pls
1942 2798 Pls
1944 2788 Pls
1955 2777 Pls
1966 2767 Pls
1971 2756 Pls
2053 2745 Pls
2107 2734 Pls
2108 2722 Pls
2137 2710 Pls
2164 2698 Pls
2179 2685 Pls
2201 2673 Pls
2214 2660 Pls
2240 2646 Pls
2270 2632 Pls
2275 2618 Pls
2291 2603 Pls
2313 2588 Pls
2342 2572 Pls
2351 2556 Pls
2361 2539 Pls
2418 2521 Pls
2438 2503 Pls
2666 2484 Pls
2675 2465 Pls
2767 2444 Pls
2806 2423 Pls
2897 2401 Pls
2907 2377 Pls
2915 2353 Pls
3096 2327 Pls
3102 2299 Pls
3251 2270 Pls
3278 2239 Pls
3307 2206 Pls
3308 2170 Pls
3462 2132 Pls
3497 2090 Pls
3859 2044 Pls
3958 1994 Pls
4171 1937 Pls
4725 1873 Pls
5271 1799 Pls
5450 1712 Pls
5524 1604 Pls
5688 1466 Pls
6190 1271 Pls
6249 939 Pls
% End plot #1
2.000 UL
LTb
LCb setrgbcolor
1.000 UL
LTB
LCb setrgbcolor
938 4871 N
938 448 L
6009 0 V
0 4423 V
-6009 0 V
Z stroke
1.000 UP
1.000 UL
LTb
LCb setrgbcolor
stroke
grestore
end
showpage
