%!PS-Adobe-2.0
%%Title: pkts-dist.eps
%%Creator: gnuplot 5.0 patchlevel 4
%%CreationDate: Fri Sep 23 10:26:36 2016
%%DocumentFonts: (atend)
%%BoundingBox: 50 50 554 770
%%Orientation: Landscape
%%Pages: (atend)
%%EndComments
%%BeginProlog
/gnudict 256 dict def
gnudict begin
%
% The following true/false flags may be edited by hand if desired.
% The unit line width and grayscale image gamma correction may also be changed.
%
/Color true def
/Blacktext false def
/Solid false def
/Dashlength 1 def
/Landscape true def
/Level1 false def
/Level3 false def
/Rounded false def
/ClipToBoundingBox false def
/SuppressPDFMark false def
/TransparentPatterns false def
/gnulinewidth 5.000 def
/userlinewidth gnulinewidth def
/Gamma 1.0 def
/BackgroundColor {-1.000 -1.000 -1.000} def
%
/vshift -46 def
/dl1 {
  10.0 Dashlength userlinewidth gnulinewidth div mul mul mul
  Rounded { currentlinewidth 0.75 mul sub dup 0 le { pop 0.01 } if } if
} def
/dl2 {
  10.0 Dashlength userlinewidth gnulinewidth div mul mul mul
  Rounded { currentlinewidth 0.75 mul add } if
} def
/hpt_ 31.5 def
/vpt_ 31.5 def
/hpt hpt_ def
/vpt vpt_ def
/doclip {
  ClipToBoundingBox {
    newpath 50 50 moveto 554 50 lineto 554 770 lineto 50 770 lineto closepath
    clip
  } if
} def
%
% Gnuplot Prolog Version 5.1 (Oct 2015)
%
%/SuppressPDFMark true def
%
/M {moveto} bind def
/L {lineto} bind def
/R {rmoveto} bind def
/V {rlineto} bind def
/N {newpath moveto} bind def
/Z {closepath} bind def
/C {setrgbcolor} bind def
/f {rlineto fill} bind def
/g {setgray} bind def
/Gshow {show} def   % May be redefined later in the file to support UTF-8
/vpt2 vpt 2 mul def
/hpt2 hpt 2 mul def
/Lshow {currentpoint stroke M 0 vshift R 
	Blacktext {gsave 0 setgray textshow grestore} {textshow} ifelse} def
/Rshow {currentpoint stroke M dup stringwidth pop neg vshift R
	Blacktext {gsave 0 setgray textshow grestore} {textshow} ifelse} def
/Cshow {currentpoint stroke M dup stringwidth pop -2 div vshift R 
	Blacktext {gsave 0 setgray textshow grestore} {textshow} ifelse} def
/UP {dup vpt_ mul /vpt exch def hpt_ mul /hpt exch def
  /hpt2 hpt 2 mul def /vpt2 vpt 2 mul def} def
/DL {Color {setrgbcolor Solid {pop []} if 0 setdash}
 {pop pop pop 0 setgray Solid {pop []} if 0 setdash} ifelse} def
/BL {stroke userlinewidth 2 mul setlinewidth
	Rounded {1 setlinejoin 1 setlinecap} if} def
/AL {stroke userlinewidth 2 div setlinewidth
	Rounded {1 setlinejoin 1 setlinecap} if} def
/UL {dup gnulinewidth mul /userlinewidth exch def
	dup 1 lt {pop 1} if 10 mul /udl exch def} def
/PL {stroke userlinewidth setlinewidth
	Rounded {1 setlinejoin 1 setlinecap} if} def
3.8 setmiterlimit
% Classic Line colors (version 5.0)
/LCw {1 1 1} def
/LCb {0 0 0} def
/LCa {0 0 0} def
/LC0 {1 0 0} def
/LC1 {0 1 0} def
/LC2 {0 0 1} def
/LC3 {1 0 1} def
/LC4 {0 1 1} def
/LC5 {1 1 0} def
/LC6 {0 0 0} def
/LC7 {1 0.3 0} def
/LC8 {0.5 0.5 0.5} def
% Default dash patterns (version 5.0)
/LTB {BL [] LCb DL} def
/LTw {PL [] 1 setgray} def
/LTb {PL [] LCb DL} def
/LTa {AL [1 udl mul 2 udl mul] 0 setdash LCa setrgbcolor} def
/LT0 {PL [] LC0 DL} def
/LT1 {PL [2 dl1 3 dl2] LC1 DL} def
/LT2 {PL [1 dl1 1.5 dl2] LC2 DL} def
/LT3 {PL [6 dl1 2 dl2 1 dl1 2 dl2] LC3 DL} def
/LT4 {PL [1 dl1 2 dl2 6 dl1 2 dl2 1 dl1 2 dl2] LC4 DL} def
/LT5 {PL [4 dl1 2 dl2] LC5 DL} def
/LT6 {PL [1.5 dl1 1.5 dl2 1.5 dl1 1.5 dl2 1.5 dl1 6 dl2] LC6 DL} def
/LT7 {PL [3 dl1 3 dl2 1 dl1 3 dl2] LC7 DL} def
/LT8 {PL [2 dl1 2 dl2 2 dl1 6 dl2] LC8 DL} def
/SL {[] 0 setdash} def
/Pnt {stroke [] 0 setdash gsave 1 setlinecap M 0 0 V stroke grestore} def
/Dia {stroke [] 0 setdash 2 copy vpt add M
  hpt neg vpt neg V hpt vpt neg V
  hpt vpt V hpt neg vpt V closepath stroke
  Pnt} def
/Pls {stroke [] 0 setdash vpt sub M 0 vpt2 V
  currentpoint stroke M
  hpt neg vpt neg R hpt2 0 V stroke
 } def
/Box {stroke [] 0 setdash 2 copy exch hpt sub exch vpt add M
  0 vpt2 neg V hpt2 0 V 0 vpt2 V
  hpt2 neg 0 V closepath stroke
  Pnt} def
/Crs {stroke [] 0 setdash exch hpt sub exch vpt add M
  hpt2 vpt2 neg V currentpoint stroke M
  hpt2 neg 0 R hpt2 vpt2 V stroke} def
/TriU {stroke [] 0 setdash 2 copy vpt 1.12 mul add M
  hpt neg vpt -1.62 mul V
  hpt 2 mul 0 V
  hpt neg vpt 1.62 mul V closepath stroke
  Pnt} def
/Star {2 copy Pls Crs} def
/BoxF {stroke [] 0 setdash exch hpt sub exch vpt add M
  0 vpt2 neg V hpt2 0 V 0 vpt2 V
  hpt2 neg 0 V closepath fill} def
/TriUF {stroke [] 0 setdash vpt 1.12 mul add M
  hpt neg vpt -1.62 mul V
  hpt 2 mul 0 V
  hpt neg vpt 1.62 mul V closepath fill} def
/TriD {stroke [] 0 setdash 2 copy vpt 1.12 mul sub M
  hpt neg vpt 1.62 mul V
  hpt 2 mul 0 V
  hpt neg vpt -1.62 mul V closepath stroke
  Pnt} def
/TriDF {stroke [] 0 setdash vpt 1.12 mul sub M
  hpt neg vpt 1.62 mul V
  hpt 2 mul 0 V
  hpt neg vpt -1.62 mul V closepath fill} def
/DiaF {stroke [] 0 setdash vpt add M
  hpt neg vpt neg V hpt vpt neg V
  hpt vpt V hpt neg vpt V closepath fill} def
/Pent {stroke [] 0 setdash 2 copy gsave
  translate 0 hpt M 4 {72 rotate 0 hpt L} repeat
  closepath stroke grestore Pnt} def
/PentF {stroke [] 0 setdash gsave
  translate 0 hpt M 4 {72 rotate 0 hpt L} repeat
  closepath fill grestore} def
/Circle {stroke [] 0 setdash 2 copy
  hpt 0 360 arc stroke Pnt} def
/CircleF {stroke [] 0 setdash hpt 0 360 arc fill} def
/C0 {BL [] 0 setdash 2 copy moveto vpt 90 450 arc} bind def
/C1 {BL [] 0 setdash 2 copy moveto
	2 copy vpt 0 90 arc closepath fill
	vpt 0 360 arc closepath} bind def
/C2 {BL [] 0 setdash 2 copy moveto
	2 copy vpt 90 180 arc closepath fill
	vpt 0 360 arc closepath} bind def
/C3 {BL [] 0 setdash 2 copy moveto
	2 copy vpt 0 180 arc closepath fill
	vpt 0 360 arc closepath} bind def
/C4 {BL [] 0 setdash 2 copy moveto
	2 copy vpt 180 270 arc closepath fill
	vpt 0 360 arc closepath} bind def
/C5 {BL [] 0 setdash 2 copy moveto
	2 copy vpt 0 90 arc
	2 copy moveto
	2 copy vpt 180 270 arc closepath fill
	vpt 0 360 arc} bind def
/C6 {BL [] 0 setdash 2 copy moveto
	2 copy vpt 90 270 arc closepath fill
	vpt 0 360 arc closepath} bind def
/C7 {BL [] 0 setdash 2 copy moveto
	2 copy vpt 0 270 arc closepath fill
	vpt 0 360 arc closepath} bind def
/C8 {BL [] 0 setdash 2 copy moveto
	2 copy vpt 270 360 arc closepath fill
	vpt 0 360 arc closepath} bind def
/C9 {BL [] 0 setdash 2 copy moveto
	2 copy vpt 270 450 arc closepath fill
	vpt 0 360 arc closepath} bind def
/C10 {BL [] 0 setdash 2 copy 2 copy moveto vpt 270 360 arc closepath fill
	2 copy moveto
	2 copy vpt 90 180 arc closepath fill
	vpt 0 360 arc closepath} bind def
/C11 {BL [] 0 setdash 2 copy moveto
	2 copy vpt 0 180 arc closepath fill
	2 copy moveto
	2 copy vpt 270 360 arc closepath fill
	vpt 0 360 arc closepath} bind def
/C12 {BL [] 0 setdash 2 copy moveto
	2 copy vpt 180 360 arc closepath fill
	vpt 0 360 arc closepath} bind def
/C13 {BL [] 0 setdash 2 copy moveto
	2 copy vpt 0 90 arc closepath fill
	2 copy moveto
	2 copy vpt 180 360 arc closepath fill
	vpt 0 360 arc closepath} bind def
/C14 {BL [] 0 setdash 2 copy moveto
	2 copy vpt 90 360 arc closepath fill
	vpt 0 360 arc} bind def
/C15 {BL [] 0 setdash 2 copy vpt 0 360 arc closepath fill
	vpt 0 360 arc closepath} bind def
/Rec {newpath 4 2 roll moveto 1 index 0 rlineto 0 exch rlineto
	neg 0 rlineto closepath} bind def
/Square {dup Rec} bind def
/Bsquare {vpt sub exch vpt sub exch vpt2 Square} bind def
/S0 {BL [] 0 setdash 2 copy moveto 0 vpt rlineto BL Bsquare} bind def
/S1 {BL [] 0 setdash 2 copy vpt Square fill Bsquare} bind def
/S2 {BL [] 0 setdash 2 copy exch vpt sub exch vpt Square fill Bsquare} bind def
/S3 {BL [] 0 setdash 2 copy exch vpt sub exch vpt2 vpt Rec fill Bsquare} bind def
/S4 {BL [] 0 setdash 2 copy exch vpt sub exch vpt sub vpt Square fill Bsquare} bind def
/S5 {BL [] 0 setdash 2 copy 2 copy vpt Square fill
	exch vpt sub exch vpt sub vpt Square fill Bsquare} bind def
/S6 {BL [] 0 setdash 2 copy exch vpt sub exch vpt sub vpt vpt2 Rec fill Bsquare} bind def
/S7 {BL [] 0 setdash 2 copy exch vpt sub exch vpt sub vpt vpt2 Rec fill
	2 copy vpt Square fill Bsquare} bind def
/S8 {BL [] 0 setdash 2 copy vpt sub vpt Square fill Bsquare} bind def
/S9 {BL [] 0 setdash 2 copy vpt sub vpt vpt2 Rec fill Bsquare} bind def
/S10 {BL [] 0 setdash 2 copy vpt sub vpt Square fill 2 copy exch vpt sub exch vpt Square fill
	Bsquare} bind def
/S11 {BL [] 0 setdash 2 copy vpt sub vpt Square fill 2 copy exch vpt sub exch vpt2 vpt Rec fill
	Bsquare} bind def
/S12 {BL [] 0 setdash 2 copy exch vpt sub exch vpt sub vpt2 vpt Rec fill Bsquare} bind def
/S13 {BL [] 0 setdash 2 copy exch vpt sub exch vpt sub vpt2 vpt Rec fill
	2 copy vpt Square fill Bsquare} bind def
/S14 {BL [] 0 setdash 2 copy exch vpt sub exch vpt sub vpt2 vpt Rec fill
	2 copy exch vpt sub exch vpt Square fill Bsquare} bind def
/S15 {BL [] 0 setdash 2 copy Bsquare fill Bsquare} bind def
/D0 {gsave translate 45 rotate 0 0 S0 stroke grestore} bind def
/D1 {gsave translate 45 rotate 0 0 S1 stroke grestore} bind def
/D2 {gsave translate 45 rotate 0 0 S2 stroke grestore} bind def
/D3 {gsave translate 45 rotate 0 0 S3 stroke grestore} bind def
/D4 {gsave translate 45 rotate 0 0 S4 stroke grestore} bind def
/D5 {gsave translate 45 rotate 0 0 S5 stroke grestore} bind def
/D6 {gsave translate 45 rotate 0 0 S6 stroke grestore} bind def
/D7 {gsave translate 45 rotate 0 0 S7 stroke grestore} bind def
/D8 {gsave translate 45 rotate 0 0 S8 stroke grestore} bind def
/D9 {gsave translate 45 rotate 0 0 S9 stroke grestore} bind def
/D10 {gsave translate 45 rotate 0 0 S10 stroke grestore} bind def
/D11 {gsave translate 45 rotate 0 0 S11 stroke grestore} bind def
/D12 {gsave translate 45 rotate 0 0 S12 stroke grestore} bind def
/D13 {gsave translate 45 rotate 0 0 S13 stroke grestore} bind def
/D14 {gsave translate 45 rotate 0 0 S14 stroke grestore} bind def
/D15 {gsave translate 45 rotate 0 0 S15 stroke grestore} bind def
/DiaE {stroke [] 0 setdash vpt add M
  hpt neg vpt neg V hpt vpt neg V
  hpt vpt V hpt neg vpt V closepath stroke} def
/BoxE {stroke [] 0 setdash exch hpt sub exch vpt add M
  0 vpt2 neg V hpt2 0 V 0 vpt2 V
  hpt2 neg 0 V closepath stroke} def
/TriUE {stroke [] 0 setdash vpt 1.12 mul add M
  hpt neg vpt -1.62 mul V
  hpt 2 mul 0 V
  hpt neg vpt 1.62 mul V closepath stroke} def
/TriDE {stroke [] 0 setdash vpt 1.12 mul sub M
  hpt neg vpt 1.62 mul V
  hpt 2 mul 0 V
  hpt neg vpt -1.62 mul V closepath stroke} def
/PentE {stroke [] 0 setdash gsave
  translate 0 hpt M 4 {72 rotate 0 hpt L} repeat
  closepath stroke grestore} def
/CircE {stroke [] 0 setdash 
  hpt 0 360 arc stroke} def
/Opaque {gsave closepath 1 setgray fill grestore 0 setgray closepath} def
/DiaW {stroke [] 0 setdash vpt add M
  hpt neg vpt neg V hpt vpt neg V
  hpt vpt V hpt neg vpt V Opaque stroke} def
/BoxW {stroke [] 0 setdash exch hpt sub exch vpt add M
  0 vpt2 neg V hpt2 0 V 0 vpt2 V
  hpt2 neg 0 V Opaque stroke} def
/TriUW {stroke [] 0 setdash vpt 1.12 mul add M
  hpt neg vpt -1.62 mul V
  hpt 2 mul 0 V
  hpt neg vpt 1.62 mul V Opaque stroke} def
/TriDW {stroke [] 0 setdash vpt 1.12 mul sub M
  hpt neg vpt 1.62 mul V
  hpt 2 mul 0 V
  hpt neg vpt -1.62 mul V Opaque stroke} def
/PentW {stroke [] 0 setdash gsave
  translate 0 hpt M 4 {72 rotate 0 hpt L} repeat
  Opaque stroke grestore} def
/CircW {stroke [] 0 setdash 
  hpt 0 360 arc Opaque stroke} def
/BoxFill {gsave Rec 1 setgray fill grestore} def
/Density {
  /Fillden exch def
  currentrgbcolor
  /ColB exch def /ColG exch def /ColR exch def
  /ColR ColR Fillden mul Fillden sub 1 add def
  /ColG ColG Fillden mul Fillden sub 1 add def
  /ColB ColB Fillden mul Fillden sub 1 add def
  ColR ColG ColB setrgbcolor} def
/BoxColFill {gsave Rec PolyFill} def
/PolyFill {gsave Density fill grestore grestore} def
/h {rlineto rlineto rlineto gsave closepath fill grestore} bind def
%
% PostScript Level 1 Pattern Fill routine for rectangles
% Usage: x y w h s a XX PatternFill
%	x,y = lower left corner of box to be filled
%	w,h = width and height of box
%	  a = angle in degrees between lines and x-axis
%	 XX = 0/1 for no/yes cross-hatch
%
/PatternFill {gsave /PFa [ 9 2 roll ] def
  PFa 0 get PFa 2 get 2 div add PFa 1 get PFa 3 get 2 div add translate
  PFa 2 get -2 div PFa 3 get -2 div PFa 2 get PFa 3 get Rec
  TransparentPatterns {} {gsave 1 setgray fill grestore} ifelse
  clip
  currentlinewidth 0.5 mul setlinewidth
  /PFs PFa 2 get dup mul PFa 3 get dup mul add sqrt def
  0 0 M PFa 5 get rotate PFs -2 div dup translate
  0 1 PFs PFa 4 get div 1 add floor cvi
	{PFa 4 get mul 0 M 0 PFs V} for
  0 PFa 6 get ne {
	0 1 PFs PFa 4 get div 1 add floor cvi
	{PFa 4 get mul 0 2 1 roll M PFs 0 V} for
 } if
  stroke grestore} def
%
/languagelevel where
 {pop languagelevel} {1} ifelse
dup 2 lt
	{/InterpretLevel1 true def
	 /InterpretLevel3 false def}
	{/InterpretLevel1 Level1 def
	 2 gt
	    {/InterpretLevel3 Level3 def}
	    {/InterpretLevel3 false def}
	 ifelse }
 ifelse
%
% PostScript level 2 pattern fill definitions
%
/Level2PatternFill {
/Tile8x8 {/PaintType 2 /PatternType 1 /TilingType 1 /BBox [0 0 8 8] /XStep 8 /YStep 8}
	bind def
/KeepColor {currentrgbcolor [/Pattern /DeviceRGB] setcolorspace} bind def
<< Tile8x8
 /PaintProc {0.5 setlinewidth pop 0 0 M 8 8 L 0 8 M 8 0 L stroke} 
>> matrix makepattern
/Pat1 exch def
<< Tile8x8
 /PaintProc {0.5 setlinewidth pop 0 0 M 8 8 L 0 8 M 8 0 L stroke
	0 4 M 4 8 L 8 4 L 4 0 L 0 4 L stroke}
>> matrix makepattern
/Pat2 exch def
<< Tile8x8
 /PaintProc {0.5 setlinewidth pop 0 0 M 0 8 L
	8 8 L 8 0 L 0 0 L fill}
>> matrix makepattern
/Pat3 exch def
<< Tile8x8
 /PaintProc {0.5 setlinewidth pop -4 8 M 8 -4 L
	0 12 M 12 0 L stroke}
>> matrix makepattern
/Pat4 exch def
<< Tile8x8
 /PaintProc {0.5 setlinewidth pop -4 0 M 8 12 L
	0 -4 M 12 8 L stroke}
>> matrix makepattern
/Pat5 exch def
<< Tile8x8
 /PaintProc {0.5 setlinewidth pop -2 8 M 4 -4 L
	0 12 M 8 -4 L 4 12 M 10 0 L stroke}
>> matrix makepattern
/Pat6 exch def
<< Tile8x8
 /PaintProc {0.5 setlinewidth pop -2 0 M 4 12 L
	0 -4 M 8 12 L 4 -4 M 10 8 L stroke}
>> matrix makepattern
/Pat7 exch def
<< Tile8x8
 /PaintProc {0.5 setlinewidth pop 8 -2 M -4 4 L
	12 0 M -4 8 L 12 4 M 0 10 L stroke}
>> matrix makepattern
/Pat8 exch def
<< Tile8x8
 /PaintProc {0.5 setlinewidth pop 0 -2 M 12 4 L
	-4 0 M 12 8 L -4 4 M 8 10 L stroke}
>> matrix makepattern
/Pat9 exch def
/Pattern1 {PatternBgnd KeepColor Pat1 setpattern} bind def
/Pattern2 {PatternBgnd KeepColor Pat2 setpattern} bind def
/Pattern3 {PatternBgnd KeepColor Pat3 setpattern} bind def
/Pattern4 {PatternBgnd KeepColor Landscape {Pat5} {Pat4} ifelse setpattern} bind def
/Pattern5 {PatternBgnd KeepColor Landscape {Pat4} {Pat5} ifelse setpattern} bind def
/Pattern6 {PatternBgnd KeepColor Landscape {Pat9} {Pat6} ifelse setpattern} bind def
/Pattern7 {PatternBgnd KeepColor Landscape {Pat8} {Pat7} ifelse setpattern} bind def
} def
%
%
%End of PostScript Level 2 code
%
/PatternBgnd {
  TransparentPatterns {} {gsave 1 setgray fill grestore} ifelse
} def
%
% Substitute for Level 2 pattern fill codes with
% grayscale if Level 2 support is not selected.
%
/Level1PatternFill {
/Pattern1 {0.250 Density} bind def
/Pattern2 {0.500 Density} bind def
/Pattern3 {0.750 Density} bind def
/Pattern4 {0.125 Density} bind def
/Pattern5 {0.375 Density} bind def
/Pattern6 {0.625 Density} bind def
/Pattern7 {0.875 Density} bind def
} def
%
% Now test for support of Level 2 code
%
Level1 {Level1PatternFill} {Level2PatternFill} ifelse
%
/Symbol-Oblique /Symbol findfont [1 0 .167 1 0 0] makefont
dup length dict begin {1 index /FID eq {pop pop} {def} ifelse} forall
currentdict end definefont pop
%
/MFshow {
   { dup 5 get 3 ge
     { 5 get 3 eq {gsave} {grestore} ifelse }
     {dup dup 0 get findfont exch 1 get scalefont setfont
     [ currentpoint ] exch dup 2 get 0 exch R dup 5 get 2 ne {dup dup 6
     get exch 4 get {textshow} {stringwidth pop 0 R} ifelse }if dup 5 get 0 eq
     {dup 3 get {2 get neg 0 exch R pop} {pop aload pop M} ifelse} {dup 5
     get 1 eq {dup 2 get exch dup 3 get exch 6 get stringwidth pop -2 div
     dup 0 R} {dup 6 get stringwidth pop -2 div 0 R 6 get
     textshow 2 index {aload pop M neg 3 -1 roll neg R pop pop} {pop pop pop
     pop aload pop M} ifelse }ifelse }ifelse }
     ifelse }
   forall} def
/Gswidth {dup type /stringtype eq {stringwidth} {pop (n) stringwidth} ifelse} def
/MFwidth {0 exch { dup 5 get 3 ge { 5 get 3 eq { 0 } { pop } ifelse }
 {dup 3 get{dup dup 0 get findfont exch 1 get scalefont setfont
     6 get Gswidth pop add} {pop} ifelse} ifelse} forall} def
/MLshow { currentpoint stroke M
  0 exch R
  Blacktext {gsave 0 setgray MFshow grestore} {MFshow} ifelse } bind def
/MRshow { currentpoint stroke M
  exch dup MFwidth neg 3 -1 roll R
  Blacktext {gsave 0 setgray MFshow grestore} {MFshow} ifelse } bind def
/MCshow { currentpoint stroke M
  exch dup MFwidth -2 div 3 -1 roll R
  Blacktext {gsave 0 setgray MFshow grestore} {MFshow} ifelse } bind def
/XYsave    { [( ) 1 2 true false 3 ()] } bind def
/XYrestore { [( ) 1 2 true false 4 ()] } bind def
Level1 SuppressPDFMark or 
{} {
/SDict 10 dict def
systemdict /pdfmark known not {
  userdict /pdfmark systemdict /cleartomark get put
} if
SDict begin [
  /Title (pkts-dist.eps)
  /Subject (gnuplot plot)
  /Creator (gnuplot 5.0 patchlevel 4)
  /Author (tiphaine)
%  /Producer (gnuplot)
%  /Keywords ()
  /CreationDate (Fri Sep 23 10:26:36 2016)
  /DOCINFO pdfmark
end
} ifelse
%
% Support for boxed text - Ethan A Merritt May 2005
%
/InitTextBox { userdict /TBy2 3 -1 roll put userdict /TBx2 3 -1 roll put
           userdict /TBy1 3 -1 roll put userdict /TBx1 3 -1 roll put
	   /Boxing true def } def
/ExtendTextBox { Boxing
    { gsave dup false charpath pathbbox
      dup TBy2 gt {userdict /TBy2 3 -1 roll put} {pop} ifelse
      dup TBx2 gt {userdict /TBx2 3 -1 roll put} {pop} ifelse
      dup TBy1 lt {userdict /TBy1 3 -1 roll put} {pop} ifelse
      dup TBx1 lt {userdict /TBx1 3 -1 roll put} {pop} ifelse
      grestore } if } def
/PopTextBox { newpath TBx1 TBxmargin sub TBy1 TBymargin sub M
               TBx1 TBxmargin sub TBy2 TBymargin add L
	       TBx2 TBxmargin add TBy2 TBymargin add L
	       TBx2 TBxmargin add TBy1 TBymargin sub L closepath } def
/DrawTextBox { PopTextBox stroke /Boxing false def} def
/FillTextBox { gsave PopTextBox 1 1 1 setrgbcolor fill grestore /Boxing false def} def
0 0 0 0 InitTextBox
/TBxmargin 20 def
/TBymargin 20 def
/Boxing false def
/textshow { ExtendTextBox Gshow } def
%
% redundant definitions for compatibility with prologue.ps older than 5.0.2
/LTB {BL [] LCb DL} def
/LTb {PL [] LCb DL} def
end
%%EndProlog
%%Page: 1 1
gnudict begin
gsave
doclip
50 50 translate
0.100 0.100 scale
90 rotate
0 -5040 translate
0 setgray
newpath
(Helvetica) findfont 140 scalefont setfont
BackgroundColor 0 lt 3 1 roll 0 lt exch 0 lt or or not {gsave BackgroundColor C clippath fill grestore} if
1.000 UL
LTb
LCb setrgbcolor
938 448 M
63 0 V
5946 0 R
-63 0 V
stroke
854 448 M
[ [(Helvetica) 220.0 0.0 true true 0 ( 0.0001)]
] -73.3 MRshow
1.000 UL
LTb
LCb setrgbcolor
938 781 M
31 0 V
5978 0 R
-31 0 V
938 976 M
31 0 V
5978 0 R
-31 0 V
938 1114 M
31 0 V
5978 0 R
-31 0 V
938 1221 M
31 0 V
5978 0 R
-31 0 V
938 1308 M
31 0 V
5978 0 R
-31 0 V
938 1382 M
31 0 V
5978 0 R
-31 0 V
938 1447 M
31 0 V
5978 0 R
-31 0 V
938 1503 M
31 0 V
5978 0 R
-31 0 V
938 1554 M
63 0 V
5946 0 R
-63 0 V
stroke
854 1554 M
[ [(Helvetica) 220.0 0.0 true true 0 ( 0.001)]
] -73.3 MRshow
1.000 UL
LTb
LCb setrgbcolor
938 1887 M
31 0 V
5978 0 R
-31 0 V
938 2081 M
31 0 V
5978 0 R
-31 0 V
938 2219 M
31 0 V
5978 0 R
-31 0 V
938 2327 M
31 0 V
5978 0 R
-31 0 V
938 2414 M
31 0 V
5978 0 R
-31 0 V
938 2488 M
31 0 V
5978 0 R
-31 0 V
938 2552 M
31 0 V
5978 0 R
-31 0 V
938 2609 M
31 0 V
5978 0 R
-31 0 V
938 2660 M
63 0 V
5946 0 R
-63 0 V
stroke
854 2660 M
[ [(Helvetica) 220.0 0.0 true true 0 ( 0.01)]
] -73.3 MRshow
1.000 UL
LTb
LCb setrgbcolor
938 2992 M
31 0 V
5978 0 R
-31 0 V
938 3187 M
31 0 V
5978 0 R
-31 0 V
938 3325 M
31 0 V
5978 0 R
-31 0 V
938 3432 M
31 0 V
5978 0 R
-31 0 V
938 3520 M
31 0 V
5978 0 R
-31 0 V
938 3594 M
31 0 V
5978 0 R
-31 0 V
938 3658 M
31 0 V
5978 0 R
-31 0 V
938 3715 M
31 0 V
5978 0 R
-31 0 V
938 3765 M
63 0 V
5946 0 R
-63 0 V
stroke
854 3765 M
[ [(Helvetica) 220.0 0.0 true true 0 ( 0.1)]
] -73.3 MRshow
1.000 UL
LTb
LCb setrgbcolor
938 4098 M
31 0 V
5978 0 R
-31 0 V
938 4293 M
31 0 V
5978 0 R
-31 0 V
938 4431 M
31 0 V
5978 0 R
-31 0 V
938 4538 M
31 0 V
5978 0 R
-31 0 V
938 4626 M
31 0 V
5978 0 R
-31 0 V
938 4700 M
31 0 V
5978 0 R
-31 0 V
938 4764 M
31 0 V
5978 0 R
-31 0 V
938 4820 M
31 0 V
5978 0 R
-31 0 V
938 4871 M
63 0 V
5946 0 R
-63 0 V
stroke
854 4871 M
[ [(Helvetica) 220.0 0.0 true true 0 ( 1)]
] -73.3 MRshow
1.000 UL
LTb
LCb setrgbcolor
938 448 M
0 63 V
0 4360 R
0 -63 V
stroke
938 308 M
[ [(Helvetica) 220.0 0.0 true true 0 ( 0)]
] -73.3 MCshow
1.000 UL
LTb
LCb setrgbcolor
1796 448 M
0 63 V
0 4360 R
0 -63 V
stroke
1796 308 M
[ [(Helvetica) 220.0 0.0 true true 0 ( 20000)]
] -73.3 MCshow
1.000 UL
LTb
LCb setrgbcolor
2655 448 M
0 63 V
0 4360 R
0 -63 V
stroke
2655 308 M
[ [(Helvetica) 220.0 0.0 true true 0 ( 40000)]
] -73.3 MCshow
1.000 UL
LTb
LCb setrgbcolor
3513 448 M
0 63 V
0 4360 R
0 -63 V
stroke
3513 308 M
[ [(Helvetica) 220.0 0.0 true true 0 ( 60000)]
] -73.3 MCshow
1.000 UL
LTb
LCb setrgbcolor
4372 448 M
0 63 V
0 4360 R
0 -63 V
stroke
4372 308 M
[ [(Helvetica) 220.0 0.0 true true 0 ( 80000)]
] -73.3 MCshow
1.000 UL
LTb
LCb setrgbcolor
5230 448 M
0 63 V
0 4360 R
0 -63 V
stroke
5230 308 M
[ [(Helvetica) 220.0 0.0 true true 0 ( 100000)]
] -73.3 MCshow
1.000 UL
LTb
LCb setrgbcolor
6089 448 M
0 63 V
0 4360 R
0 -63 V
stroke
6089 308 M
[ [(Helvetica) 220.0 0.0 true true 0 ( 120000)]
] -73.3 MCshow
1.000 UL
LTb
LCb setrgbcolor
6947 448 M
0 63 V
0 4360 R
0 -63 V
stroke
6947 308 M
[ [(Helvetica) 220.0 0.0 true true 0 ( 140000)]
] -73.3 MCshow
1.000 UL
LTb
LCb setrgbcolor
1.000 UL
LTB
LCb setrgbcolor
938 4871 N
938 448 L
6009 0 V
0 4423 V
-6009 0 V
Z stroke
1.000 UP
1.000 UL
LTb
LCb setrgbcolor
5230 448 M
0 4423 V
stroke
LTb
LCb setrgbcolor
LCb setrgbcolor
112 2659 M
currentpoint gsave translate -270 rotate 0 0 moveto
[ [(Helvetica) 240.0 0.0 true true 0 (Number of packets per second)]
] -80.0 MCshow
grestore
LTb
LCb setrgbcolor
3942 98 M
[ [(Helvetica) 240.0 0.0 true true 0 (CCDF)]
] -80.0 MCshow
LTb
% Begin plot #1
1.000 UP
1.000 UL
LTb
0.90 0.12 0.06 C 1557 4871 Pls
2254 4871 Pls
2290 4871 Pls
2314 4871 Pls
2381 4870 Pls
2405 4870 Pls
2407 4870 Pls
2419 4870 Pls
2424 4870 Pls
2428 4870 Pls
2434 4870 Pls
2446 4870 Pls
2448 4869 Pls
2450 4869 Pls
2452 4869 Pls
2454 4869 Pls
2457 4869 Pls
2458 4869 Pls
2460 4869 Pls
2462 4868 Pls
2464 4868 Pls
2466 4868 Pls
2467 4868 Pls
2467 4868 Pls
2468 4868 Pls
2473 4868 Pls
2473 4868 Pls
2479 4867 Pls
2479 4867 Pls
2486 4867 Pls
2488 4867 Pls
2488 4867 Pls
2490 4867 Pls
2491 4867 Pls
2491 4866 Pls
2492 4866 Pls
2493 4866 Pls
2494 4866 Pls
2495 4866 Pls
2496 4866 Pls
2501 4866 Pls
2502 4865 Pls
2503 4865 Pls
2504 4865 Pls
2504 4865 Pls
2504 4865 Pls
2505 4865 Pls
2506 4865 Pls
2507 4864 Pls
2507 4864 Pls
2507 4864 Pls
2511 4864 Pls
2511 4864 Pls
2511 4864 Pls
2511 4864 Pls
2514 4863 Pls
2515 4863 Pls
2516 4863 Pls
2517 4863 Pls
2518 4863 Pls
2518 4863 Pls
2519 4863 Pls
2520 4862 Pls
2521 4862 Pls
2522 4862 Pls
2522 4862 Pls
2524 4862 Pls
2525 4862 Pls
2526 4861 Pls
2526 4861 Pls
2527 4861 Pls
2528 4861 Pls
2529 4861 Pls
2529 4861 Pls
2530 4861 Pls
2531 4860 Pls
2532 4860 Pls
2532 4860 Pls
2533 4860 Pls
2533 4860 Pls
2534 4860 Pls
2535 4860 Pls
2535 4860 Pls
2536 4859 Pls
2537 4859 Pls
2537 4859 Pls
2538 4859 Pls
2540 4859 Pls
2540 4859 Pls
2541 4858 Pls
2541 4858 Pls
2543 4858 Pls
2545 4858 Pls
2547 4858 Pls
2547 4858 Pls
2548 4858 Pls
2550 4857 Pls
2551 4857 Pls
2552 4857 Pls
2553 4857 Pls
2553 4857 Pls
2554 4857 Pls
2556 4857 Pls
2558 4857 Pls
2558 4856 Pls
2558 4856 Pls
2559 4856 Pls
2560 4856 Pls
2561 4856 Pls
2563 4856 Pls
2563 4856 Pls
2564 4855 Pls
2565 4855 Pls
2565 4855 Pls
2567 4855 Pls
2567 4855 Pls
2570 4855 Pls
2570 4855 Pls
2572 4854 Pls
2572 4854 Pls
2574 4854 Pls
2575 4854 Pls
2575 4854 Pls
2575 4854 Pls
2576 4854 Pls
2576 4853 Pls
2579 4853 Pls
2580 4853 Pls
2580 4853 Pls
2581 4853 Pls
2582 4853 Pls
2582 4853 Pls
2582 4853 Pls
2583 4852 Pls
2583 4852 Pls
2583 4852 Pls
2584 4852 Pls
2584 4852 Pls
2584 4852 Pls
2585 4851 Pls
2586 4851 Pls
2586 4851 Pls
2587 4851 Pls
2589 4851 Pls
2589 4851 Pls
2589 4850 Pls
2590 4850 Pls
2590 4850 Pls
2591 4850 Pls
2591 4850 Pls
2592 4850 Pls
2592 4849 Pls
2592 4849 Pls
2593 4849 Pls
2593 4849 Pls
2594 4849 Pls
2594 4849 Pls
2594 4849 Pls
2595 4848 Pls
2595 4848 Pls
2595 4848 Pls
2596 4848 Pls
2597 4848 Pls
2597 4848 Pls
2598 4848 Pls
2599 4847 Pls
2599 4847 Pls
2600 4847 Pls
2603 4847 Pls
2603 4847 Pls
2604 4847 Pls
2605 4847 Pls
2605 4846 Pls
2605 4846 Pls
2606 4846 Pls
2607 4846 Pls
2607 4846 Pls
2608 4846 Pls
2609 4846 Pls
2610 4845 Pls
2610 4845 Pls
2612 4845 Pls
2613 4845 Pls
2614 4845 Pls
2615 4845 Pls
2616 4845 Pls
2616 4844 Pls
2616 4844 Pls
2617 4844 Pls
2617 4844 Pls
2617 4844 Pls
2618 4844 Pls
2618 4843 Pls
2618 4843 Pls
2619 4843 Pls
2619 4843 Pls
2620 4843 Pls
2620 4843 Pls
2621 4843 Pls
2621 4842 Pls
2621 4842 Pls
2622 4842 Pls
2623 4842 Pls
2623 4842 Pls
2623 4842 Pls
2624 4841 Pls
2624 4841 Pls
2624 4841 Pls
2626 4841 Pls
2626 4841 Pls
2626 4841 Pls
2626 4840 Pls
2627 4840 Pls
2627 4840 Pls
2627 4840 Pls
2627 4840 Pls
2628 4840 Pls
2628 4840 Pls
2628 4839 Pls
2629 4839 Pls
2629 4839 Pls
2629 4839 Pls
2629 4839 Pls
2630 4839 Pls
2631 4838 Pls
2631 4838 Pls
2632 4838 Pls
2632 4838 Pls
2633 4838 Pls
2633 4838 Pls
2633 4838 Pls
2634 4837 Pls
2634 4837 Pls
2634 4837 Pls
2635 4837 Pls
2636 4837 Pls
2636 4837 Pls
2636 4836 Pls
2637 4836 Pls
2638 4836 Pls
2638 4836 Pls
2638 4836 Pls
2639 4836 Pls
2639 4835 Pls
2639 4835 Pls
2639 4835 Pls
2641 4835 Pls
2642 4835 Pls
2642 4835 Pls
2642 4834 Pls
2642 4834 Pls
2643 4834 Pls
2643 4834 Pls
2643 4834 Pls
2644 4834 Pls
2644 4833 Pls
2644 4833 Pls
2645 4833 Pls
2645 4833 Pls
2646 4833 Pls
2646 4833 Pls
2647 4832 Pls
2647 4832 Pls
2647 4832 Pls
2647 4832 Pls
2648 4832 Pls
2649 4832 Pls
2649 4831 Pls
2649 4831 Pls
2650 4831 Pls
2650 4831 Pls
2650 4831 Pls
2650 4831 Pls
2650 4831 Pls
2652 4830 Pls
2652 4830 Pls
2652 4830 Pls
2652 4830 Pls
2652 4830 Pls
2654 4829 Pls
2654 4829 Pls
2654 4829 Pls
2655 4829 Pls
2655 4829 Pls
2656 4828 Pls
2656 4828 Pls
2657 4828 Pls
2657 4828 Pls
2657 4828 Pls
2658 4828 Pls
2658 4827 Pls
2658 4827 Pls
2658 4827 Pls
2659 4827 Pls
2659 4827 Pls
2659 4827 Pls
2659 4826 Pls
2659 4826 Pls
2659 4826 Pls
2660 4826 Pls
2661 4826 Pls
2661 4826 Pls
2661 4825 Pls
2661 4825 Pls
2661 4825 Pls
2662 4825 Pls
2662 4825 Pls
2662 4825 Pls
2663 4825 Pls
2663 4824 Pls
2664 4824 Pls
2664 4824 Pls
2665 4824 Pls
2665 4824 Pls
2666 4824 Pls
2666 4823 Pls
2668 4823 Pls
2668 4823 Pls
2668 4823 Pls
2668 4823 Pls
2668 4823 Pls
2669 4822 Pls
2669 4822 Pls
2670 4822 Pls
2671 4822 Pls
2672 4822 Pls
2672 4822 Pls
2672 4821 Pls
2672 4821 Pls
2672 4821 Pls
2672 4821 Pls
2672 4821 Pls
2673 4820 Pls
2673 4820 Pls
2674 4820 Pls
2675 4820 Pls
2675 4820 Pls
2676 4820 Pls
2676 4820 Pls
2676 4819 Pls
2676 4819 Pls
2677 4819 Pls
2677 4819 Pls
2677 4818 Pls
2677 4818 Pls
2677 4818 Pls
2678 4818 Pls
2678 4818 Pls
2679 4818 Pls
2679 4818 Pls
2680 4817 Pls
2680 4817 Pls
2681 4817 Pls
2681 4817 Pls
2682 4817 Pls
2682 4817 Pls
2682 4817 Pls
2682 4816 Pls
2683 4816 Pls
2684 4816 Pls
2684 4816 Pls
2684 4815 Pls
2684 4815 Pls
2685 4815 Pls
2685 4815 Pls
2685 4815 Pls
2685 4815 Pls
2686 4815 Pls
2686 4814 Pls
2686 4814 Pls
2687 4814 Pls
2687 4814 Pls
2687 4814 Pls
2688 4814 Pls
2688 4813 Pls
2688 4813 Pls
2688 4813 Pls
2688 4813 Pls
2688 4813 Pls
2688 4812 Pls
2689 4812 Pls
2689 4812 Pls
2689 4812 Pls
2690 4812 Pls
2690 4812 Pls
2690 4812 Pls
2691 4811 Pls
2692 4811 Pls
2694 4811 Pls
2695 4811 Pls
2695 4811 Pls
2695 4811 Pls
2696 4811 Pls
2697 4810 Pls
2697 4810 Pls
2697 4810 Pls
2697 4810 Pls
2698 4810 Pls
2698 4810 Pls
2699 4809 Pls
2699 4809 Pls
2699 4809 Pls
2699 4809 Pls
2700 4809 Pls
2700 4809 Pls
2700 4808 Pls
2700 4808 Pls
2700 4808 Pls
2700 4808 Pls
2701 4808 Pls
2701 4807 Pls
2701 4807 Pls
2701 4807 Pls
2702 4807 Pls
2702 4807 Pls
2702 4806 Pls
2703 4806 Pls
2703 4806 Pls
2703 4806 Pls
2703 4806 Pls
2704 4806 Pls
2704 4806 Pls
2705 4805 Pls
2705 4805 Pls
2705 4805 Pls
2706 4805 Pls
2706 4805 Pls
2706 4804 Pls
2706 4804 Pls
2707 4804 Pls
2708 4804 Pls
2708 4804 Pls
2709 4804 Pls
2710 4803 Pls
2710 4803 Pls
2710 4803 Pls
2710 4803 Pls
2710 4803 Pls
2711 4802 Pls
2711 4802 Pls
2712 4802 Pls
2712 4802 Pls
2712 4802 Pls
2712 4801 Pls
2712 4801 Pls
2713 4801 Pls
2713 4801 Pls
2714 4800 Pls
2714 4800 Pls
2715 4800 Pls
2715 4800 Pls
2715 4800 Pls
2716 4800 Pls
2716 4799 Pls
2716 4799 Pls
2717 4799 Pls
2718 4799 Pls
2718 4799 Pls
2719 4798 Pls
2719 4798 Pls
2720 4798 Pls
2720 4798 Pls
2721 4798 Pls
2721 4797 Pls
2721 4797 Pls
2721 4797 Pls
2721 4797 Pls
2722 4797 Pls
2723 4797 Pls
2723 4796 Pls
2723 4796 Pls
2724 4796 Pls
2724 4796 Pls
2725 4796 Pls
2725 4796 Pls
2725 4795 Pls
2725 4795 Pls
2725 4795 Pls
2725 4795 Pls
2726 4795 Pls
2726 4794 Pls
2726 4794 Pls
2726 4794 Pls
2727 4794 Pls
2727 4794 Pls
2727 4793 Pls
2727 4793 Pls
2728 4793 Pls
2728 4793 Pls
2728 4793 Pls
2729 4792 Pls
2729 4792 Pls
2729 4792 Pls
2730 4792 Pls
2730 4792 Pls
2730 4792 Pls
2730 4791 Pls
2731 4791 Pls
2731 4791 Pls
2731 4791 Pls
2731 4790 Pls
2731 4790 Pls
2732 4790 Pls
2732 4790 Pls
2732 4789 Pls
2732 4789 Pls
2732 4789 Pls
2733 4789 Pls
2733 4789 Pls
2733 4788 Pls
2733 4788 Pls
2734 4788 Pls
2734 4788 Pls
2734 4788 Pls
2735 4787 Pls
2735 4787 Pls
2736 4787 Pls
2736 4787 Pls
2736 4787 Pls
2737 4787 Pls
2737 4786 Pls
2738 4786 Pls
2738 4786 Pls
2738 4786 Pls
2739 4786 Pls
2739 4786 Pls
2739 4786 Pls
2740 4785 Pls
2740 4785 Pls
2740 4785 Pls
2740 4785 Pls
2741 4784 Pls
2741 4784 Pls
2741 4784 Pls
2742 4784 Pls
2742 4784 Pls
2742 4783 Pls
2742 4783 Pls
2743 4783 Pls
2743 4783 Pls
2743 4783 Pls
2743 4782 Pls
2743 4782 Pls
2743 4782 Pls
2744 4782 Pls
2744 4782 Pls
2744 4782 Pls
2744 4781 Pls
2744 4781 Pls
2746 4781 Pls
2747 4781 Pls
2747 4781 Pls
2747 4780 Pls
2747 4780 Pls
2748 4780 Pls
2748 4780 Pls
2748 4780 Pls
2748 4779 Pls
2748 4779 Pls
2748 4779 Pls
2749 4779 Pls
2749 4779 Pls
2749 4779 Pls
2749 4778 Pls
2750 4778 Pls
2750 4778 Pls
2750 4778 Pls
2751 4778 Pls
2751 4778 Pls
2751 4777 Pls
2751 4777 Pls
2752 4777 Pls
2752 4777 Pls
2752 4777 Pls
2752 4777 Pls
2752 4776 Pls
2753 4776 Pls
2753 4776 Pls
2753 4776 Pls
2754 4776 Pls
2754 4775 Pls
2754 4775 Pls
2754 4775 Pls
2754 4775 Pls
2756 4775 Pls
2756 4775 Pls
2756 4774 Pls
2757 4774 Pls
2757 4774 Pls
2758 4774 Pls
2758 4774 Pls
2758 4774 Pls
2758 4773 Pls
2759 4773 Pls
2759 4773 Pls
2759 4773 Pls
2759 4773 Pls
2760 4772 Pls
2760 4772 Pls
2761 4772 Pls
2761 4772 Pls
2761 4772 Pls
2761 4772 Pls
2762 4771 Pls
2762 4771 Pls
2763 4771 Pls
2763 4771 Pls
2763 4771 Pls
2763 4771 Pls
2764 4770 Pls
2764 4770 Pls
2764 4770 Pls
2764 4770 Pls
2765 4769 Pls
2765 4769 Pls
2766 4769 Pls
2767 4769 Pls
2767 4769 Pls
2767 4769 Pls
2768 4768 Pls
2768 4768 Pls
2768 4768 Pls
2768 4768 Pls
2769 4768 Pls
2769 4767 Pls
2769 4767 Pls
2769 4767 Pls
2770 4767 Pls
2770 4767 Pls
2771 4767 Pls
2772 4766 Pls
2772 4766 Pls
2772 4766 Pls
2772 4766 Pls
2773 4765 Pls
2773 4765 Pls
2773 4765 Pls
2773 4765 Pls
2773 4764 Pls
2773 4764 Pls
2773 4764 Pls
2774 4764 Pls
2774 4764 Pls
2774 4764 Pls
2774 4763 Pls
2774 4763 Pls
2775 4763 Pls
2775 4763 Pls
2775 4763 Pls
2776 4762 Pls
2776 4762 Pls
2776 4762 Pls
2776 4762 Pls
2777 4761 Pls
2777 4761 Pls
2777 4761 Pls
2778 4760 Pls
2778 4760 Pls
2778 4760 Pls
2778 4760 Pls
2778 4760 Pls
2779 4760 Pls
2779 4759 Pls
2779 4759 Pls
2779 4759 Pls
2780 4759 Pls
2780 4759 Pls
2780 4758 Pls
2781 4758 Pls
2781 4758 Pls
2781 4758 Pls
2781 4757 Pls
2781 4757 Pls
2781 4757 Pls
2782 4757 Pls
2782 4756 Pls
2782 4756 Pls
2783 4756 Pls
2783 4756 Pls
2783 4755 Pls
2783 4755 Pls
2783 4755 Pls
2784 4755 Pls
2784 4755 Pls
2785 4754 Pls
2785 4754 Pls
2786 4754 Pls
2786 4754 Pls
2786 4754 Pls
2786 4753 Pls
2786 4753 Pls
2787 4753 Pls
2788 4753 Pls
2788 4753 Pls
2788 4753 Pls
2788 4752 Pls
2789 4752 Pls
2789 4752 Pls
2790 4752 Pls
2790 4752 Pls
2790 4752 Pls
2790 4751 Pls
2791 4751 Pls
2791 4751 Pls
2791 4751 Pls
2791 4750 Pls
2792 4750 Pls
2792 4750 Pls
2793 4750 Pls
2793 4750 Pls
2793 4750 Pls
2793 4749 Pls
2793 4749 Pls
2793 4749 Pls
2794 4749 Pls
2794 4748 Pls
2794 4748 Pls
2794 4748 Pls
2794 4748 Pls
2795 4747 Pls
2795 4747 Pls
2796 4747 Pls
2796 4747 Pls
2796 4746 Pls
2797 4746 Pls
2797 4746 Pls
2797 4746 Pls
2797 4745 Pls
2797 4745 Pls
2797 4745 Pls
2798 4745 Pls
2798 4744 Pls
2798 4744 Pls
2798 4744 Pls
2799 4744 Pls
2799 4744 Pls
2799 4744 Pls
2799 4743 Pls
2799 4743 Pls
2800 4743 Pls
2800 4743 Pls
2800 4743 Pls
2801 4742 Pls
2801 4742 Pls
2801 4742 Pls
2801 4742 Pls
2801 4742 Pls
2801 4741 Pls
2802 4741 Pls
2802 4741 Pls
2802 4741 Pls
2802 4741 Pls
2802 4740 Pls
2802 4740 Pls
2803 4740 Pls
2803 4740 Pls
2803 4740 Pls
2804 4740 Pls
2805 4739 Pls
2805 4739 Pls
2805 4739 Pls
2805 4739 Pls
2805 4739 Pls
2806 4738 Pls
2806 4738 Pls
2806 4738 Pls
2806 4738 Pls
2806 4738 Pls
2807 4737 Pls
2807 4737 Pls
2807 4737 Pls
2807 4737 Pls
2807 4737 Pls
2808 4736 Pls
2808 4736 Pls
2808 4736 Pls
2808 4736 Pls
2809 4736 Pls
2809 4736 Pls
2809 4735 Pls
2809 4735 Pls
2810 4735 Pls
2810 4735 Pls
2810 4734 Pls
2810 4734 Pls
2810 4734 Pls
2811 4734 Pls
2811 4734 Pls
2812 4733 Pls
2812 4733 Pls
2812 4733 Pls
2812 4733 Pls
2812 4733 Pls
2812 4732 Pls
2813 4732 Pls
2813 4732 Pls
2813 4732 Pls
2813 4732 Pls
2813 4731 Pls
2813 4731 Pls
2814 4731 Pls
2814 4731 Pls
2814 4731 Pls
2815 4731 Pls
2815 4730 Pls
2815 4730 Pls
2815 4730 Pls
2815 4729 Pls
2815 4729 Pls
2815 4729 Pls
2816 4729 Pls
2817 4729 Pls
2817 4728 Pls
2817 4728 Pls
2817 4728 Pls
2817 4728 Pls
2818 4727 Pls
2818 4727 Pls
2818 4727 Pls
2818 4727 Pls
2818 4726 Pls
2819 4726 Pls
2819 4726 Pls
2819 4726 Pls
2819 4725 Pls
2820 4725 Pls
2820 4725 Pls
2820 4725 Pls
2820 4725 Pls
2820 4724 Pls
2821 4724 Pls
2821 4724 Pls
2822 4724 Pls
2822 4724 Pls
2822 4723 Pls
2822 4723 Pls
2822 4723 Pls
2822 4723 Pls
2823 4723 Pls
2823 4722 Pls
2823 4722 Pls
2823 4722 Pls
2823 4722 Pls
2823 4721 Pls
2824 4721 Pls
2824 4721 Pls
2824 4720 Pls
2824 4720 Pls
2824 4720 Pls
2824 4720 Pls
2825 4720 Pls
2825 4719 Pls
2825 4719 Pls
2825 4719 Pls
2825 4719 Pls
2825 4719 Pls
2826 4718 Pls
2826 4718 Pls
2826 4718 Pls
2826 4717 Pls
2827 4717 Pls
2827 4717 Pls
2827 4717 Pls
2827 4717 Pls
2828 4717 Pls
2828 4716 Pls
2828 4716 Pls
2829 4716 Pls
2829 4716 Pls
2829 4715 Pls
2829 4715 Pls
2829 4715 Pls
2829 4715 Pls
2829 4714 Pls
2830 4714 Pls
2830 4714 Pls
2830 4714 Pls
2830 4713 Pls
2831 4713 Pls
2831 4713 Pls
2831 4713 Pls
2831 4712 Pls
2831 4712 Pls
2832 4712 Pls
2832 4712 Pls
2832 4712 Pls
2832 4711 Pls
2833 4711 Pls
2833 4711 Pls
2833 4711 Pls
2833 4711 Pls
2834 4710 Pls
2834 4710 Pls
2834 4710 Pls
2834 4710 Pls
2834 4710 Pls
2834 4709 Pls
2835 4709 Pls
2835 4709 Pls
2835 4709 Pls
2836 4708 Pls
2836 4708 Pls
2837 4708 Pls
2838 4708 Pls
2838 4707 Pls
2838 4707 Pls
2838 4707 Pls
2838 4707 Pls
2839 4707 Pls
2839 4706 Pls
2839 4706 Pls
2840 4706 Pls
2840 4706 Pls
2840 4705 Pls
2841 4705 Pls
2841 4705 Pls
2841 4705 Pls
2842 4705 Pls
2842 4704 Pls
2842 4704 Pls
2842 4704 Pls
2842 4704 Pls
2842 4704 Pls
2843 4703 Pls
2843 4703 Pls
2843 4703 Pls
2843 4703 Pls
2843 4703 Pls
2844 4702 Pls
2844 4702 Pls
2844 4702 Pls
2844 4702 Pls
2845 4702 Pls
2845 4701 Pls
2845 4701 Pls
2845 4701 Pls
2845 4701 Pls
2846 4700 Pls
2846 4700 Pls
2846 4700 Pls
2846 4700 Pls
2846 4700 Pls
2846 4700 Pls
2847 4699 Pls
2847 4699 Pls
2848 4699 Pls
2848 4698 Pls
2849 4698 Pls
2849 4698 Pls
2849 4698 Pls
2849 4697 Pls
2850 4697 Pls
2850 4697 Pls
2850 4696 Pls
2851 4696 Pls
2851 4696 Pls
2851 4696 Pls
2851 4696 Pls
2852 4696 Pls
2852 4695 Pls
2852 4695 Pls
2852 4695 Pls
2852 4694 Pls
2852 4694 Pls
2852 4694 Pls
2852 4694 Pls
2853 4694 Pls
2853 4693 Pls
2854 4693 Pls
2854 4693 Pls
2855 4692 Pls
2855 4692 Pls
2855 4691 Pls
2855 4691 Pls
2855 4691 Pls
2856 4690 Pls
2856 4690 Pls
2856 4690 Pls
2856 4690 Pls
2856 4690 Pls
2856 4689 Pls
2856 4689 Pls
2857 4689 Pls
2857 4689 Pls
2857 4688 Pls
2858 4688 Pls
2858 4688 Pls
2858 4687 Pls
2859 4687 Pls
2859 4687 Pls
2859 4687 Pls
2859 4686 Pls
2859 4686 Pls
2860 4686 Pls
2860 4686 Pls
2860 4686 Pls
2860 4685 Pls
2860 4685 Pls
2860 4685 Pls
2861 4685 Pls
2861 4685 Pls
2861 4684 Pls
2861 4684 Pls
2861 4684 Pls
2861 4684 Pls
2861 4683 Pls
2861 4683 Pls
2862 4683 Pls
2862 4683 Pls
2862 4682 Pls
2862 4682 Pls
2862 4682 Pls
2862 4682 Pls
2863 4682 Pls
2863 4681 Pls
2863 4681 Pls
2863 4680 Pls
2863 4680 Pls
2863 4680 Pls
2863 4680 Pls
2863 4679 Pls
2863 4679 Pls
2864 4679 Pls
2864 4679 Pls
2864 4679 Pls
2865 4678 Pls
2865 4678 Pls
2865 4678 Pls
2865 4678 Pls
2866 4678 Pls
2866 4677 Pls
2866 4677 Pls
2866 4677 Pls
2866 4677 Pls
2867 4676 Pls
2867 4676 Pls
2867 4676 Pls
2867 4676 Pls
2868 4675 Pls
2868 4675 Pls
2868 4675 Pls
2869 4675 Pls
2869 4674 Pls
2869 4674 Pls
2870 4674 Pls
2870 4674 Pls
2870 4673 Pls
2870 4673 Pls
2870 4673 Pls
2871 4673 Pls
2871 4673 Pls
2871 4672 Pls
2871 4672 Pls
2871 4672 Pls
2872 4671 Pls
2872 4671 Pls
2872 4671 Pls
2872 4670 Pls
2873 4670 Pls
2873 4670 Pls
2873 4670 Pls
2873 4670 Pls
2874 4669 Pls
2874 4669 Pls
2874 4669 Pls
2874 4669 Pls
2874 4668 Pls
2875 4668 Pls
2875 4668 Pls
2875 4668 Pls
2875 4667 Pls
2876 4667 Pls
2876 4667 Pls
2876 4667 Pls
2877 4667 Pls
2877 4666 Pls
2877 4666 Pls
2878 4666 Pls
2878 4666 Pls
2878 4666 Pls
2878 4665 Pls
2878 4665 Pls
2879 4665 Pls
2879 4665 Pls
2879 4664 Pls
2879 4664 Pls
2879 4664 Pls
2879 4664 Pls
2879 4664 Pls
2880 4663 Pls
2880 4663 Pls
2880 4663 Pls
2880 4662 Pls
2880 4662 Pls
2880 4661 Pls
2881 4661 Pls
2881 4661 Pls
2881 4660 Pls
2881 4660 Pls
2881 4660 Pls
2882 4660 Pls
2882 4659 Pls
2882 4659 Pls
2882 4658 Pls
2882 4658 Pls
2883 4658 Pls
2883 4658 Pls
2883 4657 Pls
2883 4657 Pls
2883 4657 Pls
2883 4657 Pls
2884 4656 Pls
2884 4656 Pls
2884 4656 Pls
2884 4656 Pls
2884 4655 Pls
2884 4655 Pls
2885 4655 Pls
2885 4654 Pls
2885 4654 Pls
2886 4653 Pls
2886 4653 Pls
2886 4653 Pls
2886 4652 Pls
2887 4652 Pls
2887 4652 Pls
2887 4652 Pls
2887 4652 Pls
2887 4651 Pls
2887 4651 Pls
2887 4651 Pls
2888 4651 Pls
2888 4651 Pls
2888 4650 Pls
2888 4650 Pls
2888 4650 Pls
2888 4649 Pls
2889 4649 Pls
2889 4649 Pls
2889 4649 Pls
2890 4648 Pls
2891 4648 Pls
2891 4648 Pls
2891 4648 Pls
2892 4647 Pls
2892 4647 Pls
2892 4647 Pls
2892 4646 Pls
2892 4646 Pls
2893 4646 Pls
2893 4645 Pls
2893 4645 Pls
2893 4645 Pls
2893 4645 Pls
2894 4644 Pls
2894 4644 Pls
2894 4644 Pls
2895 4643 Pls
2895 4643 Pls
2895 4643 Pls
2896 4643 Pls
2896 4643 Pls
2897 4642 Pls
2897 4642 Pls
2897 4642 Pls
2897 4642 Pls
2897 4641 Pls
2897 4641 Pls
2897 4641 Pls
2898 4641 Pls
2898 4640 Pls
2898 4640 Pls
2899 4639 Pls
2899 4639 Pls
2900 4639 Pls
2900 4639 Pls
2900 4639 Pls
2900 4638 Pls
2901 4638 Pls
2901 4638 Pls
2901 4637 Pls
2901 4637 Pls
2901 4637 Pls
2902 4636 Pls
2902 4636 Pls
2902 4635 Pls
2902 4635 Pls
2903 4635 Pls
2903 4635 Pls
2904 4635 Pls
2904 4634 Pls
2904 4634 Pls
2904 4634 Pls
2904 4634 Pls
2904 4633 Pls
2905 4633 Pls
2905 4633 Pls
2905 4633 Pls
2905 4632 Pls
2905 4632 Pls
2906 4631 Pls
2906 4631 Pls
2906 4631 Pls
2906 4631 Pls
2906 4631 Pls
2906 4630 Pls
2906 4630 Pls
2906 4630 Pls
2906 4630 Pls
2907 4629 Pls
2907 4629 Pls
2907 4629 Pls
2907 4629 Pls
2908 4628 Pls
2908 4628 Pls
2908 4628 Pls
2908 4628 Pls
2908 4627 Pls
2909 4627 Pls
2909 4627 Pls
2909 4627 Pls
2910 4626 Pls
2910 4626 Pls
2910 4626 Pls
2910 4626 Pls
2910 4625 Pls
2910 4625 Pls
2911 4625 Pls
2911 4624 Pls
2911 4624 Pls
2911 4624 Pls
2911 4624 Pls
2912 4623 Pls
2912 4623 Pls
2912 4623 Pls
2912 4623 Pls
2913 4622 Pls
2913 4622 Pls
2914 4622 Pls
2914 4621 Pls
2914 4621 Pls
2914 4621 Pls
2915 4620 Pls
2915 4620 Pls
2915 4619 Pls
2915 4619 Pls
2915 4619 Pls
2916 4619 Pls
2916 4618 Pls
2916 4618 Pls
2916 4618 Pls
2916 4617 Pls
2916 4617 Pls
2916 4617 Pls
2917 4617 Pls
2917 4616 Pls
2917 4616 Pls
2918 4616 Pls
2918 4615 Pls
2918 4615 Pls
2919 4615 Pls
2919 4614 Pls
2919 4614 Pls
2919 4614 Pls
2920 4613 Pls
2920 4613 Pls
2920 4613 Pls
2921 4612 Pls
2921 4612 Pls
2921 4612 Pls
2921 4612 Pls
2922 4611 Pls
2922 4611 Pls
2922 4611 Pls
2922 4611 Pls
2923 4611 Pls
2923 4610 Pls
2923 4610 Pls
2923 4609 Pls
2923 4609 Pls
2923 4609 Pls
2923 4609 Pls
2924 4608 Pls
2924 4608 Pls
2924 4608 Pls
2924 4608 Pls
2924 4607 Pls
2924 4607 Pls
2924 4607 Pls
2925 4607 Pls
2925 4606 Pls
2925 4606 Pls
2925 4605 Pls
2925 4605 Pls
2926 4605 Pls
2926 4604 Pls
2926 4604 Pls
2926 4604 Pls
2926 4603 Pls
2927 4603 Pls
2927 4603 Pls
2927 4602 Pls
2927 4602 Pls
2927 4602 Pls
2927 4602 Pls
2928 4602 Pls
2928 4601 Pls
2928 4601 Pls
2928 4601 Pls
2928 4600 Pls
2929 4600 Pls
2929 4600 Pls
2929 4599 Pls
2929 4599 Pls
2930 4598 Pls
2930 4598 Pls
2930 4598 Pls
2930 4598 Pls
2930 4597 Pls
2930 4597 Pls
2931 4596 Pls
2931 4596 Pls
2931 4596 Pls
2932 4595 Pls
2932 4595 Pls
2932 4594 Pls
2932 4594 Pls
2933 4594 Pls
2933 4594 Pls
2933 4594 Pls
2933 4593 Pls
2933 4593 Pls
2933 4592 Pls
2933 4592 Pls
2934 4591 Pls
2934 4591 Pls
2934 4591 Pls
2934 4590 Pls
2934 4590 Pls
2934 4590 Pls
2935 4589 Pls
2936 4589 Pls
2936 4589 Pls
2936 4589 Pls
2937 4588 Pls
2937 4588 Pls
2937 4588 Pls
2937 4587 Pls
2937 4587 Pls
2938 4587 Pls
2938 4587 Pls
2938 4586 Pls
2938 4586 Pls
2938 4586 Pls
2939 4585 Pls
2939 4585 Pls
2939 4585 Pls
2940 4584 Pls
2940 4584 Pls
2941 4584 Pls
2941 4583 Pls
2941 4583 Pls
2941 4583 Pls
2941 4582 Pls
2942 4582 Pls
2942 4582 Pls
2942 4581 Pls
2942 4581 Pls
2943 4581 Pls
2943 4580 Pls
2943 4580 Pls
2943 4580 Pls
2943 4580 Pls
2944 4579 Pls
2944 4579 Pls
2944 4579 Pls
2945 4579 Pls
2945 4578 Pls
2945 4578 Pls
2946 4578 Pls
2946 4577 Pls
2946 4577 Pls
2946 4577 Pls
2947 4577 Pls
2947 4576 Pls
2947 4576 Pls
2947 4576 Pls
2947 4576 Pls
2948 4575 Pls
2948 4575 Pls
2948 4575 Pls
2948 4574 Pls
2948 4574 Pls
2949 4574 Pls
2949 4573 Pls
2950 4573 Pls
2950 4573 Pls
2950 4572 Pls
2950 4572 Pls
2950 4571 Pls
2950 4571 Pls
2950 4571 Pls
2951 4570 Pls
2951 4570 Pls
2951 4570 Pls
2951 4569 Pls
2951 4569 Pls
2952 4569 Pls
2952 4568 Pls
2952 4568 Pls
2952 4568 Pls
2953 4568 Pls
2953 4567 Pls
2953 4567 Pls
2953 4567 Pls
2953 4567 Pls
2954 4566 Pls
2954 4566 Pls
2954 4566 Pls
2954 4565 Pls
2954 4565 Pls
2954 4565 Pls
2955 4564 Pls
2955 4564 Pls
2955 4564 Pls
2955 4563 Pls
2955 4563 Pls
2955 4563 Pls
2955 4562 Pls
2956 4562 Pls
2956 4562 Pls
2956 4561 Pls
2957 4561 Pls
2957 4561 Pls
2957 4560 Pls
2957 4560 Pls
2958 4560 Pls
2958 4560 Pls
2958 4559 Pls
2959 4559 Pls
2959 4559 Pls
2960 4558 Pls
2960 4558 Pls
2960 4557 Pls
2960 4557 Pls
2960 4556 Pls
2960 4556 Pls
2961 4556 Pls
2961 4556 Pls
2961 4555 Pls
2961 4555 Pls
2962 4555 Pls
2962 4554 Pls
2962 4554 Pls
2963 4554 Pls
2963 4554 Pls
2963 4553 Pls
2964 4553 Pls
2964 4553 Pls
2964 4552 Pls
2964 4552 Pls
2965 4552 Pls
2965 4552 Pls
2965 4551 Pls
2965 4551 Pls
2965 4551 Pls
2966 4551 Pls
2966 4550 Pls
2966 4550 Pls
2966 4550 Pls
2966 4549 Pls
2967 4549 Pls
2967 4549 Pls
2967 4549 Pls
2967 4548 Pls
2967 4548 Pls
2968 4548 Pls
2968 4548 Pls
2968 4547 Pls
2968 4547 Pls
2968 4547 Pls
2968 4546 Pls
2969 4546 Pls
2969 4546 Pls
2969 4545 Pls
2969 4545 Pls
2970 4545 Pls
2970 4544 Pls
2970 4544 Pls
2971 4543 Pls
2971 4543 Pls
2971 4543 Pls
2972 4543 Pls
2972 4542 Pls
2973 4542 Pls
2973 4542 Pls
2973 4541 Pls
2973 4541 Pls
2974 4541 Pls
2974 4540 Pls
2975 4540 Pls
2975 4539 Pls
2975 4539 Pls
2975 4538 Pls
2975 4538 Pls
2976 4538 Pls
2976 4537 Pls
2976 4537 Pls
2976 4537 Pls
2977 4537 Pls
2977 4536 Pls
2977 4536 Pls
2977 4536 Pls
2977 4535 Pls
2977 4535 Pls
2978 4535 Pls
2978 4535 Pls
2978 4534 Pls
2978 4534 Pls
2978 4534 Pls
2979 4534 Pls
2979 4533 Pls
2979 4533 Pls
2979 4533 Pls
2980 4532 Pls
2980 4532 Pls
2980 4531 Pls
2981 4531 Pls
2981 4531 Pls
2981 4531 Pls
2981 4530 Pls
2981 4530 Pls
2982 4530 Pls
2982 4530 Pls
2982 4529 Pls
2982 4529 Pls
2982 4529 Pls
2983 4528 Pls
2983 4528 Pls
2983 4528 Pls
2983 4528 Pls
2983 4527 Pls
2983 4527 Pls
2984 4527 Pls
2984 4527 Pls
2985 4526 Pls
2985 4526 Pls
2985 4525 Pls
2986 4525 Pls
2986 4525 Pls
2986 4525 Pls
2986 4524 Pls
2987 4524 Pls
2987 4523 Pls
2987 4523 Pls
2987 4523 Pls
2987 4522 Pls
2987 4522 Pls
2988 4522 Pls
2988 4522 Pls
2988 4521 Pls
2988 4521 Pls
2989 4521 Pls
2989 4520 Pls
2989 4520 Pls
2989 4520 Pls
2989 4520 Pls
2989 4519 Pls
2990 4519 Pls
2990 4519 Pls
2990 4518 Pls
2990 4518 Pls
2990 4518 Pls
2991 4517 Pls
2991 4517 Pls
2991 4517 Pls
2991 4517 Pls
2991 4516 Pls
2992 4516 Pls
2992 4515 Pls
2992 4515 Pls
2992 4515 Pls
2992 4514 Pls
2993 4514 Pls
2993 4514 Pls
2993 4513 Pls
2993 4513 Pls
2993 4513 Pls
2993 4512 Pls
2994 4512 Pls
2994 4512 Pls
2994 4511 Pls
2994 4510 Pls
2995 4510 Pls
2995 4510 Pls
2995 4510 Pls
2995 4509 Pls
2995 4509 Pls
2996 4508 Pls
2996 4508 Pls
2996 4508 Pls
2996 4507 Pls
2996 4507 Pls
2997 4506 Pls
2997 4506 Pls
2997 4506 Pls
2997 4506 Pls
2998 4505 Pls
2998 4505 Pls
2998 4504 Pls
2999 4504 Pls
2999 4504 Pls
3000 4503 Pls
3000 4503 Pls
3001 4503 Pls
3001 4502 Pls
3001 4502 Pls
3001 4502 Pls
3001 4502 Pls
3002 4501 Pls
3002 4500 Pls
3002 4500 Pls
3003 4499 Pls
3003 4499 Pls
3003 4498 Pls
3003 4498 Pls
3004 4497 Pls
3004 4497 Pls
3004 4496 Pls
3004 4496 Pls
3004 4496 Pls
3004 4495 Pls
3004 4495 Pls
3005 4495 Pls
3005 4494 Pls
3005 4494 Pls
3005 4493 Pls
3005 4493 Pls
3005 4493 Pls
3006 4493 Pls
3006 4492 Pls
3006 4492 Pls
3006 4492 Pls
3007 4491 Pls
3007 4491 Pls
3007 4490 Pls
3008 4490 Pls
3008 4490 Pls
3008 4489 Pls
3009 4488 Pls
3009 4488 Pls
3009 4488 Pls
3009 4487 Pls
3009 4487 Pls
3010 4486 Pls
3010 4486 Pls
3010 4486 Pls
3010 4485 Pls
3011 4485 Pls
3011 4485 Pls
3011 4485 Pls
3011 4484 Pls
3012 4483 Pls
3012 4483 Pls
3012 4483 Pls
3012 4482 Pls
3013 4482 Pls
3013 4482 Pls
3013 4481 Pls
3014 4481 Pls
3014 4480 Pls
3014 4480 Pls
3014 4479 Pls
3015 4479 Pls
3015 4479 Pls
3016 4479 Pls
3016 4478 Pls
3016 4478 Pls
3016 4478 Pls
3016 4477 Pls
3017 4477 Pls
3017 4476 Pls
3017 4476 Pls
3017 4476 Pls
3017 4476 Pls
3018 4475 Pls
3018 4475 Pls
3018 4474 Pls
3019 4474 Pls
3019 4474 Pls
3019 4473 Pls
3020 4473 Pls
3020 4472 Pls
3020 4472 Pls
3020 4472 Pls
3021 4472 Pls
3021 4471 Pls
3021 4470 Pls
3021 4469 Pls
3022 4469 Pls
3022 4468 Pls
3022 4468 Pls
3023 4467 Pls
3023 4467 Pls
3023 4467 Pls
3023 4466 Pls
3024 4466 Pls
3024 4465 Pls
3024 4465 Pls
3024 4465 Pls
3024 4464 Pls
3024 4464 Pls
3024 4464 Pls
3025 4464 Pls
3025 4463 Pls
3025 4463 Pls
3025 4463 Pls
3026 4462 Pls
3026 4462 Pls
3026 4461 Pls
3026 4461 Pls
3027 4460 Pls
3027 4460 Pls
3027 4459 Pls
3027 4459 Pls
3027 4459 Pls
3028 4458 Pls
3028 4458 Pls
3028 4457 Pls
3029 4457 Pls
3029 4456 Pls
3030 4456 Pls
3030 4456 Pls
3030 4455 Pls
3031 4455 Pls
3031 4455 Pls
3031 4454 Pls
3031 4454 Pls
3031 4454 Pls
3032 4453 Pls
3032 4453 Pls
3033 4452 Pls
3033 4452 Pls
3034 4452 Pls
3034 4451 Pls
3034 4451 Pls
3034 4451 Pls
3035 4450 Pls
3035 4450 Pls
3035 4449 Pls
3035 4449 Pls
3036 4449 Pls
3037 4448 Pls
3037 4448 Pls
3037 4447 Pls
3037 4447 Pls
3037 4447 Pls
3037 4446 Pls
3038 4445 Pls
3038 4445 Pls
3038 4444 Pls
3039 4444 Pls
3039 4443 Pls
3039 4443 Pls
3039 4443 Pls
3039 4442 Pls
3040 4442 Pls
3040 4441 Pls
3040 4441 Pls
3041 4440 Pls
3041 4440 Pls
3041 4439 Pls
3041 4439 Pls
3041 4438 Pls
3042 4438 Pls
3042 4438 Pls
3042 4437 Pls
3042 4437 Pls
3042 4437 Pls
3042 4436 Pls
3043 4436 Pls
3043 4436 Pls
3043 4435 Pls
3044 4435 Pls
3044 4435 Pls
3044 4434 Pls
3045 4434 Pls
3045 4434 Pls
3045 4433 Pls
3046 4433 Pls
3046 4432 Pls
3047 4432 Pls
3047 4432 Pls
3047 4431 Pls
3047 4431 Pls
3047 4430 Pls
3047 4430 Pls
3048 4429 Pls
3048 4428 Pls
3048 4428 Pls
3048 4427 Pls
3048 4427 Pls
3048 4427 Pls
3049 4426 Pls
3049 4426 Pls
3049 4426 Pls
3050 4425 Pls
3050 4425 Pls
3050 4425 Pls
3050 4424 Pls
3051 4424 Pls
3051 4423 Pls
3051 4423 Pls
3052 4423 Pls
3052 4422 Pls
3052 4421 Pls
3052 4421 Pls
3053 4421 Pls
3053 4420 Pls
3053 4420 Pls
3053 4419 Pls
3053 4419 Pls
3054 4418 Pls
3054 4417 Pls
3054 4417 Pls
3054 4417 Pls
3054 4416 Pls
3055 4416 Pls
3055 4416 Pls
3056 4415 Pls
3056 4415 Pls
3056 4415 Pls
3057 4414 Pls
3057 4414 Pls
3058 4414 Pls
3058 4413 Pls
3058 4413 Pls
3059 4412 Pls
3059 4412 Pls
3059 4411 Pls
3059 4411 Pls
3060 4411 Pls
3061 4410 Pls
3061 4410 Pls
3061 4409 Pls
3061 4408 Pls
3061 4408 Pls
3062 4408 Pls
3062 4407 Pls
3062 4407 Pls
3063 4407 Pls
3063 4406 Pls
3063 4406 Pls
3063 4406 Pls
3063 4405 Pls
3063 4405 Pls
3063 4405 Pls
3063 4404 Pls
3064 4404 Pls
3064 4403 Pls
3064 4403 Pls
3065 4402 Pls
3065 4402 Pls
3065 4401 Pls
3066 4401 Pls
3066 4401 Pls
3066 4400 Pls
3066 4400 Pls
3066 4400 Pls
3066 4399 Pls
3067 4399 Pls
3067 4398 Pls
3067 4398 Pls
3067 4397 Pls
3067 4397 Pls
3068 4396 Pls
3068 4396 Pls
3068 4396 Pls
3069 4395 Pls
3069 4395 Pls
3070 4395 Pls
3070 4394 Pls
3071 4394 Pls
3071 4393 Pls
3072 4393 Pls
3072 4392 Pls
3073 4391 Pls
3074 4390 Pls
3074 4390 Pls
3074 4390 Pls
3074 4389 Pls
3075 4389 Pls
3075 4388 Pls
3075 4388 Pls
3075 4388 Pls
3075 4387 Pls
3076 4387 Pls
3076 4386 Pls
3076 4386 Pls
3076 4386 Pls
3076 4385 Pls
3076 4384 Pls
3077 4384 Pls
3077 4384 Pls
3077 4383 Pls
3078 4383 Pls
3078 4383 Pls
3079 4382 Pls
3079 4382 Pls
3079 4381 Pls
3079 4381 Pls
3079 4381 Pls
3079 4380 Pls
3079 4380 Pls
3080 4379 Pls
3080 4379 Pls
3080 4379 Pls
3081 4378 Pls
3081 4378 Pls
3082 4377 Pls
3083 4377 Pls
3083 4376 Pls
3084 4376 Pls
3084 4376 Pls
3084 4375 Pls
3084 4374 Pls
3085 4374 Pls
3085 4374 Pls
3085 4373 Pls
3085 4373 Pls
3085 4373 Pls
3085 4372 Pls
3086 4372 Pls
3086 4371 Pls
3087 4371 Pls
3087 4371 Pls
3087 4370 Pls
3087 4370 Pls
3088 4369 Pls
3088 4368 Pls
3088 4368 Pls
3088 4368 Pls
3088 4367 Pls
3088 4367 Pls
3088 4366 Pls
3089 4366 Pls
3089 4366 Pls
3089 4365 Pls
3089 4365 Pls
3089 4365 Pls
3089 4364 Pls
3090 4364 Pls
3090 4363 Pls
3090 4363 Pls
3090 4363 Pls
3090 4362 Pls
3090 4361 Pls
3090 4361 Pls
3091 4360 Pls
3091 4360 Pls
3091 4360 Pls
3092 4359 Pls
3092 4359 Pls
3093 4358 Pls
3094 4358 Pls
3094 4358 Pls
3094 4357 Pls
3094 4356 Pls
3095 4355 Pls
3095 4355 Pls
3095 4354 Pls
3096 4354 Pls
3096 4354 Pls
3096 4353 Pls
3097 4353 Pls
3097 4353 Pls
3097 4352 Pls
3097 4352 Pls
3097 4351 Pls
3097 4351 Pls
3098 4350 Pls
3099 4350 Pls
3099 4349 Pls
3099 4349 Pls
3099 4349 Pls
3099 4348 Pls
3099 4348 Pls
3099 4347 Pls
3100 4347 Pls
3100 4347 Pls
3101 4346 Pls
3101 4346 Pls
3102 4345 Pls
3102 4345 Pls
3102 4345 Pls
3103 4344 Pls
3103 4344 Pls
3103 4343 Pls
3103 4343 Pls
3104 4343 Pls
3104 4342 Pls
3104 4341 Pls
3104 4341 Pls
3105 4341 Pls
3105 4340 Pls
3106 4339 Pls
3106 4339 Pls
3106 4338 Pls
3106 4338 Pls
3107 4337 Pls
3107 4337 Pls
3108 4336 Pls
3108 4336 Pls
3108 4335 Pls
3108 4335 Pls
3108 4335 Pls
3108 4334 Pls
3109 4334 Pls
3109 4333 Pls
3109 4333 Pls
3109 4332 Pls
3110 4331 Pls
3110 4330 Pls
3110 4330 Pls
3110 4330 Pls
3111 4329 Pls
3111 4329 Pls
3112 4328 Pls
3112 4327 Pls
3112 4327 Pls
3112 4326 Pls
3112 4326 Pls
3113 4325 Pls
3113 4325 Pls
3114 4325 Pls
3114 4324 Pls
3114 4324 Pls
3114 4323 Pls
3114 4323 Pls
3115 4322 Pls
3115 4322 Pls
3115 4321 Pls
3115 4320 Pls
3115 4320 Pls
3115 4320 Pls
3116 4319 Pls
3116 4319 Pls
3116 4318 Pls
3117 4318 Pls
3117 4318 Pls
3117 4317 Pls
3118 4317 Pls
3118 4316 Pls
3118 4316 Pls
3118 4315 Pls
3118 4315 Pls
3119 4315 Pls
3119 4314 Pls
3119 4314 Pls
3119 4313 Pls
3120 4313 Pls
3120 4312 Pls
3121 4312 Pls
3121 4312 Pls
3121 4311 Pls
3121 4311 Pls
3122 4310 Pls
3122 4310 Pls
3122 4309 Pls
3123 4309 Pls
3123 4309 Pls
3124 4308 Pls
3124 4308 Pls
3124 4307 Pls
3125 4306 Pls
3125 4305 Pls
3125 4305 Pls
3126 4304 Pls
3126 4303 Pls
3126 4303 Pls
3126 4303 Pls
3126 4302 Pls
3126 4302 Pls
3127 4301 Pls
3127 4301 Pls
3128 4300 Pls
3128 4300 Pls
3129 4299 Pls
3129 4299 Pls
3129 4299 Pls
3129 4298 Pls
3129 4298 Pls
3129 4297 Pls
3129 4296 Pls
3130 4296 Pls
3130 4295 Pls
3130 4295 Pls
3130 4295 Pls
3130 4294 Pls
3131 4293 Pls
3131 4293 Pls
3131 4292 Pls
3131 4292 Pls
3131 4291 Pls
3131 4291 Pls
3132 4290 Pls
3132 4290 Pls
3132 4289 Pls
3132 4289 Pls
3132 4288 Pls
3132 4287 Pls
3133 4287 Pls
3133 4286 Pls
3133 4286 Pls
3135 4285 Pls
3135 4284 Pls
3135 4284 Pls
3136 4283 Pls
3136 4282 Pls
3136 4282 Pls
3136 4282 Pls
3136 4281 Pls
3136 4280 Pls
3137 4280 Pls
3137 4279 Pls
3137 4279 Pls
3137 4277 Pls
3137 4277 Pls
3138 4276 Pls
3138 4276 Pls
3138 4275 Pls
3139 4274 Pls
3139 4274 Pls
3139 4273 Pls
3139 4272 Pls
3139 4272 Pls
3140 4271 Pls
3140 4271 Pls
3140 4271 Pls
3141 4270 Pls
3141 4269 Pls
3141 4268 Pls
3142 4267 Pls
3142 4267 Pls
3142 4266 Pls
3143 4265 Pls
3144 4263 Pls
3144 4263 Pls
3145 4262 Pls
3145 4261 Pls
3145 4261 Pls
3145 4260 Pls
3145 4260 Pls
3146 4259 Pls
3146 4259 Pls
3146 4258 Pls
3147 4258 Pls
3147 4257 Pls
3148 4257 Pls
3148 4256 Pls
3148 4256 Pls
3148 4255 Pls
3149 4254 Pls
3149 4254 Pls
3150 4253 Pls
3150 4252 Pls
3150 4252 Pls
3150 4251 Pls
3151 4251 Pls
3152 4250 Pls
3152 4250 Pls
3153 4249 Pls
3153 4249 Pls
3154 4248 Pls
3154 4247 Pls
3155 4247 Pls
3155 4246 Pls
3155 4245 Pls
3156 4244 Pls
3156 4244 Pls
3156 4243 Pls
3156 4243 Pls
3156 4242 Pls
3157 4242 Pls
3158 4241 Pls
3158 4240 Pls
3158 4239 Pls
3158 4239 Pls
3158 4238 Pls
3159 4238 Pls
3159 4237 Pls
3160 4237 Pls
3160 4236 Pls
3160 4236 Pls
3161 4235 Pls
3161 4235 Pls
3162 4234 Pls
3163 4234 Pls
3163 4233 Pls
3163 4233 Pls
3163 4232 Pls
3163 4232 Pls
3163 4231 Pls
3164 4231 Pls
3164 4230 Pls
3164 4229 Pls
3164 4229 Pls
3165 4228 Pls
3165 4228 Pls
3165 4227 Pls
3165 4226 Pls
3166 4225 Pls
3166 4224 Pls
3167 4224 Pls
3167 4223 Pls
3168 4222 Pls
3168 4222 Pls
3168 4221 Pls
3168 4221 Pls
3169 4220 Pls
3169 4219 Pls
3170 4219 Pls
3170 4218 Pls
3171 4217 Pls
3171 4217 Pls
3171 4216 Pls
3171 4216 Pls
3171 4215 Pls
3171 4215 Pls
3172 4214 Pls
3172 4214 Pls
3172 4213 Pls
3172 4213 Pls
3173 4212 Pls
3173 4212 Pls
3173 4211 Pls
3173 4211 Pls
3174 4210 Pls
3175 4210 Pls
3175 4209 Pls
3175 4208 Pls
3175 4208 Pls
3176 4207 Pls
3176 4206 Pls
3177 4206 Pls
3177 4205 Pls
3177 4205 Pls
3177 4204 Pls
3177 4204 Pls
3178 4203 Pls
3178 4203 Pls
3178 4202 Pls
3179 4202 Pls
3179 4201 Pls
3179 4200 Pls
3179 4200 Pls
3180 4199 Pls
3180 4199 Pls
3180 4198 Pls
3181 4198 Pls
3181 4197 Pls
3182 4196 Pls
3182 4195 Pls
3182 4194 Pls
3182 4194 Pls
3183 4193 Pls
3184 4193 Pls
3184 4192 Pls
3185 4192 Pls
3186 4191 Pls
3186 4191 Pls
3186 4190 Pls
3187 4190 Pls
3187 4189 Pls
3188 4188 Pls
3188 4188 Pls
3188 4187 Pls
3189 4187 Pls
3189 4186 Pls
3190 4186 Pls
3190 4185 Pls
3191 4185 Pls
3192 4183 Pls
3192 4183 Pls
3192 4182 Pls
3193 4182 Pls
3193 4181 Pls
3193 4180 Pls
3193 4180 Pls
3193 4178 Pls
3194 4178 Pls
3194 4177 Pls
3195 4177 Pls
3195 4176 Pls
3196 4176 Pls
3196 4175 Pls
3196 4174 Pls
3197 4174 Pls
3198 4173 Pls
3198 4172 Pls
3199 4172 Pls
3199 4171 Pls
3200 4170 Pls
3200 4170 Pls
3200 4169 Pls
3201 4169 Pls
3201 4168 Pls
3201 4167 Pls
3202 4166 Pls
3202 4166 Pls
3203 4165 Pls
3203 4165 Pls
3204 4164 Pls
3204 4163 Pls
3204 4163 Pls
3205 4162 Pls
3205 4162 Pls
3205 4161 Pls
3205 4161 Pls
3205 4160 Pls
3205 4159 Pls
3205 4159 Pls
3206 4158 Pls
3206 4158 Pls
3206 4157 Pls
3207 4156 Pls
3207 4156 Pls
3208 4155 Pls
3208 4155 Pls
3209 4154 Pls
3209 4153 Pls
3209 4153 Pls
3210 4152 Pls
3210 4151 Pls
3210 4151 Pls
3210 4150 Pls
3211 4149 Pls
3211 4149 Pls
3211 4148 Pls
3211 4148 Pls
3211 4147 Pls
3212 4146 Pls
3212 4146 Pls
3212 4145 Pls
3213 4144 Pls
3213 4144 Pls
3213 4143 Pls
3214 4143 Pls
3215 4142 Pls
3215 4141 Pls
3216 4141 Pls
3216 4140 Pls
3216 4139 Pls
3217 4138 Pls
3217 4138 Pls
3217 4137 Pls
3218 4137 Pls
3218 4136 Pls
3219 4135 Pls
3219 4135 Pls
3220 4134 Pls
3220 4133 Pls
3221 4133 Pls
3222 4132 Pls
3222 4132 Pls
3223 4131 Pls
3223 4130 Pls
3223 4130 Pls
3223 4129 Pls
3225 4128 Pls
3226 4127 Pls
3226 4127 Pls
3227 4126 Pls
3227 4125 Pls
3228 4125 Pls
3228 4123 Pls
3229 4123 Pls
3230 4122 Pls
3230 4122 Pls
3231 4121 Pls
3231 4120 Pls
3231 4118 Pls
3232 4117 Pls
3232 4116 Pls
3233 4116 Pls
3233 4115 Pls
3233 4115 Pls
3234 4114 Pls
3234 4113 Pls
3234 4113 Pls
3235 4112 Pls
3235 4111 Pls
3235 4111 Pls
3235 4110 Pls
3236 4109 Pls
3237 4109 Pls
3237 4108 Pls
3238 4107 Pls
3239 4106 Pls
3240 4105 Pls
3240 4105 Pls
3241 4103 Pls
3241 4103 Pls
3241 4101 Pls
3241 4100 Pls
3242 4098 Pls
3242 4097 Pls
3242 4097 Pls
3243 4096 Pls
3243 4095 Pls
3243 4095 Pls
3244 4093 Pls
3244 4092 Pls
3244 4091 Pls
3245 4091 Pls
3245 4090 Pls
3246 4089 Pls
3247 4089 Pls
3248 4087 Pls
3248 4087 Pls
3249 4085 Pls
3249 4085 Pls
3249 4084 Pls
3249 4083 Pls
3250 4083 Pls
3250 4080 Pls
3251 4080 Pls
3251 4079 Pls
3251 4078 Pls
3251 4078 Pls
3252 4077 Pls
3252 4076 Pls
3253 4076 Pls
3254 4075 Pls
3255 4074 Pls
3255 4073 Pls
3255 4073 Pls
3255 4071 Pls
3256 4071 Pls
3257 4070 Pls
3257 4069 Pls
3258 4069 Pls
3258 4068 Pls
3258 4067 Pls
3259 4066 Pls
3260 4066 Pls
3261 4065 Pls
3261 4064 Pls
3261 4064 Pls
3262 4063 Pls
3262 4062 Pls
3262 4061 Pls
3262 4061 Pls
3262 4060 Pls
3263 4059 Pls
3263 4059 Pls
3263 4058 Pls
3264 4057 Pls
3264 4056 Pls
3265 4056 Pls
3265 4055 Pls
3265 4054 Pls
3265 4053 Pls
3266 4052 Pls
3266 4051 Pls
3267 4050 Pls
3267 4050 Pls
3268 4049 Pls
3268 4048 Pls
3268 4048 Pls
3268 4047 Pls
3269 4046 Pls
3269 4045 Pls
3270 4045 Pls
3270 4044 Pls
3271 4043 Pls
3271 4042 Pls
3271 4042 Pls
3271 4041 Pls
3272 4040 Pls
3275 4039 Pls
3275 4039 Pls
3275 4038 Pls
3277 4037 Pls
3277 4036 Pls
3278 4036 Pls
3279 4035 Pls
3279 4033 Pls
3280 4032 Pls
3282 4032 Pls
3282 4031 Pls
3283 4030 Pls
3284 4029 Pls
3285 4028 Pls
3285 4027 Pls
3285 4026 Pls
3286 4026 Pls
3287 4025 Pls
3287 4024 Pls
3288 4023 Pls
3289 4022 Pls
3290 4021 Pls
3290 4020 Pls
3290 4019 Pls
3290 4018 Pls
3292 4018 Pls
3293 4017 Pls
3293 4016 Pls
3293 4015 Pls
3294 4015 Pls
3294 4014 Pls
3295 4013 Pls
3295 4012 Pls
3295 4011 Pls
3295 4011 Pls
3296 4010 Pls
3296 4009 Pls
3297 4008 Pls
3297 4007 Pls
3298 4007 Pls
3298 4006 Pls
3299 4005 Pls
3299 4004 Pls
3299 4003 Pls
3299 4002 Pls
3300 4002 Pls
3301 4001 Pls
3301 3999 Pls
3302 3998 Pls
3302 3998 Pls
3303 3997 Pls
3303 3996 Pls
3304 3995 Pls
3304 3994 Pls
3306 3993 Pls
3308 3993 Pls
3311 3992 Pls
3311 3991 Pls
3311 3990 Pls
3311 3989 Pls
3312 3988 Pls
3312 3988 Pls
3313 3986 Pls
3314 3985 Pls
3314 3984 Pls
3315 3983 Pls
3315 3983 Pls
3316 3980 Pls
3316 3979 Pls
3316 3978 Pls
3317 3977 Pls
3317 3977 Pls
3318 3976 Pls
3319 3975 Pls
3319 3974 Pls
3319 3973 Pls
3320 3972 Pls
3321 3971 Pls
3322 3971 Pls
3323 3970 Pls
3324 3968 Pls
3324 3967 Pls
3324 3966 Pls
3325 3965 Pls
3326 3964 Pls
3327 3964 Pls
3327 3963 Pls
3327 3962 Pls
3328 3961 Pls
3330 3960 Pls
3331 3959 Pls
3332 3958 Pls
3333 3957 Pls
3333 3956 Pls
3333 3955 Pls
3334 3955 Pls
3334 3954 Pls
3336 3953 Pls
3336 3951 Pls
3337 3950 Pls
3337 3949 Pls
3337 3947 Pls
3337 3946 Pls
3338 3944 Pls
3339 3943 Pls
3339 3942 Pls
3340 3941 Pls
3341 3940 Pls
3342 3938 Pls
3342 3937 Pls
3342 3936 Pls
3342 3935 Pls
3342 3934 Pls
3343 3933 Pls
3345 3933 Pls
3345 3932 Pls
3346 3931 Pls
3346 3930 Pls
3346 3929 Pls
3348 3928 Pls
3348 3927 Pls
3349 3926 Pls
3349 3925 Pls
3349 3924 Pls
3349 3923 Pls
3350 3922 Pls
3350 3921 Pls
3350 3920 Pls
3350 3919 Pls
3351 3918 Pls
3352 3917 Pls
3354 3916 Pls
3355 3915 Pls
3356 3914 Pls
3357 3913 Pls
3357 3911 Pls
3359 3909 Pls
3360 3908 Pls
3360 3907 Pls
3362 3906 Pls
3362 3905 Pls
3363 3904 Pls
3363 3903 Pls
3364 3902 Pls
3365 3901 Pls
3365 3900 Pls
3365 3899 Pls
3366 3898 Pls
3367 3897 Pls
3369 3896 Pls
3370 3895 Pls
3371 3894 Pls
3372 3893 Pls
3373 3892 Pls
3374 3890 Pls
3374 3889 Pls
3374 3887 Pls
3375 3886 Pls
3375 3885 Pls
3377 3884 Pls
3377 3883 Pls
3377 3882 Pls
3377 3881 Pls
3377 3880 Pls
3379 3878 Pls
3380 3877 Pls
3381 3876 Pls
3381 3875 Pls
3382 3873 Pls
3382 3872 Pls
3383 3871 Pls
3383 3870 Pls
3383 3868 Pls
3384 3867 Pls
3384 3866 Pls
3385 3865 Pls
3386 3864 Pls
3388 3862 Pls
3388 3861 Pls
3389 3859 Pls
3389 3858 Pls
3390 3857 Pls
3390 3856 Pls
3390 3855 Pls
3392 3854 Pls
3392 3853 Pls
3393 3852 Pls
3393 3851 Pls
3394 3849 Pls
3397 3848 Pls
3400 3847 Pls
3401 3846 Pls
3401 3845 Pls
3401 3844 Pls
3403 3843 Pls
3403 3842 Pls
3404 3840 Pls
3406 3839 Pls
3407 3838 Pls
3408 3837 Pls
3409 3836 Pls
3409 3835 Pls
3410 3834 Pls
3411 3832 Pls
3411 3831 Pls
3412 3830 Pls
3413 3829 Pls
3413 3828 Pls
3414 3827 Pls
3414 3825 Pls
3415 3824 Pls
3415 3823 Pls
3417 3822 Pls
3418 3821 Pls
3423 3819 Pls
3423 3818 Pls
3423 3817 Pls
3424 3815 Pls
3425 3813 Pls
3425 3812 Pls
3425 3811 Pls
3426 3810 Pls
3426 3809 Pls
3426 3807 Pls
3428 3806 Pls
3429 3805 Pls
3429 3804 Pls
3431 3802 Pls
3432 3801 Pls
3433 3800 Pls
3434 3799 Pls
3434 3797 Pls
3437 3796 Pls
3437 3795 Pls
3439 3794 Pls
3439 3792 Pls
3440 3790 Pls
3443 3789 Pls
3443 3787 Pls
3443 3786 Pls
3444 3785 Pls
3445 3784 Pls
3445 3782 Pls
3446 3781 Pls
3447 3780 Pls
3447 3778 Pls
3447 3777 Pls
3448 3776 Pls
3448 3774 Pls
3451 3773 Pls
3452 3772 Pls
3453 3771 Pls
3455 3769 Pls
3455 3768 Pls
3456 3767 Pls
3456 3765 Pls
3458 3764 Pls
3459 3761 Pls
3459 3760 Pls
3460 3759 Pls
3461 3757 Pls
3462 3756 Pls
3464 3754 Pls
3465 3753 Pls
3466 3752 Pls
3466 3750 Pls
3466 3749 Pls
3467 3748 Pls
3472 3745 Pls
3472 3743 Pls
3473 3742 Pls
3473 3741 Pls
3474 3739 Pls
3475 3738 Pls
3476 3736 Pls
3478 3735 Pls
3479 3734 Pls
3480 3732 Pls
3481 3731 Pls
3486 3729 Pls
3487 3728 Pls
3487 3726 Pls
3489 3725 Pls
3490 3723 Pls
3490 3722 Pls
3491 3721 Pls
3491 3719 Pls
3492 3718 Pls
3494 3716 Pls
3494 3715 Pls
3495 3712 Pls
3496 3710 Pls
3500 3709 Pls
3501 3707 Pls
3502 3706 Pls
3502 3704 Pls
3505 3703 Pls
3506 3701 Pls
3506 3700 Pls
3506 3698 Pls
3508 3697 Pls
3508 3695 Pls
3509 3693 Pls
3509 3692 Pls
3513 3690 Pls
3516 3689 Pls
3516 3687 Pls
3516 3686 Pls
3516 3682 Pls
3520 3681 Pls
3522 3679 Pls
3522 3678 Pls
3523 3676 Pls
3523 3674 Pls
3524 3673 Pls
3525 3670 Pls
3526 3668 Pls
3529 3666 Pls
3532 3665 Pls
3533 3663 Pls
3534 3661 Pls
3537 3660 Pls
3538 3658 Pls
3538 3656 Pls
3540 3655 Pls
3541 3653 Pls
3541 3651 Pls
3545 3650 Pls
3548 3648 Pls
3548 3646 Pls
3548 3645 Pls
3549 3643 Pls
3550 3641 Pls
3550 3639 Pls
3550 3638 Pls
3551 3636 Pls
3551 3634 Pls
3555 3632 Pls
3557 3631 Pls
3558 3629 Pls
3562 3627 Pls
3563 3625 Pls
3563 3624 Pls
3564 3622 Pls
3567 3620 Pls
3570 3618 Pls
3571 3616 Pls
3573 3613 Pls
3574 3611 Pls
3576 3609 Pls
3579 3607 Pls
3580 3605 Pls
3582 3603 Pls
3584 3602 Pls
3584 3600 Pls
3587 3598 Pls
3589 3596 Pls
3589 3594 Pls
3589 3592 Pls
3589 3590 Pls
3589 3588 Pls
3592 3586 Pls
3593 3584 Pls
3593 3582 Pls
3597 3580 Pls
3598 3578 Pls
3600 3577 Pls
3601 3575 Pls
3601 3573 Pls
3602 3571 Pls
3611 3567 Pls
3613 3564 Pls
3616 3562 Pls
3617 3560 Pls
3619 3558 Pls
3621 3556 Pls
3622 3554 Pls
3622 3552 Pls
3623 3550 Pls
3624 3548 Pls
3624 3546 Pls
3627 3544 Pls
3628 3542 Pls
3628 3540 Pls
3629 3537 Pls
3633 3535 Pls
3633 3533 Pls
3634 3531 Pls
3634 3529 Pls
3635 3527 Pls
3639 3524 Pls
3640 3522 Pls
3641 3520 Pls
3642 3518 Pls
3646 3515 Pls
3646 3513 Pls
3653 3509 Pls
3654 3506 Pls
3657 3504 Pls
3657 3502 Pls
3663 3500 Pls
3663 3497 Pls
3669 3495 Pls
3669 3492 Pls
3669 3490 Pls
3670 3488 Pls
3670 3485 Pls
3673 3483 Pls
3675 3481 Pls
3677 3478 Pls
3678 3476 Pls
3678 3473 Pls
3678 3471 Pls
3679 3468 Pls
3681 3466 Pls
3682 3463 Pls
3684 3461 Pls
3684 3458 Pls
3686 3456 Pls
3691 3453 Pls
3692 3451 Pls
3693 3448 Pls
3695 3446 Pls
3696 3443 Pls
3698 3440 Pls
3701 3438 Pls
3704 3435 Pls
3705 3432 Pls
3706 3430 Pls
3708 3427 Pls
3709 3424 Pls
3710 3422 Pls
3711 3419 Pls
3712 3416 Pls
3713 3413 Pls
3714 3411 Pls
3718 3408 Pls
3720 3405 Pls
3720 3402 Pls
3726 3399 Pls
3727 3396 Pls
3731 3394 Pls
3734 3391 Pls
3734 3388 Pls
3735 3385 Pls
3735 3382 Pls
3743 3379 Pls
3744 3376 Pls
3745 3373 Pls
3755 3370 Pls
3756 3367 Pls
3757 3364 Pls
3760 3361 Pls
3762 3357 Pls
3763 3354 Pls
3767 3351 Pls
3773 3348 Pls
3778 3345 Pls
3781 3342 Pls
3784 3338 Pls
3788 3335 Pls
3791 3332 Pls
3792 3329 Pls
3792 3325 Pls
3795 3322 Pls
3796 3319 Pls
3799 3315 Pls
3799 3312 Pls
3800 3308 Pls
3800 3305 Pls
3801 3301 Pls
3801 3298 Pls
3803 3294 Pls
3805 3291 Pls
3805 3287 Pls
3813 3283 Pls
3816 3280 Pls
3823 3276 Pls
3827 3272 Pls
3834 3269 Pls
3835 3265 Pls
3837 3261 Pls
3838 3257 Pls
3838 3253 Pls
3843 3250 Pls
3844 3246 Pls
3847 3242 Pls
3849 3238 Pls
3850 3234 Pls
3850 3230 Pls
3851 3226 Pls
3852 3221 Pls
3853 3217 Pls
3860 3213 Pls
3867 3209 Pls
3870 3200 Pls
3874 3196 Pls
3876 3192 Pls
3877 3187 Pls
3880 3183 Pls
3900 3178 Pls
3902 3174 Pls
3906 3169 Pls
3912 3164 Pls
3913 3160 Pls
3917 3155 Pls
3920 3150 Pls
3928 3145 Pls
3934 3140 Pls
3951 3135 Pls
3957 3131 Pls
3967 3125 Pls
3969 3120 Pls
3975 3115 Pls
3984 3110 Pls
3988 3105 Pls
3989 3100 Pls
3991 3094 Pls
3992 3089 Pls
4002 3083 Pls
4013 3078 Pls
4014 3072 Pls
4014 3066 Pls
4031 3061 Pls
4046 3055 Pls
4054 3049 Pls
4054 3043 Pls
4070 3037 Pls
4080 3031 Pls
4083 3025 Pls
4102 3018 Pls
4106 3012 Pls
4113 3006 Pls
4135 2999 Pls
4135 2992 Pls
4137 2986 Pls
4138 2979 Pls
4141 2972 Pls
4145 2965 Pls
4165 2958 Pls
4174 2951 Pls
4180 2943 Pls
4181 2936 Pls
4192 2928 Pls
4192 2921 Pls
4194 2913 Pls
4203 2905 Pls
4208 2897 Pls
4215 2889 Pls
4225 2880 Pls
4230 2872 Pls
4239 2863 Pls
4251 2854 Pls
4253 2845 Pls
4273 2836 Pls
4301 2827 Pls
4304 2817 Pls
4351 2808 Pls
4357 2798 Pls
4362 2788 Pls
4386 2777 Pls
4387 2767 Pls
4390 2756 Pls
4414 2745 Pls
4416 2734 Pls
4421 2722 Pls
4434 2710 Pls
4444 2698 Pls
4465 2685 Pls
4476 2673 Pls
4500 2660 Pls
4523 2646 Pls
4532 2632 Pls
4534 2618 Pls
4554 2603 Pls
4572 2588 Pls
4584 2572 Pls
4597 2556 Pls
4605 2539 Pls
4608 2521 Pls
4610 2503 Pls
4614 2484 Pls
4623 2465 Pls
4640 2444 Pls
4641 2423 Pls
4672 2401 Pls
4762 2377 Pls
4774 2353 Pls
4802 2327 Pls
4840 2299 Pls
4869 2270 Pls
4931 2239 Pls
4948 2206 Pls
4957 2170 Pls
5205 2132 Pls
5234 2090 Pls
5405 2044 Pls
5473 1994 Pls
5513 1937 Pls
5655 1873 Pls
5738 1799 Pls
5904 1712 Pls
6372 1604 Pls
6560 1466 Pls
6783 1271 Pls
6787 939 Pls
% End plot #1
2.000 UL
LTb
LCb setrgbcolor
1.000 UL
LTB
LCb setrgbcolor
938 4871 N
938 448 L
6009 0 V
0 4423 V
-6009 0 V
Z stroke
1.000 UP
1.000 UL
LTb
LCb setrgbcolor
stroke
grestore
end
showpage
